<?xml version="1.0" encoding="UTF-8" standalone="no"?>
<!DOCTYPE svg PUBLIC "-//W3C//DTD SVG 1.1//EN" "http://www.w3.org/Graphics/SVG/1.1/DTD/svg11.dtd" >
<svg xmlns="http://www.w3.org/2000/svg"
><metadata
></metadata
><defs
><font horiz-adv-x="1024"
><font-face font-family="Bitstream Vera Sans" units-per-em="2048" ascent="1901" descent="-483"
></font-face
><missing-glyph horiz-adv-x="1229" d="M102 -362V1444H1126V-362H102ZM217 -248h795V1329H217V-248Z"
></missing-glyph
><glyph unicode=" " horiz-adv-x="713" d=""
></glyph
><glyph unicode="!" horiz-adv-x="934" d="M287 1493H647V920L596 502H338L287 920v573ZM287 356H647V0H287V356Z"
></glyph
><glyph unicode="&quot;" horiz-adv-x="1067" d="M872 1493V938H635v555H872ZM432 1493V938H195v555H432Z"
></glyph
><glyph unicode="#" horiz-adv-x="1716" d="M911 1470L815 1085h264l97 385h221l-97 -385h277V872H1247L1178 598h284V383H1126L1030 0H809l96 383H641L545 0H322l96 383H139V598H467l70 274H254v213H592l96 385H911ZM1024 872H760L690 598H954l70 274Z"
></glyph
><glyph unicode="$" horiz-adv-x="1425" d="M795 -301H633L632 0Q507 5 390 28T162 92V354Q277 295 394.5 263.5T633 228V539l-33 6Q361 587 260.5 677T160 936q0 179 122.5 279.5T632 1325l1 231H795V1329q100 -8 200 -25t201 -44V1006q-100 42 -200 65.5T795 1100V813l32 -6q254 -40 356.5 -133.5T1286 397q0 -184 -122 -282.5T795 2V-301ZM633 836v261q-71 -4 -113.5 -38.5T477 971q0 -59 39 -92.5T633 836ZM795 510V232q87 1 130.5 34T969 365q0 68 -40 101.5T795 510Z"
></glyph
><glyph unicode="%" horiz-adv-x="2052" d="M1587 616q-71 0 -110 -61.5T1438 379q0 -115 38.5 -176.5T1587 141q72 0 110 61.5T1735 379q0 114 -38.5 175.5T1587 616ZM1587 784q186 0 293 -108T1987 379Q1987 190 1880 80.5T1587 -29q-186 0 -293.5 109.5T1186 379q0 188 107.5 296.5T1587 784ZM670 -29H449l933 1549h222L670 -29ZM465 1520q186 0 292.5 -108.5T864 1114Q864 925 757.5 816T465 707Q279 707 172.5 816T66 1114q0 189 106.5 297.5T465 1520ZM465 1352q-72 0 -111 -62T315 1114q0 -115 39 -177.5T465 874q72 0 110.5 62.5T614 1114q0 114 -39 176t-110 62Z"
></glyph
><glyph unicode="&amp;" horiz-adv-x="1786" d="M799 991L1208 541q53 70 80.5 157T1321 895h311Q1617 713 1561.5 571T1407 322L1700 0H1276l-98 109Q1073 39 957 5T711 -29Q448 -29 285.5 109.5T123 467q0 146 71.5 258.5T428 944q-42 53 -62 106t-20 111q0 163 127 261t338 98q91 0 189.5 -14.5T1206 1462V1184q-94 48 -178 71t-164 23q-77 0 -119.5 -29.5T702 1165q0 -34 24.5 -77.5T799 991ZM600 743Q535 696 502 636.5T469 506q0 -115 85 -196T758 229q67 0 125 20.5T991 311L600 743Z"
></glyph
><glyph unicode="&#39;" horiz-adv-x="627" d="M432 1493V938H195v555H432Z"
></glyph
><glyph unicode="(" horiz-adv-x="936" d="M772 -270H475Q322 -23 249 199.5T176 641q0 219 73.5 443.5T475 1554H772Q644 1317 580 1090.5T516 643q0 -221 63.5 -448T772 -270Z"
></glyph
><glyph unicode=")" horiz-adv-x="936" d="M164 -270Q292 -32 356 195t64 448q0 221 -64 447.5T164 1554H461Q613 1309 686.5 1084.5T760 641Q760 422 687 199.5T461 -270H164Z"
></glyph
><glyph unicode="*" horiz-adv-x="1071" d="M1030 1217L700 1044L1030 870L954 729L621 913V569H451V913L117 729L41 870l334 174L41 1217l76 141L451 1176v344H621V1176l333 182l76 -141Z"
></glyph
><glyph unicode="+" horiz-adv-x="1716" d="M977 1284V760h522V524H977V0H739V524H217V760H739v524H977Z"
></glyph
><glyph unicode="," horiz-adv-x="778" d="M209 387H569V82L322 -291H109L209 82V387Z"
></glyph
><glyph unicode="-" horiz-adv-x="850" d="M111 735H739V444H111V735Z"
></glyph
><glyph unicode="." horiz-adv-x="778" d="M209 387H569V0H209V387Z"
></glyph
><glyph unicode="/" horiz-adv-x="748" d="M526 1493H748L221 -190H0L526 1493Z"
></glyph
><glyph unicode="0" horiz-adv-x="1425" d="M942 748q0 280 -52.5 394.5T713 1257q-124 0 -177 -114.5T483 748q0 -283 53 -399T713 233q123 0 176 116t53 399ZM1327 745q0 -371 -160 -572.5T713 -29Q418 -29 258 172.5T98 745q0 372 160 573.5T713 1520q294 0 454 -201.5T1327 745Z"
></glyph
><glyph unicode="1" horiz-adv-x="1425" d="M240 266H580v965L231 1159v262l347 72H944V266h340V0H240V266Z"
></glyph
><glyph unicode="2" horiz-adv-x="1425" d="M590 283h657V0H162V283L707 764q73 66 108 129t35 131q0 105 -70.5 169T592 1257q-90 0 -197 -38.5T166 1104v328q130 43 257 65.5T672 1520q268 0 416.5 -118T1237 1073q0 -122 -63 -227.5T909 563L590 283Z"
></glyph
><glyph unicode="3" horiz-adv-x="1425" d="M954 805q151 -39 229.5 -135.5T1262 424Q1262 202 1092 86.5T596 -29q-115 0 -230.5 18.5T137 45V342Q245 288 351.5 260.5T561 233q153 0 234.5 53T877 438q0 102 -83.5 154.5T547 645H393V893H555q145 0 216 45.5T842 1077q0 86 -69 133t-195 47q-93 0 -188 -21T201 1174v282q114 32 226 48t220 16q291 0 435.5 -95.5T1227 1137q0 -131 -69 -214.5T954 805Z"
></glyph
><glyph unicode="4" horiz-adv-x="1425" d="M754 1176L332 551H754v625ZM690 1493h428V551h213V272H1118V0H754V272H92V602l598 891Z"
></glyph
><glyph unicode="5" horiz-adv-x="1425" d="M217 1493h957V1210H524V979q44 12 88.5 18.5T705 1004q273 0 425 -136.5T1282 487q0 -242 -165.5 -379T657 -29Q530 -29 405.5 -4.5T158 70V373Q280 303 389.5 268T596 233q140 0 220.5 68.5T897 487q0 118 -80.5 186T596 741q-83 0 -177 -21.5T217 653v840Z"
></glyph
><glyph unicode="6" horiz-adv-x="1425" d="M741 737Q640 737 589.5 671.5T539 475q0 -131 50.5 -196.5T741 213q102 0 152.5 65.5T944 475q0 131 -50.5 196.5T741 737ZM1217 1454V1178q-95 45 -179 66.5T874 1266q-172 0 -268 -95.5T494 887q66 49 143 73.5T805 985q229 0 369.5 -134T1315 500q0 -240 -157 -384.5T737 -29Q446 -29 286.5 167.5T127 725q0 370 186.5 581.5T825 1518q103 0 200 -16t192 -48Z"
></glyph
><glyph unicode="7" horiz-adv-x="1425" d="M137 1493H1262V1276L680 0H305L856 1210H137v283Z"
></glyph
><glyph unicode="8" horiz-adv-x="1425" d="M713 668Q605 668 547 609T489 440q0 -110 58 -168.5T713 213q107 0 164 58.5T934 440q0 111 -57 169.5T713 668ZM432 795Q296 836 227 921t-69 212q0 189 141 288t414 99q271 0 412 -98.5T1266 1133q0 -127 -69.5 -212T991 795q152 -42 229.5 -136.5T1298 420Q1298 198 1150.5 84.5T713 -29Q422 -29 273.5 84.5T125 420q0 144 77.5 238.5T432 795ZM522 1094q0 -89 49.5 -137T713 909q90 0 139 48t49 137q0 89 -49 136.5T713 1278q-92 0 -141.5 -48T522 1094Z"
></glyph
><glyph unicode="9" horiz-adv-x="1425" d="M205 33V309q92 -43 176 -64.5T547 223q172 0 268 95.5T928 602Q860 552 783 527T616 502Q387 502 246.5 635.5T106 987q0 241 156.5 386T682 1518q292 0 452 -197T1294 764q0 -370 -187 -581.5T594 -29q-105 0 -201 15.5T205 33ZM680 752q101 0 152 65.5T883 1014q0 130 -51 196t-152 66q-101 0 -152 -66T477 1014q0 -131 51 -196.5T680 752Z"
></glyph
><glyph unicode=":" horiz-adv-x="819" d="M229 1120H590V733H229v387ZM229 387H590V0H229V387Z"
></glyph
><glyph unicode=";" horiz-adv-x="819" d="M229 387H590V82L342 -291H129L229 82V387ZM229 1120H590V733H229v387Z"
></glyph
><glyph unicode="&lt;" horiz-adv-x="1716" d="M1499 973L535 641L1499 311V61L217 524V760l1282 463V973Z"
></glyph
><glyph unicode="=" horiz-adv-x="1716" d="M217 987H1499V752H217V987ZM217 532H1499V295H217V532Z"
></glyph
><glyph unicode="&gt;" horiz-adv-x="1716" d="M217 973v250L1499 760V524L217 61V311l965 330L217 973Z"
></glyph
><glyph unicode="?" horiz-adv-x="1188" d="M709 504H348v49q0 82 33 145.5T520 860l64 58q57 52 83.5 98t26.5 92q0 70 -48 109.5T512 1257q-81 0 -175 -33.5T141 1124v314q121 42 221 62t193 20q244 0 372 -99.5T1055 1130q0 -98 -39 -175.5T883 788L819 731Q751 669 730 631.5T709 549V504ZM348 356H709V0H348V356Z"
></glyph
><glyph unicode="@" horiz-adv-x="2048" d="M831 539q0 -123 52.5 -194T1026 274q89 0 142 71.5T1221 539q0 121 -53.5 191.5T1024 801q-88 0 -140.5 -70.5T831 539ZM1241 238q-30 -71 -96.5 -110.5T989 88Q817 88 709.5 212.5T602 537q0 200 108 325T989 987q89 0 155.5 -40T1241 836V967h209V274q124 19 195 119.5T1716 651q0 100 -29 187.5T1599 999q-95 122 -237.5 188T1053 1253q-116 0 -222 -30.5T635 1133Q487 1035 404.5 879.5T322 543q0 -149 53.5 -279.5T530 33Q630 -65 759.5 -116.5T1036 -168q126 0 252 47T1503 6l107 -162q-125 -97 -272.5 -148.5T1038 -356q-185 0 -349 65.5T397 -100Q269 25 202 189.5T135 543q0 182 68 347t194 290q126 124 293.5 192t347.5 68q224 0 407 -85.5T1751 1108q75 -98 113.5 -212.5T1903 655q0 -271 -163 -421T1280 84h-39V238Z"
></glyph
><glyph unicode="A" horiz-adv-x="1585" d="M1094 272H492L397 0H10L563 1493h459L1575 0H1188l-94 272ZM588 549H997L793 1143L588 549Z"
></glyph
><glyph unicode="B" horiz-adv-x="1561" d="M786 915q91 0 138 40t47 118q0 77 -47 117.5T786 1231H573V915H786ZM799 262q116 0 174.5 49T1032 459q0 97 -58 145.5T799 653H573V262H799ZM1157 799q124 -36 192 -133t68 -238q0 -216 -146 -322T827 0H188V1493H766q311 0 450.5 -94T1356 1098q0 -109 -51 -185.5T1157 799Z"
></glyph
><glyph unicode="C" horiz-adv-x="1503" d="M1372 82Q1266 27 1151 -1T911 -29Q538 -29 320 179.5T102 745q0 358 218 566.5T911 1520q125 0 240 -28t221 -83V1100q-107 73 -211 107t-219 34q-206 0 -324 -132T500 745Q500 514 618 382T942 250q115 0 219 34t211 107V82Z"
></glyph
><glyph unicode="D" horiz-adv-x="1700" d="M573 1202V291H711q236 0 360.5 117T1196 748q0 222 -124 338T711 1202H573ZM188 1493H594q340 0 506.5 -48.5T1386 1280q105 -101 156 -233t51 -299q0 -169 -51 -301.5T1386 213Q1266 97 1098 48.5T594 0H188V1493Z"
></glyph
><glyph unicode="E" horiz-adv-x="1399" d="M188 1493H1227V1202H573V924h615V633H573V291h676V0H188V1493Z"
></glyph
><glyph unicode="F" horiz-adv-x="1399" d="M188 1493H1227V1202H573V924h615V633H573V0H188V1493Z"
></glyph
><glyph unicode="G" horiz-adv-x="1681" d="M1530 111Q1386 41 1231 6T911 -29Q538 -29 320 179.5T102 745q0 361 222 568t608 207q149 0 285.5 -28T1475 1409V1100q-125 71 -248.5 106T979 1241q-230 0 -354.5 -128.5T500 745Q500 508 620 379T961 250q60 0 111.5 7.5T1165 281V571H930V829h600V111Z"
></glyph
><glyph unicode="H" horiz-adv-x="1714" d="M188 1493H573V924h568v569h385V0H1141V633H573V0H188V1493Z"
></glyph
><glyph unicode="I" horiz-adv-x="762" d="M188 1493H573V0H188V1493Z"
></glyph
><glyph unicode="J" horiz-adv-x="762" d="M188 1493H573V145q0 -279 -151.5 -417T-37 -410h-78v291h60q120 0 181.5 67T188 145V1493Z"
></glyph
><glyph unicode="K" horiz-adv-x="1587" d="M188 1493H573V948l555 545h447L856 786L1649 0H1167L573 588V0H188V1493Z"
></glyph
><glyph unicode="L" horiz-adv-x="1305" d="M188 1493H573V291h676V0H188V1493Z"
></glyph
><glyph unicode="M" horiz-adv-x="2038" d="M188 1493H678L1018 694l342 799h489V0H1485V1092L1141 287H897L553 1092V0H188V1493Z"
></glyph
><glyph unicode="N" horiz-adv-x="1714" d="M188 1493H618L1161 469V1493h365V0H1096L553 1024V0H188V1493Z"
></glyph
><glyph unicode="O" horiz-adv-x="1741" d="M870 1241q-176 0 -273 -130T500 745q0 -235 97 -365T870 250q177 0 274 130t97 365q0 236 -97 366T870 1241ZM870 1520q360 0 564 -206T1638 745q0 -362 -204 -568T870 -29Q511 -29 306.5 177T102 745q0 363 204.5 569T870 1520Z"
></glyph
><glyph unicode="P" horiz-adv-x="1501" d="M188 1493H827q285 0 437.5 -126.5T1417 1006q0 -235 -152.5 -361.5T827 518H573V0H188V1493ZM573 1214V797H786q112 0 173 54.5t61 154.5q0 100 -61 154t-173 54H573Z"
></glyph
><glyph unicode="Q" horiz-adv-x="1741" d="M911 -27H881Q512 -27 307 177T102 745q0 363 204.5 569T870 1520q363 0 565.5 -204T1638 745q0 -252 -107.5 -434T1221 37l301 -336H1155L911 -27ZM870 1241q-176 0 -273 -130T500 745q0 -240 95 -367.5T870 250q177 0 274 130t97 365q0 236 -97 366T870 1241Z"
></glyph
><glyph unicode="R" horiz-adv-x="1577" d="M735 831q121 0 173.5 45T961 1024q0 102 -52.5 146T735 1214H573V831H735ZM573 565V0H188V1493H776q295 0 432.5 -99T1346 1081q0 -148 -71.5 -243T1059 698q79 -18 141.5 -81.5T1327 424L1536 0H1126L944 371Q889 483 832.5 524T682 565H573Z"
></glyph
><glyph unicode="S" horiz-adv-x="1475" d="M1227 1446V1130q-123 55 -240 83t-221 28q-138 0 -204 -38T496 1085q0 -60 44.5 -93.5T702 934L866 901q249 -50 354 -152T1325 459Q1325 212 1178.5 91.5T731 -29Q589 -29 446 -2T160 78V403Q303 327 436.5 288.5T694 250q126 0 193 42t67 120q0 70 -45.5 108T727 588L578 621Q354 669 250.5 774T147 1057q0 223 144 343t414 120q123 0 253 -18.5T1227 1446Z"
></glyph
><glyph unicode="T" horiz-adv-x="1397" d="M10 1493H1386V1202H891V0H506V1202H10v291Z"
></glyph
><glyph unicode="U" horiz-adv-x="1663" d="M188 1493H573V598q0 -185 60.5 -264.5T831 254q138 0 198.5 79.5T1090 598v895h385V598q0 -317 -159 -472T831 -29Q506 -29 347 126T188 598v895Z"
></glyph
><glyph unicode="V" horiz-adv-x="1585" d="M10 1493H397L793 391l395 1102h387L1022 0H563L10 1493Z"
></glyph
><glyph unicode="W" horiz-adv-x="2259" d="M61 1493H430L688 408L944 1493h371L1571 408l258 1085h366L1843 0H1399L1128 1135L860 0H416L61 1493Z"
></glyph
><glyph unicode="X" horiz-adv-x="1579" d="M1020 762L1538 0H1137L788 510L442 0H39L557 762L59 1493H461L788 1012l326 481h404L1020 762Z"
></glyph
><glyph unicode="Y" horiz-adv-x="1483" d="M-20 1493H401L741 961l340 532h422L934 629V0H549V629L-20 1493Z"
></glyph
><glyph unicode="Z" horiz-adv-x="1485" d="M115 1493H1370V1260L569 291h824V0H92V233l801 969H115v291Z"
></glyph
><glyph unicode="[" horiz-adv-x="936" d="M176 1556H797V1331H516V-45H797V-270H176V1556Z"
></glyph
><glyph unicode="\" horiz-adv-x="748" d="M526 -190L0 1493H221L748 -190H526Z"
></glyph
><glyph unicode="]" horiz-adv-x="936" d="M760 -270H139V-45H420V1331H139v225H760V-270Z"
></glyph
><glyph unicode="^" horiz-adv-x="1716" d="M981 1493L1509 936H1268L858 1237L449 936H207l528 557H981Z"
></glyph
><glyph unicode="_" d="M1024 -293V-483H0v190H1024Z"
></glyph
><glyph unicode="`" d="M377 1638L659 1262H463L94 1638H377Z"
></glyph
><glyph unicode="a" horiz-adv-x="1382" d="M674 504Q562 504 505.5 466T449 354q0 -68 45.5 -106.5T621 209q101 0 170 72.5T860 463v41H674ZM1221 639V0H860V166Q788 64 698 17.5T479 -29Q305 -29 196.5 72.5T88 336q0 197 135.5 289T649 717H860v28q0 85 -67 124.5T584 909Q469 909 370 886T186 817v273q115 28 231 42.5T649 1147q303 0 437.5 -119.5T1221 639Z"
></glyph
><glyph unicode="b" horiz-adv-x="1466" d="M768 231q115 0 175.5 84T1004 559q0 160 -60.5 244T768 887Q653 887 591.5 802.5T530 559q0 -159 61.5 -243.5T768 231ZM530 956q74 98 164 144.5T901 1147q207 0 340 -164.5T1374 559q0 -259 -133 -423.5T901 -29Q784 -29 694 17.5T530 162V0H172V1556H530V956Z"
></glyph
><glyph unicode="c" horiz-adv-x="1214" d="M1077 1085V793q-73 50 -146.5 74T778 891Q628 891 544.5 803.5T461 559q0 -157 83.5 -244.5T778 227q84 0 159.5 25T1077 326V33Q993 2 906.5 -13.5T733 -29Q430 -29 259 126.5T88 559q0 277 171 432.5T733 1147q88 0 173.5 -15.5T1077 1085Z"
></glyph
><glyph unicode="d" horiz-adv-x="1466" d="M934 956v600h360V0H934V162Q860 63 771 17T565 -29Q358 -29 225 135.5T92 559q0 259 133 423.5T565 1147q116 0 205.5 -46.5T934 956ZM698 231q115 0 175.5 84T934 559q0 160 -60.5 244T698 887Q584 887 523.5 803T463 559q0 -160 60.5 -244T698 231Z"
></glyph
><glyph unicode="e" horiz-adv-x="1389" d="M1290 563V461H453Q466 335 544 272T762 209q113 0 231.5 33.5T1237 344V68Q1110 20 983 -4.5T729 -29Q425 -29 256.5 125.5T88 559q0 274 165.5 431T709 1147q264 0 422.5 -159T1290 563ZM922 682q0 102 -59.5 164.5T707 909Q603 909 538 850.5T457 682H922Z"
></glyph
><glyph unicode="f" horiz-adv-x="891" d="M909 1556V1321H711q-76 0 -106 -27.5T575 1198v-78H881V864H575V0H217V864H39v256H217v78q0 183 102 270.5T635 1556H909Z"
></glyph
><glyph unicode="g" horiz-adv-x="1466" d="M934 190Q860 92 771 46T565 0Q360 0 226 161.5T92 573q0 251 134 411.5T565 1145q117 0 206 -46T934 954v166h360V113q0 -270 -170.5 -412.5T629 -442q-105 0 -203 16t-197 49V-98q94 -54 184 -80.5T594 -205q176 0 258 77t82 241v77ZM698 887Q587 887 525 805T463 573q0 -154 60 -233.5T698 260q112 0 174 82t62 231q0 150 -62 232T698 887Z"
></glyph
><glyph unicode="h" horiz-adv-x="1458" d="M1298 682V0H938V111V520q0 147 -6.5 202T909 803q-21 35 -57 54.5T770 877Q658 877 594 790.5T530 551V0H172V1556H530V956q81 98 172 144.5T903 1147q194 0 294.5 -119T1298 682Z"
></glyph
><glyph unicode="i" horiz-adv-x="702" d="M172 1120H530V0H172V1120ZM172 1556H530V1264H172v292Z"
></glyph
><glyph unicode="j" horiz-adv-x="702" d="M172 1120H530V20q0 -225 -108 -343.5T109 -442H-68v235H-6q102 0 140 46T172 20V1120ZM172 1556H530V1264H172v292Z"
></glyph
><glyph unicode="k" horiz-adv-x="1362" d="M172 1556H530V709l412 411h416L811 606L1401 0H967L530 467V0H172V1556Z"
></glyph
><glyph unicode="l" horiz-adv-x="702" d="M172 1556H530V0H172V1556Z"
></glyph
><glyph unicode="m" horiz-adv-x="2134" d="M1210 934q68 104 161.5 158.5T1577 1147q193 0 294 -119T1972 682V0H1612V584q1 13 1.5 27t0.5 40q0 119 -35 172.5T1466 877q-102 0 -157.5 -84T1251 550V0H891V584q0 186 -32 239.5T745 877Q642 877 586 792.5T530 551V0H170V1120H530V956q66 95 151.5 143T870 1147q116 0 205 -56T1210 934Z"
></glyph
><glyph unicode="n" horiz-adv-x="1458" d="M1298 682V0H938V111V522q0 145 -6.5 200T909 803q-21 35 -57 54.5T770 877Q658 877 594 790.5T530 551V0H172V1120H530V956q81 98 172 144.5T903 1147q194 0 294.5 -119T1298 682Z"
></glyph
><glyph unicode="o" horiz-adv-x="1407" d="M705 891Q586 891 523.5 805.5T461 559q0 -161 62.5 -246.5T705 227q117 0 179 85.5T946 559q0 161 -62 246.5T705 891ZM705 1147q289 0 451.5 -156T1319 559q0 -276 -162.5 -432T705 -29Q415 -29 251.5 127T88 559q0 276 163.5 432T705 1147Z"
></glyph
><glyph unicode="p" horiz-adv-x="1466" d="M530 162V-426H172V1120H530V956q74 98 164 144.5T901 1147q207 0 340 -164.5T1374 559q0 -259 -133 -423.5T901 -29Q784 -29 694 17.5T530 162ZM768 887Q653 887 591.5 802.5T530 559q0 -159 61.5 -243.5T768 231q115 0 175.5 84T1004 559q0 160 -60.5 244T768 887Z"
></glyph
><glyph unicode="q" horiz-adv-x="1466" d="M698 887Q584 887 523.5 803T463 559q0 -160 60.5 -244T698 231q115 0 175.5 84T934 559q0 160 -60.5 244T698 887ZM934 162Q860 63 771 17T565 -29Q358 -29 225 135.5T92 559q0 259 133 422.5T565 1145q117 0 206 -46T934 954v166h360V-426H934V162Z"
></glyph
><glyph unicode="r" horiz-adv-x="1010" d="M1004 815q-47 22 -93.5 32.5T817 858Q679 858 604.5 769.5T530 516V0H172V1120H530V936q69 110 158.5 160.5T903 1147q18 0 39 -1.5t61 -6.5l1 -324Z"
></glyph
><glyph unicode="s" horiz-adv-x="1219" d="M1047 1085V813Q932 861 825 885T623 909Q521 909 471.5 883.5T422 805q0 -43 37.5 -66T594 705l63 -9Q932 661 1027 581t95 -251Q1122 151 990 61T596 -29q-111 0 -229.5 17.5T123 41V313Q230 261 342.5 235T571 209q105 0 158 29t53 86q0 48 -36.5 71.5T600 432l-63 8Q298 470 202 551T106 797q0 178 122 264t374 86q99 0 208 -15t237 -47Z"
></glyph
><glyph unicode="t" horiz-adv-x="979" d="M563 1438V1120H932V864H563V389q0 -78 31 -105.5T717 256H901V0H594Q382 0 293.5 88.5T205 389V864H27v256H205v318H563Z"
></glyph
><glyph unicode="u" horiz-adv-x="1458" d="M160 436v684H520V1008q0 -91 -1 -228.5T518 596q0 -135 7 -194.5T549 315q22 -35 57.5 -54T688 242q112 0 176 86t64 239v553h358V0H928V162Q847 64 756.5 17.5T557 -29Q363 -29 261.5 90T160 436Z"
></glyph
><glyph unicode="v" horiz-adv-x="1335" d="M31 1120H389L668 346l278 774h359L864 0H471L31 1120Z"
></glyph
><glyph unicode="w" horiz-adv-x="1892" d="M72 1120H420L608 348l189 772h299L1284 356l189 764h348L1526 0H1135L946 770L758 0H367L72 1120Z"
></glyph
><glyph unicode="x" horiz-adv-x="1321" d="M455 573L51 1120H430L659 788l232 332h379L866 575L1290 0H911L659 354L410 0H31L455 573Z"
></glyph
><glyph unicode="y" horiz-adv-x="1335" d="M25 1120H383L684 360l256 760h358L827 -106Q756 -293 661.5 -367.5T412 -442H205v235H317q91 0 132.5 29T514 -74l10 31L25 1120Z"
></glyph
><glyph unicode="z" horiz-adv-x="1192" d="M117 1120h977V870L504 256h590V0H92V250L682 864H117v256Z"
></glyph
><glyph unicode="{" horiz-adv-x="1458" d="M1202 -109V-334H985q-218 0 -318 88T567 35V227q0 150 -54 208.5T317 494H256V717h61q142 0 196 58t54 208v205q0 193 100 280.5T985 1556h217V1331h-69q-141 0 -183.5 -43.5T907 1102V936Q907 779 862 708T707 612Q818 585 862.5 514T907 287V121q0 -143 42.5 -186.5T1133 -109h69Z"
></glyph
><glyph unicode="|" horiz-adv-x="748" d="M487 1565V-483H260V1565H487Z"
></glyph
><glyph unicode="}" horiz-adv-x="1458" d="M256 -109h70q140 0 182.5 43.5T551 121V287q0 156 45 227t156 98Q641 637 596 708T551 936v166q0 142 -42.5 185.5T326 1331H256v225H473q218 0 318 -87.5T891 1188V983q0 -150 54 -208t196 -58h61V494h-61Q999 494 945 435.5T891 227V35q0 -193 -100 -281T473 -334H256v225Z"
></glyph
><glyph unicode="~" horiz-adv-x="1716" d="M1499 850V606Q1393 526 1303.5 491.5T1118 457q-107 0 -250 58q-14 6 -22 9q-7 3 -22 9Q669 594 575 594q-88 0 -174 -38.5T217 434V678q107 80 196 114.5T598 827q107 0 250 -58q15 -6 22 -9q7 -3 22 -9q155 -61 249 -61q86 0 170.5 37.5T1499 850Z"
></glyph
><glyph unicode="&#xa0;" horiz-adv-x="1425" d=""
></glyph
><glyph unicode="&#xa1;" horiz-adv-x="934" d="M287 0V573l51 418H596L647 573V0H287ZM287 1137v356H647V1137H287Z"
></glyph
><glyph unicode="&#xa2;" horiz-adv-x="1425" d="M702 858Q624 814 585.5 740.5T547 559q0 -109 38.5 -183T702 260V858ZM1161 1085V793q-74 48 -145.5 73T879 891H864V228q89 1 164.5 26T1161 326V33Q1078 3 1005 -13T874 -29H864V-313H702V-25Q440 15 307 166T174 575q0 244 135 389.5T702 1145v287H864l1 -287q71 -3 144.5 -17.5T1161 1085Z"
></glyph
><glyph unicode="&#xa3;" horiz-adv-x="1425" d="M1243 1466V1180q-70 39 -144 58t-151 19q-118 0 -174.5 -62.5T717 1001V831h373V592H717V266h538V0H125V266H352V592H158V831H352v170q0 271 127 395t402 124q92 0 182.5 -13.5T1243 1466Z"
></glyph
><glyph unicode="&#xa4;" horiz-adv-x="1303" d="M434 268L227 61L74 215L281 422q-28 49 -42 102.5T225 641q0 63 15 117t45 100L76 1063l153 154L436 1010q48 30 102 44.5T653 1069q54 0 108 -13.5T872 1014l207 207l152 -154L1024 860q29 -55 43 -110t14 -109q0 -63 -14.5 -115.5T1022 426L1229 219L1075 66L868 272Q822 242 769 227.5T653 213q-58 0 -112 13.5T434 268ZM653 422q91 0 155 63.5T872 641q0 92 -63.5 155.5T653 860q-91 0 -155 -63.5T434 641q0 -93 63 -156T653 422Z"
></glyph
><glyph unicode="&#xa5;" horiz-adv-x="1425" d="M1358 416H903V0H522V416H68V610H522v66l-49 86H68V954H360L25 1493H424L713 1032l288 461h400L1065 954h293V762H952L903 676V610h455V416Z"
></glyph
><glyph unicode="&#xa6;" horiz-adv-x="748" d="M487 1432V674H260v758H487ZM487 408V-350H260V408H487Z"
></glyph
><glyph unicode="&#xa7;" d="M885 1462V1235q-99 39 -178 58.5T571 1313q-75 0 -113 -24.5T420 1217q0 -67 188 -146q26 -11 39 -16Q857 966 936.5 879.5T1016 668q0 -117 -56.5 -196.5T786 344q77 -41 114.5 -97.5T938 117Q938 -28 817 -111.5T483 -195q-85 0 -175.5 14.5T115 -137V100Q230 59 321 37.5T469 16q65 0 104 25t39 65q0 70 -180 144q-36 14 -55 22Q174 359 94 448.5T14 668q0 104 55.5 181T238 977q-75 51 -107.5 106.5T98 1214q0 144 114.5 225T528 1520q84 0 174 -14.5T885 1462ZM434 856Q366 828 332.5 790T299 702q0 -67 61.5 -116T604 471q65 23 100 62.5T739 625q0 67 -69 120T434 856Z"
></glyph
><glyph unicode="&#xa8;" d="M197 1585H432V1339H197v246ZM592 1585H827V1339H592v246Z"
></glyph
><glyph unicode="&#xa9;" horiz-adv-x="2048" d="M1323 1126V911q-57 37 -112.5 54.5T1098 983Q985 983 921.5 919T858 741q0 -115 63 -178t177 -63q64 0 121.5 18T1323 571V358q-65 -22 -130.5 -33.5T1065 313Q854 313 727 430T600 741q0 195 127 311.5T1065 1169q69 0 133 -10.5T1323 1126ZM1024 1331q-121 0 -225 -43.5T608 1157Q521 1070 477.5 966.5T434 741q0 -121 43.5 -224.5T608 326Q694 240 798.5 197T1024 154q123 0 226 42.5T1440 326q87 87 130.5 190.5T1614 741q0 122 -43.5 225.5T1440 1157q-88 88 -191.5 131T1024 1331ZM1024 1485q152 0 283.5 -55T1548 1266q109 -109 163 -240t54 -285q0 -152 -54 -282.5T1548 219Q1439 110 1307.5 55T1024 0Q872 0 740.5 55T500 219Q391 328 337 458.5T283 741q0 154 54 285t163 240q109 109 240.5 164t283.5 55Z"
></glyph
><glyph unicode="&#xaa;" horiz-adv-x="1155" d="M176 573H989V373H176V573ZM643 1081q-133 0 -185 -26T406 967q0 -51 33 -80t91 -29q89 0 146 57t57 144v22H643ZM1001 1165V717H756V844Q701 768 631 732T467 696q-145 0 -227 67T158 946q0 141 105 207t331 66H731v20q0 56 -44.5 85.5T557 1354q-87 0 -170 -17.5T225 1284v180q92 28 176.5 42T561 1520q224 0 332 -87.5T1001 1165Z"
></glyph
><glyph unicode="&#xab;" horiz-adv-x="1323" d="M651 1063V821L358 600L651 379V137L158 506V692l493 371ZM1130 1063V821L838 600L1130 379V137L637 506V692l493 371Z"
></glyph
><glyph unicode="&#xac;" horiz-adv-x="1716" d="M217 909H1499V287H1264V672H217V909Z"
></glyph
><glyph unicode="&#xad;" horiz-adv-x="850" d="M111 735H739V444H111V735Z"
></glyph
><glyph unicode="&#xae;" horiz-adv-x="2048" d="M1024 1331q-121 0 -225 -43.5T608 1157Q521 1070 477.5 966.5T434 741q0 -121 43.5 -224.5T608 326Q694 240 798.5 197T1024 154q123 0 226 42.5T1440 326q87 87 130.5 190.5T1614 741q0 122 -43.5 225.5T1440 1157q-88 88 -191.5 131T1024 1331ZM967 1036H932V829h35q78 0 117.5 26.5T1124 934q0 52 -38.5 77T967 1036ZM1004 1174q176 0 263 -59.5T1354 934q0 -86 -52.5 -142T1153 719q41 -22 76.5 -62T1294 559L1405 338H1176L1069 551q-38 78 -67 110.5T944 694H932V338H719v836h285ZM1024 1485q152 0 283.5 -55T1548 1266q109 -109 163 -240t54 -285q0 -152 -54 -282.5T1548 219Q1439 110 1307.5 55T1024 0Q872 0 740.5 55T500 219Q391 328 337 458.5T283 741q0 154 54 285t163 240q109 109 240.5 164t283.5 55Z"
></glyph
><glyph unicode="&#xaf;" d="M197 1556H827V1368H197v188Z"
></glyph
><glyph unicode="&#xb0;" d="M512 1372q-72 0 -122 -50T340 1200q0 -72 49.5 -121T512 1030q72 0 122 49.5T684 1200q0 72 -50.5 122T512 1372ZM512 1534q66 0 127 -25.5T748 1436q47 -48 71.5 -108T844 1200q0 -67 -24.5 -127.5T750 967Q702 919 640 893.5T510 868q-141 0 -236.5 95.5T178 1200q0 141 96.5 237.5T512 1534Z"
></glyph
><glyph unicode="&#xb1;" horiz-adv-x="1716" d="M977 1284V930h522V694H977V340H739V694H217V930H739v354H977ZM217 238H1499V0H217V238Z"
></glyph
><glyph unicode="&#xb2;" horiz-adv-x="897" d="M412 836H782V668H109V821l313 266q61 53 87 93t26 80q0 50 -36.5 81T403 1372q-62 0 -133 -22.5T115 1280v186q87 27 168.5 40.5T440 1520q158 0 248 -64.5T778 1280q0 -72 -35.5 -132.5T606 1001L412 836Z"
></glyph
><glyph unicode="&#xb3;" horiz-adv-x="897" d="M592 1120q92 -18 143 -73T786 911Q786 782 687 717.5T387 653q-81 0 -155 11.5T90 698V872q66 -36 130 -54.5T344 799q95 0 147 32t52 91q0 64 -53.5 94.5T322 1047H248v137h84q98 0 143 23.5t45 74.5q0 45 -39 67.5T362 1372q-52 0 -113.5 -13T117 1319v166q65 17 140.5 26t162.5 9q167 0 255.5 -56T764 1303q0 -69 -45 -117T592 1120Z"
></glyph
><glyph unicode="&#xb4;" d="M647 1638H930L561 1262H365l282 376Z"
></glyph
><glyph unicode="&#xb5;" horiz-adv-x="1507" d="M174 -428V1120H535V469q0 -116 50 -172.5T737 240q103 0 153 56.5T940 469v651h360V371q0 -71 16.5 -99T1372 244q18 0 34.5 5t35.5 17V16q-53 -23 -99.5 -34T1251 -29q-89 0 -145.5 37.5T1014 129Q967 50 899.5 10.5T743 -29q-74 0 -126 23.5T535 66V-428H174Z"
></glyph
><glyph unicode="&#xb6;" horiz-adv-x="1303" d="M604 1493h520V-197H934V1346H745V-197H555V649Q351 674 240 783.5T129 1071q0 190 130 306t345 116Z"
></glyph
><glyph unicode="&#xb7;" horiz-adv-x="778" d="M209 905H569V518H209V905Z"
></glyph
><glyph unicode="&#xb8;" d="M602 0q58 -62 85.5 -115T715 -215q0 -95 -61.5 -140.5T465 -401q-48 0 -99 6.5T263 -375l-1 152q50 -16 91.5 -23.5T428 -254q58 0 90.5 23t32.5 63q0 26 -21.5 67T463 0H602Z"
></glyph
><glyph unicode="&#xb9;" horiz-adv-x="897" d="M141 825H348v521L123 1294v160l229 49H578V825H782V668H141V825Z"
></glyph
><glyph unicode="&#xba;" horiz-adv-x="1155" d="M578 1520q213 0 336.5 -111T1038 1108Q1038 918 915 808T578 698Q364 698 240.5 808T117 1108q0 190 123.5 301T578 1520ZM166 573H989V373H166V573ZM578 1350q-84 0 -129.5 -63T403 1108q0 -116 45.5 -178T578 868q83 0 128.5 62T752 1108q0 116 -45.5 179T578 1350Z"
></glyph
><glyph unicode="&#xbb;" horiz-adv-x="1323" d="M672 1063L1165 692V506L672 137V379L965 600L672 821v242ZM193 1063L684 692V506L193 137V379L485 600L193 821v242Z"
></glyph
><glyph unicode="&#xbc;" horiz-adv-x="2120" d="M1593 641L1354 317h239V641ZM1575 836h248V317h137V162H1823V0H1593V162H1202V330l373 506ZM733 -29H510l934 1549h223L733 -29ZM119 825H324v521L100 1294v160l230 49H553V825H758V668H119V825Z"
></glyph
><glyph unicode="&#xbd;" horiz-adv-x="2120" d="M1649 168h372V0H1346V154l315 268q62 53 87.5 92t25.5 78q0 50 -37 81.5T1640 705q-62 0 -131.5 -22.5T1354 612V799q88 27 168.5 40T1677 852q159 0 248.5 -63.5T2015 614q0 -72 -36.5 -134T1843 334L1649 168ZM733 -29H510l934 1549h223L733 -29ZM119 825H324v521L100 1294v160l230 49H553V825H758V668H119V825Z"
></glyph
><glyph unicode="&#xbe;" horiz-adv-x="2120" d="M1575 836h248V317h137V162H1823V0H1593V162H1202V330l373 506ZM1593 641L1354 317h239V641ZM606 1120q93 -18 144 -73T801 911Q801 782 701.5 717.5T401 653q-81 0 -155 11.5T104 698V872q66 -36 130 -54.5T358 799q95 0 147 32t52 91q0 64 -53 94.5T336 1047H262v137h84q98 0 143.5 23.5T535 1282q0 45 -39.5 67.5T377 1372q-53 0 -114 -13T131 1319v166q65 17 141 26t162 9q167 0 255.5 -56T778 1303q0 -69 -45 -117T606 1120ZM733 -29H510l934 1549h223L733 -29Z"
></glyph
><glyph unicode="&#xbf;" horiz-adv-x="1188" d="M487 987H848V938q0 -81 -32.5 -144T674 631L610 573Q554 522 528 476T502 383q0 -70 48 -110T684 233q81 0 175.5 34T1055 367V53Q936 11 834.5 -9T641 -29Q397 -29 269 70.5T141 360q0 99 39 176.5T313 702l64 58q68 61 89 99t21 83v45ZM848 1137H487v356H848V1137Z"
></glyph
><glyph unicode="&#xc0;" horiz-adv-x="1585" d="M1094 272H492L397 0H10L563 1493h459L1575 0H1188l-94 272ZM588 549H997L793 1143L588 549ZM717 1899L915 1635H719L434 1899H717Z"
></glyph
><glyph unicode="&#xc1;" horiz-adv-x="1585" d="M1094 272H492L397 0H10L563 1493h459L1575 0H1188l-94 272ZM588 549H997L793 1143L588 549ZM819 1899h283L817 1635H621l198 264Z"
></glyph
><glyph unicode="&#xc2;" horiz-adv-x="1585" d="M1094 272H492L397 0H10L563 1493h459L1575 0H1188l-94 272ZM588 549H997L793 1143L588 549ZM614 1899H922l223 -264H967L768 1796L569 1635H391l223 264Z"
></glyph
><glyph unicode="&#xc3;" horiz-adv-x="1585" d="M1094 272H492L397 0H10L563 1493h459L1575 0H1188l-94 272ZM588 549H997L793 1143L588 549ZM770 1684l-56 35q-3 2 -10 6q-45 26 -73 26q-32 0 -52 -30t-20 -80v-6H420q0 5 1 15t1 15q0 106 53.5 171T616 1901q37 0 74 -12.5T766 1852l59 -39q21 -14 40.5 -21.5T901 1784q37 0 56.5 30t19.5 87h139q0 -6 -1 -16t-1 -15q0 -106 -53.5 -170.5T920 1635q-38 0 -73 11t-77 38Z"
></glyph
><glyph unicode="&#xc4;" horiz-adv-x="1585" d="M1094 272H492L397 0H10L563 1493h459L1575 0H1188l-94 272ZM588 549H997L793 1143L588 549ZM453 1899H688V1653H453v246ZM848 1899h235V1653H848v246Z"
></glyph
><glyph unicode="&#xc5;" horiz-adv-x="1585" d="M1032 1464L1575 0H1188l-94 272H492L397 0H10L553 1464q-23 34 -34 71.5T508 1616q0 117 83.5 201T793 1901q116 0 200 -84t84 -201q0 -47 -11 -85t-34 -67ZM662 1616q0 -54 38.5 -92.5T793 1485q54 0 92.5 38.5T924 1616q0 54 -39 92.5T793 1747q-54 0 -92.5 -38.5T662 1616ZM588 549H997L793 1143L588 549Z"
></glyph
><glyph unicode="&#xc6;" horiz-adv-x="2222" d="M891 1237L635 627h377v610H891ZM625 1493H2050V1202H1397V924h614V633H1397V291h676V0H1012V350H518L371 0H0L625 1493Z"
></glyph
><glyph unicode="&#xc7;" horiz-adv-x="1503" d="M1372 82Q1266 27 1151 -1T911 -29Q538 -29 320 179.5T102 745q0 358 218 566.5T911 1520q125 0 240 -28t221 -83V1100q-107 73 -211 107t-219 34q-206 0 -324 -132T500 745Q500 514 618 382T942 250q115 0 219 34t211 107V82ZM973 0q58 -62 85.5 -115T1086 -215q0 -95 -61.5 -140.5T836 -401q-48 0 -99 6.5T634 -375l-1 152q50 -16 91.5 -23.5T799 -254q58 0 90.5 23t32.5 63q0 26 -21.5 67T834 0H973Z"
></glyph
><glyph unicode="&#xc8;" horiz-adv-x="1399" d="M188 1493H1227V1202H573V924h615V633H573V291h676V0H188V1493ZM641 1899L839 1635H643L358 1899H641Z"
></glyph
><glyph unicode="&#xc9;" horiz-adv-x="1399" d="M188 1493H1227V1202H573V924h615V633H573V291h676V0H188V1493ZM743 1899h283L741 1635H545l198 264Z"
></glyph
><glyph unicode="&#xca;" horiz-adv-x="1399" d="M188 1493H1227V1202H573V924h615V633H573V291h676V0H188V1493ZM538 1899H846l223 -264H891L692 1796L493 1635H315l223 264Z"
></glyph
><glyph unicode="&#xcb;" horiz-adv-x="1399" d="M188 1493H1227V1202H573V924h615V633H573V291h676V0H188V1493ZM377 1899H612V1653H377v246ZM772 1899h235V1653H772v246Z"
></glyph
><glyph unicode="&#xcc;" horiz-adv-x="762" d="M188 1493H573V0H188V1493ZM305 1899L503 1635H307L22 1899H305Z"
></glyph
><glyph unicode="&#xcd;" horiz-adv-x="762" d="M188 1493H573V0H188V1493ZM407 1899H690L405 1635H209l198 264Z"
></glyph
><glyph unicode="&#xce;" horiz-adv-x="762" d="M188 1493H573V0H188V1493ZM202 1899H510L733 1635H555L356 1796L157 1635H-21l223 264Z"
></glyph
><glyph unicode="&#xcf;" horiz-adv-x="762" d="M188 1493H573V0H188V1493ZM41 1899H276V1653H41v246ZM436 1899H671V1653H436v246Z"
></glyph
><glyph unicode="&#xd0;" horiz-adv-x="1716" d="M592 1202V881H827V621H592V291H729q236 0 360.5 117T1214 748q0 222 -124 338T729 1202H592ZM207 1493H612q341 0 507 -48.5T1405 1280q104 -101 155.5 -233T1612 748q0 -169 -51.5 -301.5T1405 213Q1284 97 1116 48.5T612 0H207V621H33V881H207v612Z"
></glyph
><glyph unicode="&#xd1;" horiz-adv-x="1714" d="M188 1493H618L1161 469V1493h365V0H1096L553 1024V0H188V1493ZM823 1684l-56 35q-3 2 -10 6q-45 26 -73 26q-32 0 -52 -30t-20 -80v-6H473q0 5 1 15t1 15q0 106 53.5 171T669 1901q37 0 74 -12.5T819 1852l59 -39q21 -14 40.5 -21.5T954 1784q37 0 56.5 30t19.5 87h139q0 -6 -1 -16t-1 -15q0 -106 -53.5 -170.5T973 1635q-38 0 -73 11t-77 38Z"
></glyph
><glyph unicode="&#xd2;" horiz-adv-x="1741" d="M870 1241q-176 0 -273 -130T500 745q0 -235 97 -365T870 250q177 0 274 130t97 365q0 236 -97 366T870 1241ZM870 1520q360 0 564 -206T1638 745q0 -362 -204 -568T870 -29Q511 -29 306.5 177T102 745q0 363 204.5 569T870 1520ZM795 1899L993 1635H797L512 1899H795Z"
></glyph
><glyph unicode="&#xd3;" horiz-adv-x="1741" d="M870 1241q-176 0 -273 -130T500 745q0 -235 97 -365T870 250q177 0 274 130t97 365q0 236 -97 366T870 1241ZM870 1520q360 0 564 -206T1638 745q0 -362 -204 -568T870 -29Q511 -29 306.5 177T102 745q0 363 204.5 569T870 1520ZM897 1899h283L895 1635H699l198 264Z"
></glyph
><glyph unicode="&#xd4;" horiz-adv-x="1741" d="M870 1241q-176 0 -273 -130T500 745q0 -235 97 -365T870 250q177 0 274 130t97 365q0 236 -97 366T870 1241ZM870 1520q360 0 564 -206T1638 745q0 -362 -204 -568T870 -29Q511 -29 306.5 177T102 745q0 363 204.5 569T870 1520ZM692 1899h308l223 -264H1045L846 1796L647 1635H469l223 264Z"
></glyph
><glyph unicode="&#xd5;" horiz-adv-x="1741" d="M870 1241q-176 0 -273 -130T500 745q0 -235 97 -365T870 250q177 0 274 130t97 365q0 236 -97 366T870 1241ZM870 1520q360 0 564 -206T1638 745q0 -362 -204 -568T870 -29Q511 -29 306.5 177T102 745q0 363 204.5 569T870 1520ZM848 1684l-56 35q-3 2 -10 6q-45 26 -73 26q-32 0 -52 -30t-20 -80v-6H498q0 5 1 15t1 15q0 106 53.5 171T694 1901q37 0 74 -12.5T844 1852l59 -39q21 -14 40.5 -21.5T979 1784q37 0 56.5 30t19.5 87h139q0 -6 -1 -16t-1 -15q0 -106 -53.5 -170.5T998 1635q-38 0 -73 11t-77 38Z"
></glyph
><glyph unicode="&#xd6;" horiz-adv-x="1741" d="M870 1241q-176 0 -273 -130T500 745q0 -235 97 -365T870 250q177 0 274 130t97 365q0 236 -97 366T870 1241ZM870 1520q360 0 564 -206T1638 745q0 -362 -204 -568T870 -29Q511 -29 306.5 177T102 745q0 363 204.5 569T870 1520ZM531 1899H766V1653H531v246ZM926 1899h235V1653H926v246Z"
></glyph
><glyph unicode="&#xd7;" horiz-adv-x="1716" d="M1460 1075L1026 641L1460 209L1292 41L858 473L424 41L256 209L690 641L256 1075l168 168L858 809l434 434l168 -168Z"
></glyph
><glyph unicode="&#xd8;" horiz-adv-x="1741" d="M604 371q52 -62 117.5 -91.5T870 250q177 0 274 130t97 365q0 68 -7.5 126.5T1210 979L604 371ZM1133 1126q-51 58 -116 86.5T870 1241q-176 0 -273 -130T500 745q0 -64 7 -120.5T528 522l605 604ZM250 244Q176 344 139 469T102 745q0 363 204.5 569T870 1520q154 0 278 -37.5T1374 1368l199 199l113 -115L1485 1253q77 -99 115 -226.5T1638 745q0 -362 -204 -568T870 -29Q717 -29 589.5 10.5T360 129L158 -74L45 39L250 244Z"
></glyph
><glyph unicode="&#xd9;" horiz-adv-x="1663" d="M188 1493H573V598q0 -185 60.5 -264.5T831 254q138 0 198.5 79.5T1090 598v895h385V598q0 -317 -159 -472T831 -29Q506 -29 347 126T188 598v895ZM756 1899L954 1635H758L473 1899H756Z"
></glyph
><glyph unicode="&#xda;" horiz-adv-x="1663" d="M188 1493H573V598q0 -185 60.5 -264.5T831 254q138 0 198.5 79.5T1090 598v895h385V598q0 -317 -159 -472T831 -29Q506 -29 347 126T188 598v895ZM858 1899h283L856 1635H660l198 264Z"
></glyph
><glyph unicode="&#xdb;" horiz-adv-x="1663" d="M188 1493H573V598q0 -185 60.5 -264.5T831 254q138 0 198.5 79.5T1090 598v895h385V598q0 -317 -159 -472T831 -29Q506 -29 347 126T188 598v895ZM653 1899H961l223 -264H1006L807 1796L608 1635H430l223 264Z"
></glyph
><glyph unicode="&#xdc;" horiz-adv-x="1663" d="M188 1493H573V598q0 -185 60.5 -264.5T831 254q138 0 198.5 79.5T1090 598v895h385V598q0 -317 -159 -472T831 -29Q506 -29 347 126T188 598v895ZM492 1899H727V1653H492v246ZM887 1899h235V1653H887v246Z"
></glyph
><glyph unicode="&#xdd;" horiz-adv-x="1483" d="M-20 1493H401L741 961l340 532h422L934 629V0H549V629L-20 1493ZM768 1899h283L766 1635H570l198 264Z"
></glyph
><glyph unicode="&#xde;" horiz-adv-x="1511" d="M573 258V0H188V1493H573V1233H827q285 0 437.5 -126.5T1417 745q0 -234 -152.5 -360.5T827 258H573ZM573 956V537H786q112 0 173 54.5T1020 745q0 101 -61 156T786 956H573Z"
></glyph
><glyph unicode="&#xdf;" horiz-adv-x="1473" d="M172 1114q0 222 135 332t408 110q262 0 396 -112t134 -330v-71q-151 -10 -223 -49T950 881q0 -37 24.5 -65.5T1092 735l69 -37q116 -64 169.5 -148.5T1384 348Q1384 159 1269.5 65T924 -29q-65 0 -134 12.5T647 20V264q56 -27 113.5 -41T872 209q72 0 116 36t44 93q0 47 -27.5 81T879 508l-70 39Q721 596 679 663.5T637 821q0 116 69.5 195T921 1145q-1 85 -49 129.5T733 1319q-101 0 -152 -55T530 1100V0H172V1114Z"
></glyph
><glyph unicode="&#xe0;" horiz-adv-x="1382" d="M674 504Q562 504 505.5 466T449 354q0 -68 45.5 -106.5T621 209q101 0 170 72.5T860 463v41H674ZM1221 639V0H860V166Q788 64 698 17.5T479 -29Q305 -29 196.5 72.5T88 336q0 197 135.5 289T649 717H860v28q0 85 -67 124.5T584 909Q469 909 370 886T186 817v273q115 28 231 42.5T649 1147q303 0 437.5 -119.5T1221 639ZM563 1638L845 1262H649L280 1638H563Z"
></glyph
><glyph unicode="&#xe1;" horiz-adv-x="1382" d="M674 504Q562 504 505.5 466T449 354q0 -68 45.5 -106.5T621 209q101 0 170 72.5T860 463v41H674ZM1221 639V0H860V166Q788 64 698 17.5T479 -29Q305 -29 196.5 72.5T88 336q0 197 135.5 289T649 717H860v28q0 85 -67 124.5T584 909Q469 909 370 886T186 817v273q115 28 231 42.5T649 1147q303 0 437.5 -119.5T1221 639ZM833 1638h283L747 1262H551l282 376Z"
></glyph
><glyph unicode="&#xe2;" horiz-adv-x="1382" d="M674 504Q562 504 505.5 466T449 354q0 -68 45.5 -106.5T621 209q101 0 170 72.5T860 463v41H674ZM1221 639V0H860V166Q788 64 698 17.5T479 -29Q305 -29 196.5 72.5T88 336q0 197 135.5 289T649 717H860v28q0 85 -67 124.5T584 909Q469 909 370 886T186 817v273q115 28 231 42.5T649 1147q303 0 437.5 -119.5T1221 639ZM577 1638H819l256 -376H897L698 1487L499 1262H321l256 376Z"
></glyph
><glyph unicode="&#xe3;" horiz-adv-x="1382" d="M674 504Q562 504 505.5 466T449 354q0 -68 45.5 -106.5T621 209q101 0 170 72.5T860 463v41H674ZM1221 639V0H860V166Q788 64 698 17.5T479 -29Q305 -29 196.5 72.5T88 336q0 197 135.5 289T649 717H860v28q0 85 -67 124.5T584 909Q469 909 370 886T186 817v273q115 28 231 42.5T649 1147q303 0 437.5 -119.5T1221 639ZM700 1364l-55 37q-4 2 -10 6q-47 31 -72 31q-36 0 -55 -31t-19 -90v-8H350q0 136 51.5 210T546 1593q36 0 72.5 -13.5T696 1536l61 -43q22 -15 40.5 -23t33.5 -8q36 0 56 32t20 89v8h139q0 -136 -51.5 -210T850 1307q-36 0 -69.5 12T700 1364Z"
></glyph
><glyph unicode="&#xe4;" horiz-adv-x="1382" d="M674 504Q562 504 505.5 466T449 354q0 -68 45.5 -106.5T621 209q101 0 170 72.5T860 463v41H674ZM1221 639V0H860V166Q788 64 698 17.5T479 -29Q305 -29 196.5 72.5T88 336q0 197 135.5 289T649 717H860v28q0 85 -67 124.5T584 909Q469 909 370 886T186 817v273q115 28 231 42.5T649 1147q303 0 437.5 -119.5T1221 639ZM383 1585H618V1339H383v246ZM778 1585h235V1339H778v246Z"
></glyph
><glyph unicode="&#xe5;" horiz-adv-x="1382" d="M674 504Q562 504 505.5 466T449 354q0 -68 45.5 -106.5T621 209q101 0 170 72.5T860 463v41H674ZM1221 639V0H860V166Q788 64 698 17.5T479 -29Q305 -29 196.5 72.5T88 336q0 197 135.5 289T649 717H860v28q0 85 -67 124.5T584 909Q469 909 370 886T186 817v273q115 28 231 42.5T649 1147q303 0 437.5 -119.5T1221 639ZM567 1534q0 -55 38.5 -93T698 1403q55 0 93 38.5t38 92.5q0 54 -38.5 92.5T698 1665q-55 0 -93 -38.5T567 1534ZM413 1534q0 118 83.5 201.5T698 1819q118 0 201.5 -83.5T983 1534q0 -118 -83.5 -201.5T698 1249q-118 0 -201.5 83.5T413 1534Z"
></glyph
><glyph unicode="&#xe6;" horiz-adv-x="2146" d="M1679 682q0 102 -59.5 164.5T1464 909q-103 0 -167 -58.5T1217 682h462ZM674 504Q562 504 505.5 466T449 354q0 -68 45.5 -106.5T621 209q101 0 170 72.5T860 463v41H674ZM186 1090q119 28 230.5 42.5T625 1147q150 0 258.5 -38.5T1063 991q77 77 179 116.5t224 39.5q265 0 423.5 -159T2048 563V461H1210q14 -126 91.5 -189T1520 209q113 0 231.5 33.5T1995 344V68Q1868 20 1740.5 -4.5T1487 -29q-179 0 -311.5 53.5T971 178Q870 71 758.5 21T508 -29Q314 -29 201 69.5T88 336q0 197 135.5 289T649 717H860v28q0 85 -67 124.5T584 909Q469 909 370 886T186 817v273Z"
></glyph
><glyph unicode="&#xe7;" horiz-adv-x="1214" d="M1077 1085V793q-73 50 -146.5 74T778 891Q628 891 544.5 803.5T461 559q0 -157 83.5 -244.5T778 227q84 0 159.5 25T1077 326V33Q993 2 906.5 -13.5T733 -29Q430 -29 259 126.5T88 559q0 277 171 432.5T733 1147q88 0 173.5 -15.5T1077 1085ZM786 0q58 -62 85.5 -115T899 -215q0 -95 -61.5 -140.5T649 -401q-48 0 -99 6.5T447 -375l-1 152q50 -16 91.5 -23.5T612 -254q58 0 90.5 23t32.5 63q0 26 -21.5 67T647 0H786Z"
></glyph
><glyph unicode="&#xe8;" horiz-adv-x="1389" d="M1290 563V461H453Q466 335 544 272T762 209q113 0 231.5 33.5T1237 344V68Q1110 20 983 -4.5T729 -29Q425 -29 256.5 125.5T88 559q0 274 165.5 431T709 1147q264 0 422.5 -159T1290 563ZM922 682q0 102 -59.5 164.5T707 909Q603 909 538 850.5T457 682H922ZM594 1638L876 1262H680L311 1638H594Z"
></glyph
><glyph unicode="&#xe9;" horiz-adv-x="1389" d="M1290 563V461H453Q466 335 544 272T762 209q113 0 231.5 33.5T1237 344V68Q1110 20 983 -4.5T729 -29Q425 -29 256.5 125.5T88 559q0 274 165.5 431T709 1147q264 0 422.5 -159T1290 563ZM922 682q0 102 -59.5 164.5T707 909Q603 909 538 850.5T457 682H922ZM864 1638h283L778 1262H582l282 376Z"
></glyph
><glyph unicode="&#xea;" horiz-adv-x="1389" d="M1290 563V461H453Q466 335 544 272T762 209q113 0 231.5 33.5T1237 344V68Q1110 20 983 -4.5T729 -29Q425 -29 256.5 125.5T88 559q0 274 165.5 431T709 1147q264 0 422.5 -159T1290 563ZM922 682q0 102 -59.5 164.5T707 909Q603 909 538 850.5T457 682H922ZM608 1638H850l256 -376H928L729 1487L530 1262H352l256 376Z"
></glyph
><glyph unicode="&#xeb;" horiz-adv-x="1389" d="M1290 563V461H453Q466 335 544 272T762 209q113 0 231.5 33.5T1237 344V68Q1110 20 983 -4.5T729 -29Q425 -29 256.5 125.5T88 559q0 274 165.5 431T709 1147q264 0 422.5 -159T1290 563ZM922 682q0 102 -59.5 164.5T707 909Q603 909 538 850.5T457 682H922ZM414 1585H649V1339H414v246ZM809 1585h235V1339H809v246Z"
></glyph
><glyph unicode="&#xec;" horiz-adv-x="702" d="M172 1120H530V0H172V1120ZM240 1638L522 1262H326L-43 1638H240Z"
></glyph
><glyph unicode="&#xed;" horiz-adv-x="702" d="M172 1120H530V0H172V1120ZM510 1638H793L424 1262H228l282 376Z"
></glyph
><glyph unicode="&#xee;" horiz-adv-x="702" d="M172 1120H530V0H172V1120ZM254 1638H496L752 1262H574L375 1487L176 1262H-2l256 376Z"
></glyph
><glyph unicode="&#xef;" horiz-adv-x="702" d="M172 1120H530V0H172V1120ZM60 1585H295V1339H60v246ZM455 1585H690V1339H455v246Z"
></glyph
><glyph unicode="&#xf0;" horiz-adv-x="1407" d="M920 743q-55 27 -109 40.5T705 797Q588 797 524.5 730.5T461 543q0 -148 65 -232T705 227q117 0 179 85.5T946 559q0 45 -6.5 91T920 743ZM1096 1100Q1213 964 1266 835.5T1319 559q0 -276 -162.5 -432T705 -29Q415 -29 251.5 127T88 559q0 231 150.5 363.5T653 1055q46 0 85 -6.5T813 1028L623 1247L250 1128l-37 129l307 97L332 1556H684L795 1440l376 114l35 -129L891 1329l205 -229Z"
></glyph
><glyph unicode="&#xf1;" horiz-adv-x="1458" d="M1298 682V0H938V111V522q0 145 -6.5 200T909 803q-21 35 -57 54.5T770 877Q658 877 594 790.5T530 551V0H172V1120H530V956q81 98 172 144.5T903 1147q194 0 294.5 -119T1298 682ZM756 1364l-55 37q-4 2 -10 6q-47 31 -72 31q-36 0 -55 -31t-19 -90v-8H406q0 136 51.5 210T602 1593q36 0 72.5 -13.5T752 1536l61 -43q22 -15 40.5 -23t33.5 -8q36 0 56 32t20 89v8h139q0 -136 -51.5 -210T906 1307q-36 0 -69.5 12T756 1364Z"
></glyph
><glyph unicode="&#xf2;" horiz-adv-x="1407" d="M705 891Q586 891 523.5 805.5T461 559q0 -161 62.5 -246.5T705 227q117 0 179 85.5T946 559q0 161 -62 246.5T705 891ZM705 1147q289 0 451.5 -156T1319 559q0 -276 -162.5 -432T705 -29Q415 -29 251.5 127T88 559q0 276 163.5 432T705 1147ZM592 1638L874 1262H678L309 1638H592Z"
></glyph
><glyph unicode="&#xf3;" horiz-adv-x="1407" d="M705 891Q586 891 523.5 805.5T461 559q0 -161 62.5 -246.5T705 227q117 0 179 85.5T946 559q0 161 -62 246.5T705 891ZM705 1147q289 0 451.5 -156T1319 559q0 -276 -162.5 -432T705 -29Q415 -29 251.5 127T88 559q0 276 163.5 432T705 1147ZM862 1638h283L776 1262H580l282 376Z"
></glyph
><glyph unicode="&#xf4;" horiz-adv-x="1407" d="M705 891Q586 891 523.5 805.5T461 559q0 -161 62.5 -246.5T705 227q117 0 179 85.5T946 559q0 161 -62 246.5T705 891ZM705 1147q289 0 451.5 -156T1319 559q0 -276 -162.5 -432T705 -29Q415 -29 251.5 127T88 559q0 276 163.5 432T705 1147ZM606 1638H848l256 -376H926L727 1487L528 1262H350l256 376Z"
></glyph
><glyph unicode="&#xf5;" horiz-adv-x="1407" d="M705 891Q586 891 523.5 805.5T461 559q0 -161 62.5 -246.5T705 227q117 0 179 85.5T946 559q0 161 -62 246.5T705 891ZM705 1147q289 0 451.5 -156T1319 559q0 -276 -162.5 -432T705 -29Q415 -29 251.5 127T88 559q0 276 163.5 432T705 1147ZM729 1364l-55 37q-4 2 -10 6q-47 31 -72 31q-36 0 -55 -31t-19 -90v-8H379q0 136 51.5 210T575 1593q36 0 72.5 -13.5T725 1536l61 -43q22 -15 40.5 -23t33.5 -8q36 0 56 32t20 89v8h139q0 -136 -51.5 -210T879 1307q-36 0 -69.5 12T729 1364Z"
></glyph
><glyph unicode="&#xf6;" horiz-adv-x="1407" d="M705 891Q586 891 523.5 805.5T461 559q0 -161 62.5 -246.5T705 227q117 0 179 85.5T946 559q0 161 -62 246.5T705 891ZM705 1147q289 0 451.5 -156T1319 559q0 -276 -162.5 -432T705 -29Q415 -29 251.5 127T88 559q0 276 163.5 432T705 1147ZM412 1585H647V1339H412v246ZM807 1585h235V1339H807v246Z"
></glyph
><glyph unicode="&#xf7;" horiz-adv-x="1716" d="M705 395h307V86H705V395ZM705 1198h307V889H705v309ZM217 760H1499V524H217V760Z"
></glyph
><glyph unicode="&#xf8;" horiz-adv-x="1407" d="M856 836q-29 28 -66.5 41.5T705 891Q586 891 523.5 805.5T461 559q0 -41 3.5 -73.5T475 426L856 836ZM547 287q31 -30 70.5 -45T705 227q117 0 179 85.5T946 559q0 43 -3.5 76.5T932 698L547 287ZM223 158Q156 236 122 336T88 559q0 276 163.5 432T705 1147q106 0 195.5 -22T1065 1059l147 158l109 -101L1180 967q70 -80 104.5 -181T1319 559q0 -276 -162.5 -432T705 -29Q597 -29 506 -6.5T338 61L190 -94L78 0L223 158Z"
></glyph
><glyph unicode="&#xf9;" horiz-adv-x="1458" d="M160 436v684H520V1008q0 -91 -1 -228.5T518 596q0 -135 7 -194.5T549 315q22 -35 57.5 -54T688 242q112 0 176 86t64 239v553h358V0H928V162Q847 64 756.5 17.5T557 -29Q363 -29 261.5 90T160 436ZM619 1638L901 1262H705L336 1638H619Z"
></glyph
><glyph unicode="&#xfa;" horiz-adv-x="1458" d="M160 436v684H520V1008q0 -91 -1 -228.5T518 596q0 -135 7 -194.5T549 315q22 -35 57.5 -54T688 242q112 0 176 86t64 239v553h358V0H928V162Q847 64 756.5 17.5T557 -29Q363 -29 261.5 90T160 436ZM889 1638h283L803 1262H607l282 376Z"
></glyph
><glyph unicode="&#xfb;" horiz-adv-x="1458" d="M160 436v684H520V1008q0 -91 -1 -228.5T518 596q0 -135 7 -194.5T549 315q22 -35 57.5 -54T688 242q112 0 176 86t64 239v553h358V0H928V162Q847 64 756.5 17.5T557 -29Q363 -29 261.5 90T160 436ZM633 1638H875l256 -376H953L754 1487L555 1262H377l256 376Z"
></glyph
><glyph unicode="&#xfc;" horiz-adv-x="1458" d="M160 436v684H520V1008q0 -91 -1 -228.5T518 596q0 -135 7 -194.5T549 315q22 -35 57.5 -54T688 242q112 0 176 86t64 239v553h358V0H928V162Q847 64 756.5 17.5T557 -29Q363 -29 261.5 90T160 436ZM439 1585H674V1339H439v246ZM834 1585h235V1339H834v246Z"
></glyph
><glyph unicode="&#xfd;" horiz-adv-x="1335" d="M25 1120H383L684 360l256 760h358L827 -106Q756 -293 661.5 -367.5T412 -442H205v235H317q91 0 132.5 29T514 -74l10 31L25 1120ZM803 1638h283L717 1262H521l282 376Z"
></glyph
><glyph unicode="&#xfe;" horiz-adv-x="1466" d="M530 162V-426H172V1556H530V956q74 98 164 144.5T901 1147q207 0 340 -164.5T1374 559q0 -259 -133 -423.5T901 -29Q784 -29 694 17.5T530 162ZM768 887Q653 887 591.5 802.5T530 559q0 -159 61.5 -243.5T768 231q115 0 175.5 84T1004 559q0 160 -60.5 244T768 887Z"
></glyph
><glyph unicode="&#xff;" horiz-adv-x="1335" d="M25 1120H383L684 360l256 760h358L827 -106Q756 -293 661.5 -367.5T412 -442H205v235H317q91 0 132.5 29T514 -74l10 31L25 1120ZM353 1585H588V1339H353v246ZM748 1585H983V1339H748v246Z"
></glyph
><glyph unicode="&#x106;" horiz-adv-x="1503" d="M1372 82Q1266 27 1151 -1T911 -29Q538 -29 320 179.5T102 745q0 358 218 566.5T911 1520q125 0 240 -28t221 -83V1100q-107 73 -211 107t-219 34q-206 0 -324 -132T500 745Q500 514 618 382T942 250q115 0 219 34t211 107V82ZM921 1899h283L919 1635H723l198 264Z"
></glyph
><glyph unicode="&#x107;" horiz-adv-x="1214" d="M1077 1085V793q-73 50 -146.5 74T778 891Q628 891 544.5 803.5T461 559q0 -157 83.5 -244.5T778 227q84 0 159.5 25T1077 326V33Q993 2 906.5 -13.5T733 -29Q430 -29 259 126.5T88 559q0 277 171 432.5T733 1147q88 0 173.5 -15.5T1077 1085ZM858 1638h283L772 1262H576l282 376Z"
></glyph
><glyph unicode="&#x10c;" horiz-adv-x="1503" d="M1372 82Q1266 27 1151 -1T911 -29Q538 -29 320 179.5T102 745q0 358 218 566.5T911 1520q125 0 240 -28t221 -83V1100q-107 73 -211 107t-219 34q-206 0 -324 -132T500 745Q500 514 618 382T942 250q115 0 219 34t211 107V82ZM716 1635L493 1899H671L870 1737l199 162h178L1024 1635H716Z"
></glyph
><glyph unicode="&#x10d;" horiz-adv-x="1214" d="M1077 1085V793q-73 50 -146.5 74T778 891Q628 891 544.5 803.5T461 559q0 -157 83.5 -244.5T778 227q84 0 159.5 25T1077 326V33Q993 2 906.5 -13.5T733 -29Q430 -29 259 126.5T88 559q0 277 171 432.5T733 1147q88 0 173.5 -15.5T1077 1085ZM602 1262L346 1638H524L723 1411l199 227h178L844 1262H602Z"
></glyph
><glyph unicode="&#x111;" horiz-adv-x="1466" d="M934 956v281H608v205H934v114h360V1442h154V1237H1294V0H934V162Q860 63 771 17T565 -29Q358 -29 225 135.5T92 559q0 259 133 423.5T565 1147q116 0 205.5 -46.5T934 956ZM698 231q115 0 175.5 84T934 559q0 160 -60.5 244T698 887Q584 887 523.5 803T463 559q0 -160 60.5 -244T698 231Z"
></glyph
><glyph unicode="&#x11e;" horiz-adv-x="1681" d="M1530 111Q1386 41 1231 6T911 -29Q538 -29 320 179.5T102 745q0 361 222 568t608 207q149 0 285.5 -28T1475 1409V1100q-125 71 -248.5 106T979 1241q-230 0 -354.5 -128.5T500 745Q500 508 620 379T961 250q60 0 111.5 7.5T1165 281V571H930V829h600V111ZM481 1899H624q21 -61 69 -91t124 -30q76 0 124 30t69 91h143q-16 -129 -102 -196.5T817 1635q-148 0 -234 67.5T481 1899Z"
></glyph
><glyph unicode="&#x11f;" horiz-adv-x="1466" d="M934 190Q860 92 771 46T565 0Q360 0 226 161.5T92 573q0 251 134 411.5T565 1145q117 0 206 -46T934 954v166h360V113q0 -270 -170.5 -412.5T629 -442q-105 0 -203 16t-197 49V-98q94 -54 184 -80.5T594 -205q176 0 258 77t82 241v77ZM698 887Q587 887 525 805T463 573q0 -154 60 -233.5T698 260q112 0 174 82t62 231q0 150 -62 232T698 887ZM397 1606H540q11 -70 60.5 -107T733 1462q83 0 132.5 37T926 1606h143q-6 -144 -93 -220.5T733 1309q-156 0 -243 76.5T397 1606Z"
></glyph
><glyph unicode="&#x130;" horiz-adv-x="762" d="M188 1493H573V0H188V1493ZM219 1899H493V1653H219v246Z"
></glyph
><glyph unicode="&#x131;" horiz-adv-x="702" d="M172 1120H530V0H172V1120Z"
></glyph
><glyph unicode="&#x141;" horiz-adv-x="1315" d="M199 1493H584V1077l254 185L981 1069L584 797V291h676V0H199V524L51 418L-92 608L199 805v688Z"
></glyph
><glyph unicode="&#x142;" horiz-adv-x="760" d="M199 1556H559V1055l129 88L799 989L559 825V0H199V641L74 555L-37 709L199 872v684Z"
></glyph
><glyph unicode="&#x152;" horiz-adv-x="2390" d="M1180 1202H1075q-289 0 -432 -113T500 748Q500 519 643.5 405T1075 291h105v911ZM1090 1493H2218V1202H1565V924h614V633H1565V291h676V0H1090q-13 0 -36.5 -1T1018 -2Q576 -2 339 192.5T102 748q0 360 237 553.5T1018 1495q11 0 35 -1t37 -1Z"
></glyph
><glyph unicode="&#x153;" horiz-adv-x="2241" d="M1774 682q0 102 -59.5 164.5T1559 909q-104 0 -169 -58.5T1309 682h465ZM2142 563V461H1305q13 -126 91 -189t218 -63q113 0 231.5 33.5T2089 344V68Q1963 20 1835 -4.5T1581 -29q-165 0 -272 40.5T1130 139Q1048 55 941.5 13T705 -29Q415 -29 251.5 127T88 559q0 276 163.5 432T705 1147q134 0 237 -41T1126 979q82 87 181.5 127.5T1542 1147q278 0 439 -157T2142 563ZM705 891Q586 891 523.5 805.5T461 559q0 -161 62.5 -246.5T705 227q117 0 179 85.5T946 559q0 161 -62 246.5T705 891Z"
></glyph
><glyph unicode="&#x15e;" horiz-adv-x="1475" d="M1227 1446V1130q-123 55 -240 83t-221 28q-138 0 -204 -38T496 1085q0 -60 44.5 -93.5T702 934L866 901q249 -50 354 -152T1325 459Q1325 212 1178.5 91.5T731 -29Q589 -29 446 -2T160 78V403Q303 327 436.5 288.5T694 250q126 0 193 42t67 120q0 70 -45.5 108T727 588L578 621Q354 669 250.5 774T147 1057q0 223 144 343t414 120q123 0 253 -18.5T1227 1446ZM823 0q58 -62 85.5 -115T936 -215q0 -95 -61.5 -140.5T686 -401q-48 0 -99 6.5T484 -375l-1 152q50 -16 91.5 -23.5T649 -254q58 0 90.5 23t32.5 63q0 26 -21.5 67T684 0H823Z"
></glyph
><glyph unicode="&#x15f;" horiz-adv-x="1219" d="M1047 1085V813Q932 861 825 885T623 909Q521 909 471.5 883.5T422 805q0 -43 37.5 -66T594 705l63 -9Q932 661 1027 581t95 -251Q1122 151 990 61T596 -29q-111 0 -229.5 17.5T123 41V313Q230 261 342.5 235T571 209q105 0 158 29t53 86q0 48 -36.5 71.5T600 432l-63 8Q298 470 202 551T106 797q0 178 122 264t374 86q99 0 208 -15t237 -47ZM700 0q58 -62 85.5 -115T813 -215q0 -95 -61.5 -140.5T563 -401q-48 0 -99 6.5T361 -375l-1 152q50 -16 91.5 -23.5T526 -254q58 0 90.5 23t32.5 63q0 26 -21.5 67T561 0H700Z"
></glyph
><glyph unicode="&#x160;" horiz-adv-x="1475" d="M1227 1446V1130q-123 55 -240 83t-221 28q-138 0 -204 -38T496 1085q0 -60 44.5 -93.5T702 934L866 901q249 -50 354 -152T1325 459Q1325 212 1178.5 91.5T731 -29Q589 -29 446 -2T160 78V403Q303 327 436.5 288.5T694 250q126 0 193 42t67 120q0 70 -45.5 108T727 588L578 621Q354 669 250.5 774T147 1057q0 223 144 343t414 120q123 0 253 -18.5T1227 1446ZM559 1635L336 1899H514L713 1737l199 162h178L867 1635H559Z"
></glyph
><glyph unicode="&#x161;" horiz-adv-x="1219" d="M1047 1085V813Q932 861 825 885T623 909Q521 909 471.5 883.5T422 805q0 -43 37.5 -66T594 705l63 -9Q932 661 1027 581t95 -251Q1122 151 990 61T596 -29q-111 0 -229.5 17.5T123 41V313Q230 261 342.5 235T571 209q105 0 158 29t53 86q0 48 -36.5 71.5T600 432l-63 8Q298 470 202 551T106 797q0 178 122 264t374 86q99 0 208 -15t237 -47ZM489 1262L233 1638H411L610 1411l199 227H987L731 1262H489Z"
></glyph
><glyph unicode="&#x178;" horiz-adv-x="1483" d="M-20 1493H401L741 961l340 532h422L934 629V0H549V629L-20 1493ZM402 1899H637V1653H402v246ZM797 1899h235V1653H797v246Z"
></glyph
><glyph unicode="&#x17d;" horiz-adv-x="1485" d="M115 1493H1370V1260L569 291h824V0H92V233l801 969H115v291ZM565 1635L342 1899H520L719 1737l199 162h178L873 1635H565Z"
></glyph
><glyph unicode="&#x17e;" horiz-adv-x="1192" d="M117 1120h977V870L504 256h590V0H92V250L682 864H117v256ZM475 1262L219 1638H397L596 1411l199 227H973L717 1262H475Z"
></glyph
><glyph unicode="&#x192;" horiz-adv-x="1425" d="M1335 1516V1262q-46 29 -88 43t-84 14q-90 0 -140 -57.5T946 1063L913 895h285V657H866L733 -16Q692 -222 577.5 -324T272 -426q-65 0 -131.5 10T6 -385v254q46 -29 88.5 -43T178 -188q89 0 138.5 57.5T395 68L512 657H270V895H559l51 252q42 206 155.5 307.5T1069 1556q66 0 132 -10t134 -30Z"
></glyph
><glyph unicode="&#x2c6;" d="M391 1638H633L889 1262H711L512 1487L313 1262H135l256 376Z"
></glyph
><glyph unicode="&#x2c7;" d="M391 1262L135 1638H313L512 1411l199 227H889L633 1262H391Z"
></glyph
><glyph unicode="&#x2d8;" d="M176 1606H319q11 -70 60.5 -107T512 1462q83 0 132.5 37T705 1606H848q-6 -144 -93 -220.5T512 1309q-156 0 -243 76.5T176 1606Z"
></glyph
><glyph unicode="&#x2d9;" d="M375 1585H649V1339H375v246Z"
></glyph
><glyph unicode="&#x2da;" d="M381 1534q0 -55 38.5 -93T512 1403q55 0 93 38.5t38 92.5q0 54 -38.5 92.5T512 1665q-55 0 -93 -38.5T381 1534ZM227 1534q0 118 83.5 201.5T512 1819q118 0 201.5 -83.5T797 1534q0 -118 -83.5 -201.5T512 1249q-118 0 -201.5 83.5T227 1534Z"
></glyph
><glyph unicode="&#x2db;" d="M453 0H594Q544 -67 525 -103.5T506 -166q0 -39 29.5 -63.5T614 -254q39 0 77.5 7.5T770 -223V-379q-55 -11 -102 -16.5T580 -401q-115 0 -176.5 46T342 -223q0 53 27 107.5T453 0Z"
></glyph
><glyph unicode="&#x2dc;" d="M514 1364l-55 37q-4 2 -10 6q-47 31 -72 31q-36 0 -55 -31t-19 -90v-8H164q0 136 51.5 210T360 1593q36 0 72.5 -13.5T510 1536l61 -43q22 -15 40.5 -23t33.5 -8q36 0 56 32t20 89v8H860q0 -136 -51.5 -210T664 1307q-36 0 -69.5 12T514 1364Z"
></glyph
><glyph unicode="&#x2dd;" d="M387 1638H604L356 1262H193l194 376ZM750 1638H981L709 1262H535l215 376Z"
></glyph
><glyph unicode="&#x3a9;" horiz-adv-x="1575" d="M1227 256h291V0H909V291q126 86 192 217.5T1167 805q0 203 -101.5 319.5T786 1241q-177 0 -278.5 -116.5T406 805q0 -164 66 -296.5T664 291V0H55V256H346Q220 377 159 516T98 819q0 313 188 501.5T786 1509q313 0 501 -188.5T1475 819q0 -164 -61 -303T1227 256Z"
></glyph
><glyph unicode="&#x3c0;" horiz-adv-x="1319" d="M1354 1092L1315 868H1139L985 0H698L850 868H612L461 0H174L326 868H301q-55 0 -84 -31T178 738L-35 737Q-6 936 88 1014t311 78h955Z"
></glyph
><glyph unicode="&#x2013;" d="M0 690H1024V432H0V690Z"
></glyph
><glyph unicode="&#x2014;" horiz-adv-x="2048" d="M0 690H2048V432H0V690Z"
></glyph
><glyph unicode="&#x2018;" horiz-adv-x="778" d="M551 856H211v285l227 352H651L551 1141V856Z"
></glyph
><glyph unicode="&#x2019;" horiz-adv-x="778" d="M229 1493H569V1208L342 856H129l100 352v285Z"
></glyph
><glyph unicode="&#x201a;" horiz-adv-x="778" d="M248 387H588V102L358 -250H147L248 102V387Z"
></glyph
><glyph unicode="&#x201c;" horiz-adv-x="1346" d="M1057 856H717v283l227 354h213L1057 1139V856ZM551 856H211v285l227 352H651L551 1141V856Z"
></glyph
><glyph unicode="&#x201d;" horiz-adv-x="1346" d="M289 1493H629V1208L401 856H188l101 352v285ZM795 1493h340V1206L907 856H694l101 350v287Z"
></glyph
><glyph unicode="&#x201e;" horiz-adv-x="1346" d="M248 387H588V102L358 -250H147L248 102V387ZM754 387h340V100L866 -250H653L754 100V387Z"
></glyph
><glyph unicode="&#x2020;" d="M342 1493H672V1112H963V874H672V-197H342V874H53v238H342v381Z"
></glyph
><glyph unicode="&#x2021;" d="M342 1493H672V1112H963V874H672V422H963V184H672V-197H342V184H51V422H342V874H53v238H342v381Z"
></glyph
><glyph unicode="&#x2022;" horiz-adv-x="1309" d="M295 762q0 74 26.5 139T399 1016q53 51 118 77.5T655 1120q73 0 138.5 -27T909 1016q52 -52 78.5 -116.5T1014 762q0 -74 -27 -139.5T909 506Q858 455 792.5 428T653 401q-73 0 -138 27T399 506q-50 51 -77 116.5T295 762Z"
></glyph
><glyph unicode="&#x2026;" horiz-adv-x="2048" d="M1526 387h360V0H1526V387ZM162 387H522V0H162V387ZM844 387h360V0H844V387Z"
></glyph
><glyph unicode="&#x2030;" horiz-adv-x="2949" d="M2503 616q-72 0 -111 -61.5T2353 379q0 -115 39 -176.5T2503 141q71 0 109 61.5T2650 379q0 114 -38 175.5T2503 616ZM2503 784q186 0 292.5 -108T2902 379Q2902 190 2795 80.5T2503 -29q-186 0 -294 109.5T2101 379q0 188 107.5 296.5T2503 784ZM465 1352q-72 0 -111 -62T315 1114q0 -115 39 -177.5T465 874q72 0 110.5 62.5T614 1114q0 114 -39 176t-110 62ZM465 1520q186 0 292.5 -108.5T864 1114Q864 925 757.5 816T465 707Q279 707 172.5 816T66 1114q0 189 106.5 297.5T465 1520ZM670 -29H449l933 1549h222L670 -29ZM1587 784q186 0 293 -108T1987 379Q1987 190 1880 80.5T1587 -29q-186 0 -293.5 109.5T1186 379q0 188 107.5 296.5T1587 784ZM1587 616q-71 0 -110 -61.5T1438 379q0 -115 38.5 -176.5T1587 141q72 0 110 61.5T1735 379q0 114 -38.5 175.5T1587 616Z"
></glyph
><glyph unicode="&#x2039;" horiz-adv-x="844" d="M651 1063V821L358 600L651 379V137L158 506V692l493 371Z"
></glyph
><glyph unicode="&#x203a;" horiz-adv-x="844" d="M193 1063L686 692V506L193 137V379L485 600L193 821v242Z"
></glyph
><glyph unicode="&#x20ac;" horiz-adv-x="1425" d="M1288 82Q1193 27 1089.5 -1T874 -29Q612 -29 432.5 101.5T178 477H-39L49 672h98q-1 14 -1.5 29.5T145 745q0 29 0.5 45t1.5 31H-39l88 195H178q77 246 255.5 375T874 1520q112 0 215.5 -28T1288 1409V1100q-81 78 -173 117.5T924 1257q-127 0 -216.5 -61.5T573 1016h539L1026 821H533q-2 -16 -2.5 -34T530 733q0 -13 0.5 -28.5T532 672H961L872 477H573Q623 355 710.5 294T924 233q99 0 189.5 39.5T1288 391V82Z"
></glyph
><glyph unicode="&#x2122;" horiz-adv-x="2048" d="M1153 1493l119 -227l119 227h227V915H1448v437L1311 1096h-76l-137 256V915H926v578h227ZM813 1493V1350H639V915H467v435H295v143H813Z"
></glyph
><glyph unicode="&#x2202;" horiz-adv-x="1114" d="M766 684q21 113 32 206t11 150q0 87 -29.5 148T711 1249q-35 0 -132 -93T399 1063q-48 0 -80 33.5T287 1180q0 69 93 125.5T600 1362q210 0 332.5 -161T1055 760Q1055 416 892.5 195.5T475 -25Q293 -25 176 91.5T59 391q0 203 119.5 336T477 860q101 0 170.5 -42.5T766 684ZM698 532q0 114 -36.5 176T557 770Q461 770 396.5 633.5T332 287q0 -116 36.5 -176T475 51q97 0 160 135.5T698 532Z"
></glyph
><glyph unicode="&#x2206;" horiz-adv-x="1427" d="M713 1110L387 256h653L713 1110ZM563 1473H864L1427 0H0L563 1473Z"
></glyph
><glyph unicode="&#x220f;" horiz-adv-x="1612" d="M150 1473H1458V-393H1114V1184H494V-393H150V1473Z"
></glyph
><glyph unicode="&#x2211;" horiz-adv-x="1470" d="M66 1473H1374V1208H496L1116 563L494 -127h933V-393H41v172L739 551L66 1241v232Z"
></glyph
><glyph unicode="&#x2212;" horiz-adv-x="1716" d="M217 760H1499V524H217V760Z"
></glyph
><glyph unicode="&#x2215;" horiz-adv-x="342" d="M-184 -29H-408L526 1520H750L-184 -29Z"
></glyph
><glyph unicode="&#x2219;" horiz-adv-x="778" d="M209 905H569V518H209V905Z"
></glyph
><glyph unicode="&#x221a;" horiz-adv-x="1366" d="M1155 1714h215V1565h-96L684 -41H565L258 805L113 750L76 879l360 127L659 371l496 1343Z"
></glyph
><glyph unicode="&#x221e;" horiz-adv-x="1706" d="M956 561q43 -67 102 -101t132 -34q90 0 146.5 50.5T1393 606q0 77 -51.5 127.5T1214 784q-72 0 -131.5 -50.5T956 561ZM752 657Q709 724 651 757.5T518 791q-90 0 -146.5 -50T315 612q0 -77 51 -127.5T494 434q71 0 132 52.5T752 657ZM856 442Q788 312 708.5 249T532 186Q393 186 294 307.5T195 608q0 188 87.5 305T510 1030q90 0 166.5 -56.5T852 774q71 132 150 195t174 63q140 0 238.5 -121T1513 610q0 -189 -87.5 -306.5T1198 186q-91 0 -166 55T856 442Z"
></glyph
><glyph unicode="&#x222b;" horiz-adv-x="1249" d="M362 -248q99 0 119 667q3 101 4 154q17 523 130.5 753T965 1556q105 0 170 -53t65 -137q0 -64 -41 -103.5T1053 1223q-64 0 -96.5 38.5T924 1374q0 38 -7.5 49T891 1434Q790 1434 767 767q-2 -60 -3 -91Q753 347 733.5 203.5T676 -41Q614 -207 516.5 -290T287 -373q-107 0 -171.5 52T51 -182q0 65 42 104t112 39q60 0 92.5 -36T330 -178q0 -12 -2 -24q0 -2 0 -3q0 -24 8 -33.5t26 -9.5Z"
></glyph
><glyph unicode="&#x2248;" horiz-adv-x="1716" d="M1499 1059V815Q1393 735 1303.5 700.5T1118 666q-107 0 -250 58q-14 6 -22 9q-7 3 -22 9Q669 803 575 803q-88 0 -174 -38.5T217 643V887q105 78 194.5 112.5T598 1034q110 0 257 -59q10 -4 15 -6q8 -3 22 -9q155 -61 249 -61q86 0 170.5 37.5T1499 1059ZM1499 641V397Q1393 317 1303.5 282.5T1118 248q-107 0 -250 58q-14 6 -23 10q-6 2 -21 8Q669 385 575 385q-88 0 -174 -38T217 225V469q107 80 196 114.5T598 618q107 0 250 -58q15 -6 22 -9q8 -3 22 -8q155 -62 249 -62q86 0 170.5 37.5T1499 641Z"
></glyph
><glyph unicode="&#x2260;" horiz-adv-x="1716" d="M217 987h791l252 305l149 -125L1264 987h235V752H1081L907 532h592V295H709L457 -10L307 117L453 295H217V532H641L817 752H217V987Z"
></glyph
><glyph unicode="&#x2264;" horiz-adv-x="1716" d="M1499 238V0H217V238H1499ZM1499 948L602 739L1499 530V287L217 623V858l1282 334V948Z"
></glyph
><glyph unicode="&#x2265;" horiz-adv-x="1716" d="M217 238H1499V0H217V238ZM217 948v244L1499 858V623L217 287V530l897 209L217 948Z"
></glyph
><glyph unicode="&#x25ca;" horiz-adv-x="1012" d="M506 1409L121 592L506 -233L891 592L506 1409ZM506 1653L1006 592L506 -477L6 592L506 1653Z"
></glyph
><glyph unicode="&#xfb01;" horiz-adv-x="1518" d="M985 1556h361V1264H985v292ZM911 1556V1321H713q-75 0 -104 -27.5T580 1198v-78h766V0H985V864H580V0H219V864H43v256H219v78q0 183 102 270.5T637 1556H911Z"
></glyph
><glyph unicode="&#xfb02;" horiz-adv-x="1518" d="M635 1556h711V0H985V1321H711q-76 0 -106 -27.5T575 1198v-78H856V864H575V0H217V864H39v256H217v78q0 183 102 270.5T635 1556Z"
></glyph
></font
></defs
><g style="font-family: &quot;Bitstream Vera Sans&quot;; font-size:50;fill:black"
><text x="20" y="50"
>!&quot;#$%&amp;&#39;()*+,-./0123456789:;&#229;&lt;&gt;?</text
><text x="20" y="100"
>@ABCDEFGHIJKLMNOPQRSTUVWXYZ[\]^_</text
><text x="20" y="150"
>` abcdefghijklmnopqrstuvwxyz|{}~</text
></g
></svg
>