<?xml version="1.0" encoding="UTF-8" standalone="no"?>
<!DOCTYPE svg PUBLIC "-//W3C//DTD SVG 1.1//EN" "http://www.w3.org/Graphics/SVG/1.1/DTD/svg11.dtd" >
<svg xmlns="http://www.w3.org/2000/svg"
><metadata
></metadata
><defs
><font horiz-adv-x="1303"
><font-face font-family="Bitstream Vera Sans" units-per-em="2048" ascent="1901" descent="-483"
></font-face
><missing-glyph horiz-adv-x="1229" d="M102 -362V1444H1126V-362H102ZM217 -248h795V1329H217V-248Z"
></missing-glyph
><glyph unicode=" " horiz-adv-x="651" d=""
></glyph
><glyph unicode="!" horiz-adv-x="821" d="M453 1493H655L528 838L438 481H276l50 357l127 655ZM213 254H416L367 0H162l51 254Z"
></glyph
><glyph unicode="&quot;" horiz-adv-x="942" d="M367 1493V938H197v555H367ZM745 1493V938H575v555H745Z"
></glyph
><glyph unicode="#" horiz-adv-x="1716" d="M897 1470L793 1055h292l105 415h160L1247 1055h336L1544 901H1208L1126 567h340L1430 414H1087L983 0H823L926 414H633L530 0H369L473 414H143l37 153H510l84 334H258l39 154H633l102 415H897ZM1047 901H756L672 567H965l82 334Z"
></glyph
><glyph unicode="$" d="M600 145q139 6 220 70.5T901 383q0 84 -51 130T684 578L600 145ZM700 1180Q568 1166 493 1102T418 938q0 -70 47.5 -109.5T621 770l79 410ZM1167 1262l-34 -181q-86 46 -169.5 71T801 1179L717 752Q901 723 997.5 637T1094 416Q1094 241 951 126.5T571 0L512 -301H412L471 0Q355 3 253 26.5T68 92l34 184q92 -62 192 -96T500 142l88 456Q399 634 313 708.5T227 909q0 166 137.5 281T727 1323l47 233H874L830 1323q90 -3 175.5 -18.5T1167 1262Z"
></glyph
><glyph unicode="%" horiz-adv-x="1946" d="M481 707q-136 0 -215.5 88.5T186 1036q0 216 116 350t302 134q136 0 215.5 -89.5T899 1188Q899 974 783 840.5T481 707ZM739 1182q0 105 -39 158t-116 53q-112 0 -175 -97T346 1026q0 -92 40.5 -142T502 834q107 0 172 95t65 253ZM1599 446q0 107 -38 160t-115 53q-111 0 -174.5 -97.5T1208 291q0 -93 40.5 -143T1364 98q107 0 171 95t64 253ZM1343 -29q-136 0 -215 89t-79 241q0 216 115.5 349.5T1466 784q136 0 214.5 -88T1759 455q0 -215 -115.5 -349.5T1343 -29ZM1683 1520L449 -29H289L1524 1520h159Z"
></glyph
><glyph unicode="&amp;" horiz-adv-x="1597" d="M967 260L541 803Q420 715 357.5 616T295 414q0 -127 85.5 -204T608 133q94 0 185.5 32.5T967 260ZM1507 801Q1462 642 1388.5 510T1212 270L1421 0H1169L1063 139Q957 56 835 13.5T580 -29Q359 -29 227.5 80T96 369q0 154 92.5 291T463 913q-31 46 -45.5 93.5T403 1108q0 68 23 129t66 111q69 82 173 127t224 45q78 0 157 -18t160 -54l-35 -182q-75 47 -149.5 71.5T877 1362q-124 0 -201.5 -64.5T598 1133q0 -44 19 -87T705 915L1112 395q75 79 128 181.5T1321 801h186Z"
></glyph
><glyph unicode="&#39;" horiz-adv-x="563" d="M367 1493V938H197v555H367Z"
></glyph
><glyph unicode="(" horiz-adv-x="799" d="M874 1554Q609 1223 478.5 925.5T348 352Q348 194 386 38.5T500 -270H340Q248 -98 203 64.5T158 383q0 297 137.5 588.5T711 1554H874Z"
></glyph
><glyph unicode=")" horiz-adv-x="799" d="M-127 -270Q139 61 269 358.5T399 932q0 158 -37.5 313.5T248 1554H408q92 -173 137 -334T590 903Q590 605 451.5 311.5T37 -270H-127Z"
></glyph
><glyph unicode="*" horiz-adv-x="1024" d="M963 1247L604 1053L963 858L905 760L569 963V586H455V963L119 760L61 858l359 195L61 1247l58 99L455 1143v377H569V1143l336 203l58 -99Z"
></glyph
><glyph unicode="+" horiz-adv-x="1716" d="M942 1284V727h557V557H942V0H774V557H217V727H774v557H942Z"
></glyph
><glyph unicode="," horiz-adv-x="651" d="M184 254H395L362 82L135 -238H6L150 82l34 172Z"
></glyph
><glyph unicode="-" horiz-adv-x="739" d="M125 643H664L633 479H92l33 164Z"
></glyph
><glyph unicode="." horiz-adv-x="651" d="M168 254H379L330 0H119l49 254Z"
></glyph
><glyph unicode="/" horiz-adv-x="690" d="M696 1493H874L27 -190H-150L696 1493Z"
></glyph
><glyph unicode="0" d="M782 1520q203 0 310.5 -135T1200 997q0 -192 -50.5 -381.5T1008 276Q915 126 789.5 48.5T512 -29Q316 -29 209 107T102 494q0 190 51.5 380.5T297 1214q92 150 215.5 228T782 1520ZM770 1360q-76 0 -144.5 -40.5T502 1200Q410 1068 355.5 870.5T301 465q0 -165 58.5 -249.5T532 131q80 0 148 40.5T803 291q91 131 144.5 328.5T1001 1026q0 165 -58.5 249.5T770 1360Z"
></glyph
><glyph unicode="1" d="M133 170H463L686 1319L313 1247l35 174l371 72H922L664 170H993L961 0H100l33 170Z"
></glyph
><glyph unicode="2" d="M944 721L299 168h713L977 0H8L41 170L715 748Q850 865 906.5 953.5T963 1135q0 97 -68 158t-178 61q-95 0 -211 -34T258 1221l37 200q124 49 237 74t209 25q196 0 315.5 -104T1176 1143q0 -114 -57 -217.5T944 721Z"
></glyph
><glyph unicode="3" d="M324 1456q110 32 213.5 48T741 1520q198 0 314 -88t116 -236q0 -145 -91.5 -249T827 805Q953 769 1012 693t59 -201q0 -120 -57.5 -225T848 86Q766 28 652 -0.5T389 -29q-94 0 -190 18.5T4 45L41 236q94 -52 189.5 -77.5T426 133q197 0 319.5 101.5T868 498q0 104 -78 160.5T567 715H393l31 164H608q166 0 261.5 76T965 1161q0 94 -70 145.5T698 1358q-96 0 -196.5 -20.5T293 1276l31 180Z"
></glyph
><glyph unicode="4" d="M881 1493h254L944 520h213L1124 352H911L844 0H643l68 352H37L76 547l805 946ZM899 1317L233 520H743l156 797Z"
></glyph
><glyph unicode="5" d="M1190 1493l-31 -168H541L469 956q46 15 93.5 22t96.5 7q207 0 327 -111T1106 573q0 -133 -61.5 -255T870 104Q790 40 674.5 5.5T422 -29q-90 0 -184 16T41 35L78 223q92 -45 184.5 -67.5T449 133q195 0 322.5 117T899 543q0 130 -83.5 202T582 817q-79 0 -164.5 -18.5T242 743l145 750h803Z"
></glyph
><glyph unicode="6" d="M940 553q0 127 -65 200.5T698 827Q543 827 437.5 707.5T332 412q0 -132 64.5 -206.5T575 131q156 0 260.5 122.5T940 553ZM1212 1458l-34 -184q-58 38 -133 58t-160 20q-207 0 -332.5 -130T365 815q73 85 169.5 128.5T743 987q183 0 291.5 -105.5T1143 598q0 -146 -53.5 -271.5T934 106Q864 41 771 6T573 -29Q367 -29 248 102T129 461q0 212 54.5 408.5T336 1210q103 152 249.5 231T909 1520q78 0 154 -15.5T1212 1458Z"
></glyph
><glyph unicode="7" d="M262 1493H1284l-18 -86L412 0H190L997 1323H229l33 170Z"
></glyph
><glyph unicode="8" d="M911 453q0 113 -79 184.5T625 709Q469 709 367.5 615.5T266 379q0 -114 77.5 -181T553 131q157 0 257.5 91T911 453ZM1014 1149q0 95 -70 153t-186 58q-137 0 -225.5 -77T444 1090q0 -100 69.5 -161T698 868q138 0 227 79.5t89 201.5ZM877 786Q990 743 1050 656t60 -210Q1110 239 950 105T537 -29Q322 -29 195 76.5T68 358q0 160 109 284.5T461 801Q356 837 301 912.5T246 1096q0 181 150.5 302.5T778 1520q193 0 314.5 -98.5T1214 1171q0 -132 -90.5 -235.5T877 786Z"
></glyph
><glyph unicode="9" d="M90 33l37 184q58 -38 132 -58T418 139q207 0 333.5 131T940 678Q866 593 768.5 548.5T559 504Q377 504 269.5 609.5T162 893q0 146 53 271.5T371 1384q70 66 162 101t196 35q207 0 327 -131.5T1176 1030q0 -211 -55.5 -408T967 281Q863 129 717 50T393 -29q-77 0 -153.5 15.5T90 33ZM362 940q0 -127 66 -201.5T606 664q155 0 260 119t105 296q0 132 -65 206.5T727 1360q-155 0 -260 -121.5T362 940Z"
></glyph
><glyph unicode=":" horiz-adv-x="690" d="M313 1059H524L475 805H264l49 254ZM156 254H367L317 0H106l50 254Z"
></glyph
><glyph unicode=";" horiz-adv-x="690" d="M180 254H391L356 82L131 -238H2L145 82l35 172ZM336 1059H547L498 805H287l49 254Z"
></glyph
><glyph unicode="&lt;" horiz-adv-x="1716" d="M1499 1008L467 641L1499 276V94L217 559V725l1282 465V1008Z"
></glyph
><glyph unicode="=" horiz-adv-x="1716" d="M217 930H1499V762H217V930ZM217 522H1499V352H217V522Z"
></glyph
><glyph unicode="&gt;" horiz-adv-x="1716" d="M217 1008v182L1499 725V559L217 94V276L1247 641L217 1008Z"
></glyph
><glyph unicode="?" horiz-adv-x="1087" d="M510 254L461 0H258l49 254H510ZM289 1407q102 57 203.5 85T700 1520q161 0 254 -75t93 -204q0 -103 -53.5 -193T819 860L715 776Q631 710 603 663T557 524L532 401H342l31 154q18 94 57 159.5T580 872l106 89q84 70 118 123t34 110q0 76 -54.5 119T633 1356q-80 0 -178.5 -35.5T252 1219l37 188Z"
></glyph
><glyph unicode="@" horiz-adv-x="2048" d="M1253 238Q1184 164 1103.5 126T936 88Q789 88 692.5 187T596 438q0 220 148.5 384.5T1092 987q92 0 164.5 -40T1368 836l27 131h143L1395 229q177 28 291 180t114 361q0 233 -165 380.5T1208 1298q-178 0 -344 -62.5T571 1059Q426 925 345 749T264 389Q264 128 438.5 -42.5T883 -213q129 0 254 43.5T1399 -33l82 -114Q1346 -249 1189.5 -301.5T868 -354q-322 0 -535.5 214T119 401q0 225 104.5 435.5T516 1200q139 114 319 177t369 63q321 0 531.5 -189T1946 778q0 -295 -203.5 -491.5T1223 84l30 154ZM1094 846Q953 846 854.5 734.5T756 467q0 -112 57 -175T971 229q142 0 238 114t96 280q0 102 -57.5 162.5T1094 846Z"
></glyph
><glyph unicode="A" horiz-adv-x="1401" d="M754 1493H983L1260 0H1049L987 383H315L104 0H-109L754 1493ZM827 1294L408 551H956L827 1294Z"
></glyph
><glyph unicode="B" horiz-adv-x="1405" d="M346 1493H862q210 0 314 -78t104 -235q0 -144 -89.5 -248.5T956 805q124 -28 186 -107t62 -211q0 -225 -166.5 -356T582 0H55L346 1493ZM395 713L289 166H614q183 0 282 84t99 237q0 118 -65.5 172T719 713H395ZM514 1327L426 877H727q161 0 251.5 70t90.5 194q0 97 -61 141.5T813 1327H514Z"
></glyph
><glyph unicode="C" horiz-adv-x="1430" d="M1423 1378l-41 -213q-96 97 -203.5 144T946 1356q-171 0 -300.5 -82T422 1024Q362 916 330.5 795.5T299 553Q299 349 404.5 242T711 135q139 0 267 44.5T1227 313L1180 74Q1061 23 939.5 -3T696 -29Q409 -29 247.5 127T86 561q0 178 61.5 350T324 1225q122 151 278.5 223T967 1520q128 0 242.5 -35.5T1423 1378Z"
></glyph
><glyph unicode="D" horiz-adv-x="1577" d="M346 1493H780q346 0 522.5 -146.5T1479 911q0 -191 -67 -367.5T1227 246Q1108 122 925 61T492 0H55L346 1493ZM516 1327L291 166H555q339 0 525 195t186 550q0 215 -120 315.5T770 1327H516Z"
></glyph
><glyph unicode="E" horiz-adv-x="1294" d="M346 1493h944l-33 -170H514L428 881h713L1108 711H395L291 170h760L1018 0H55L346 1493Z"
></glyph
><glyph unicode="F" horiz-adv-x="1178" d="M346 1493h856l-33 -170H514L428 883h592L987 713H395L256 0H55L346 1493Z"
></glyph
><glyph unicode="G" horiz-adv-x="1587" d="M1118 223l78 391H864l31 166h530L1296 123Q1163 50 1006 10.5T690 -29Q409 -29 250.5 127T92 561q0 231 96.5 439.5T455 1348q107 87 234 129.5T971 1520q140 0 268.5 -35.5T1485 1378l-41 -215q-90 94 -211 143.5T975 1356q-159 0 -280 -60.5T479 1108Q398 1000 351.5 853.5T305 555Q305 346 412 240.5T731 135q106 0 205 22.5T1118 223Z"
></glyph
><glyph unicode="H" horiz-adv-x="1540" d="M346 1493H549L430 881h733l119 612h203L1194 0H991l139 711H397L258 0H55L346 1493Z"
></glyph
><glyph unicode="I" horiz-adv-x="604" d="M346 1493H549L258 0H55L346 1493Z"
></glyph
><glyph unicode="J" horiz-adv-x="604" d="M342 1493H545L274 104Q221 -167 95.5 -288.5T-256 -410h-80l33 170h63q135 0 205 77T72 104L342 1493Z"
></glyph
><glyph unicode="K" horiz-adv-x="1343" d="M346 1493H549L426 864l784 629h269L592 780L1241 0H995L399 727L258 0H55L346 1493Z"
></glyph
><glyph unicode="L" horiz-adv-x="1141" d="M344 1493H547L291 168h727L985 0H55L344 1493Z"
></glyph
><glyph unicode="M" horiz-adv-x="1767" d="M346 1493H649L823 487l578 1006h311L1421 0H1225l254 1309L893 287H696L506 1313L252 0H55L346 1493Z"
></glyph
><glyph unicode="N" horiz-adv-x="1532" d="M346 1493H618L1030 213l250 1280h197L1186 0H913L502 1288L252 0H55L346 1493Z"
></glyph
><glyph unicode="O" horiz-adv-x="1612" d="M934 1356q-166 0 -293 -80.5T420 1030Q360 925 328.5 807T297 569q0 -208 99.5 -321T678 135q164 0 292.5 81.5T1190 459q61 108 93 226.5T1315 922q0 207 -100 320.5T934 1356ZM672 -29Q397 -29 239.5 134T82 580q0 162 61.5 331T313 1212q127 155 283 231.5T940 1520q274 0 432 -161.5T1530 918q0 -172 -60 -338T1298 279Q1170 123 1015.5 47T672 -29Z"
></glyph
><glyph unicode="P" horiz-adv-x="1235" d="M346 1493H813q204 0 311 -95t107 -278q0 -246 -158 -383T629 600H375L258 0H55L346 1493ZM516 1327L408 766H662q172 0 264 88t92 252q0 105 -62.5 163T780 1327H516Z"
></glyph
><glyph unicode="Q" horiz-adv-x="1612" d="M739 -27q-11 -1 -23 -1.5T680 -29Q400 -29 242 131.5T84 575q0 167 60.5 335T313 1212q125 154 281.5 231T940 1520q274 0 432 -161.5T1530 918q0 -301 -165 -551T934 14l203 -278H911L739 -27ZM934 1356q-166 0 -293 -80.5T420 1030Q360 925 328.5 807T297 569q0 -208 99.5 -321T678 135q164 0 292.5 81.5T1190 459q61 108 93 226.5T1315 922q0 207 -100 320.5T934 1356Z"
></glyph
><glyph unicode="R" horiz-adv-x="1423" d="M516 1327L414 797H674q153 0 247.5 84.5T1016 1102q0 109 -63.5 167T770 1327H516ZM887 717q64 -15 106.5 -74T1092 408L1219 0H1006L889 383Q844 531 785 581T604 631H381L258 0H55L346 1493H801q207 0 317.5 -93.5T1229 1130q0 -156 -94 -270T887 717Z"
></glyph
><glyph unicode="S" horiz-adv-x="1300" d="M1235 1444l-39 -197q-101 54 -200.5 81.5T803 1356q-181 0 -288 -79T408 1067q0 -72 39.5 -110.5T651 874L772 844Q977 791 1057 709.5T1137 481Q1137 255 959.5 113T492 -29Q373 -29 253 -5.5T12 66L53 274Q164 205 275.5 170T498 135q189 0 303 84T915 438q0 90 -45.5 136.5T674 659L553 690Q346 744 270.5 814.5T195 1012q0 223 171.5 365.5T813 1520q107 0 212 -19t210 -57Z"
></glyph
><glyph unicode="T" horiz-adv-x="1251" d="M121 1493H1384l-32 -170H819L563 0H360L616 1323H88l33 170Z"
></glyph
><glyph unicode="U" horiz-adv-x="1499" d="M317 1493H520L344 586Q333 525 328.5 485.5T324 416q0 -138 77 -209.5T627 135q193 0 300.5 106T1081 586l176 907h203L1280 561Q1221 259 1056 115T604 -29Q380 -29 249.5 83.5T119 389q0 35 5 78.5T139 561l178 932Z"
></glyph
><glyph unicode="V" horiz-adv-x="1401" d="M422 0L160 1493H358L575 209l725 1284h220L657 0H422Z"
></glyph
><glyph unicode="W" horiz-adv-x="2025" d="M197 1493H393L465 223l563 1270h225L1327 223l557 1270h205L1425 0H1171l-69 1245L543 0H289L197 1493Z"
></glyph
><glyph unicode="X" horiz-adv-x="1403" d="M281 1493H485L741 954l463 539h236L825 780L1196 0H993L692 629L147 0H-88L610 803L281 1493Z"
></glyph
><glyph unicode="Y" horiz-adv-x="1251" d="M129 1493H346L625 879l532 614h227L707 711L569 0H367L504 711L129 1493Z"
></glyph
><glyph unicode="Z" horiz-adv-x="1403" d="M268 1493H1440l-29 -154L254 170h952L1174 0H-45l29 154L1141 1323H236l32 170Z"
></glyph
><glyph unicode="[" horiz-adv-x="799" d="M436 1556H860L831 1413H592L293 -127H532L506 -270H82L436 1556Z"
></glyph
><glyph unicode="\" horiz-adv-x="690" d="M344 1493L537 -190H369L174 1493H344Z"
></glyph
><glyph unicode="]" horiz-adv-x="799" d="M700 1556L346 -270H-78l27 143H188L487 1413H250l26 143H700Z"
></glyph
><glyph unicode="^" horiz-adv-x="1716" d="M956 1493L1499 936H1298L858 1331L418 936H217l543 557H956Z"
></glyph
><glyph unicode="_" horiz-adv-x="1024" d="M1044 -340V-483H-20v143H1044Z"
></glyph
><glyph unicode="`" horiz-adv-x="1024" d="M586 1638L795 1264H641L389 1638H586Z"
></glyph
><glyph unicode="a" horiz-adv-x="1255" d="M1100 639L975 0H791l34 170Q744 70 640.5 20.5T410 -29Q267 -29 175.5 58.5T84 283q0 196 156.5 310T672 707H928l10 49q2 8 3 17.5t1 29.5q0 89 -72.5 138.5T666 991q-90 0 -184.5 -23T287 899l32 170q104 39 203.5 58.5T715 1147q198 0 301.5 -86T1120 811q0 -33 -5 -77.5T1100 639ZM901 563H717Q491 563 382.5 502.5T274 315q0 -88 55.5 -138T483 127q150 0 262 107.5T893 522l8 41Z"
></glyph
><glyph unicode="b" horiz-adv-x="1300" d="M1014 684q0 145 -66.5 227T764 993q-85 0 -159.5 -41.5T475 831Q417 748 383.5 638.5T350 420q0 -138 65.5 -216.5T596 125q87 0 161 40.5T887 285q57 82 92 191t35 208ZM442 950q68 92 170.5 144.5T827 1147q172 0 273.5 -116T1202 717q0 -162 -59.5 -314T973 133Q901 55 807 13T610 -29Q501 -29 421 21T291 170L258 0H74L377 1556H561L442 950Z"
></glyph
><glyph unicode="c" horiz-adv-x="1126" d="M1098 1077L1061 895q-66 48 -140.5 72T766 991q-88 0 -167.5 -31T465 872Q379 785 332 668T285 426q0 -151 75.5 -225T590 127q76 0 161.5 23T930 219L895 37Q815 4 730.5 -12.5T557 -29Q334 -29 214 82.5T94 401q0 174 62.5 320.5T342 985q84 80 197 121t247 41q78 0 155 -17.5T1098 1077Z"
></glyph
><glyph unicode="d" horiz-adv-x="1300" d="M856 168Q782 71 681 21T457 -29Q289 -29 191.5 85.5T94 399q0 166 59 316.5T324 985q74 79 167 120.5T686 1147q108 0 190.5 -52T1004 946l120 610h185L1006 0H821l35 168ZM285 432q0 -145 65.5 -226T532 125q86 0 159.5 41.5T821 289q59 84 93 194t34 217q0 139 -65.5 217T702 995q-87 0 -162 -41T412 836Q354 753 319.5 643T285 432Z"
></glyph
><glyph unicode="e" horiz-adv-x="1260" d="M985 660q3 16 4.5 33t1.5 34q0 122 -71.5 193T725 991Q588 991 483 904.5T324 659l661 1ZM1145 516H289q-6 -38 -8 -60t-2 -38q0 -139 85.5 -215T606 127q120 0 227 27t199 79L997 51Q898 11 792.5 -9T578 -29Q345 -29 219.5 82.5T94 399q0 175 62.5 325.5T340 993q78 74 185.5 114T754 1147q190 0 302.5 -114T1169 727q0 -46 -6 -98.5T1145 516Z"
></glyph
><glyph unicode="f" horiz-adv-x="721" d="M979 1556L950 1403H774q-100 0 -145.5 -39.5T561 1219l-20 -99H844L817 977H514L324 0H139L330 977H154l26 143H356l15 78q38 198 133.5 278T805 1556H979Z"
></glyph
><glyph unicode="g" horiz-adv-x="1300" d="M1221 1120L1030 139Q975 -146 819.5 -286T401 -426q-97 0 -180 14.5T66 -367l34 179q68 -44 144 -65t162 -21q175 0 287.5 95.5T842 96l16 84Q781 92 679 46T459 0Q289 0 191.5 112.5T94 422q0 155 59 303.5T319 989q71 76 165.5 117T682 1147q113 0 197 -52.5T1004 946l32 174h185ZM944 709q0 136 -64 210T698 993q-73 0 -139 -29T446 883Q370 797 327.5 680.5T285 440q0 -138 64.5 -212T535 154q175 0 292 158.5T944 709Z"
></glyph
><glyph unicode="h" horiz-adv-x="1298" d="M1141 676L1010 0H825L956 669q9 47 14 83t5 57q0 84 -53 131T774 987Q626 987 517.5 887T377 621L256 0H72L375 1556H559L440 944q70 94 179 148.5T848 1147q148 0 229.5 -80T1159 842q0 -36 -4.5 -77T1141 676Z"
></glyph
><glyph unicode="i" horiz-adv-x="569" d="M375 1556H559L514 1323H330l45 233ZM291 1120H475L256 0H72L291 1120Z"
></glyph
><glyph unicode="j" horiz-adv-x="569" d="M297 1120H481L260 -20l-1 -5Q222 -216 174 -287Q129 -354 42.5 -390T-162 -426h-69l30 156h47q108 0 153.5 45T76 -20L297 1120ZM383 1556H567L522 1323H338l45 233Z"
></glyph
><glyph unicode="k" horiz-adv-x="1186" d="M375 1556H559L383 649l631 471h239L549 584L1063 0H840L362 547L256 0H72L375 1556Z"
></glyph
><glyph unicode="l" horiz-adv-x="569" d="M375 1556H559L256 0H72L375 1556Z"
></glyph
><glyph unicode="m" horiz-adv-x="1995" d="M1839 676L1708 0H1524l129 670q8 43 12 74t4 53q0 90 -50 140t-140 50q-134 0 -239 -100.5T1104 625L981 0H797L928 670q8 37 12 68.5t4 56.5q0 91 -50 141.5T756 987Q620 987 515 886.5T379 625L256 0H72L291 1120H475L440 946q75 98 175.5 149.5T831 1147q122 0 200.5 -64T1126 905q84 118 194.5 180t233.5 62q144 0 222.5 -83T1855 829q0 -33 -4 -72.5T1839 676Z"
></glyph
><glyph unicode="n" horiz-adv-x="1298" d="M1141 676L1010 0H825L956 669q9 47 14 83t5 57q0 84 -53 131T774 987Q626 987 519 888.5T379 621L256 0H72L289 1120H473L436 944q77 97 185 150t227 53q148 0 229.5 -80T1159 842q0 -36 -4.5 -77T1141 676Z"
></glyph
><glyph unicode="o" horiz-adv-x="1253" d="M520 -29Q323 -29 208.5 92.5T94 424q0 122 39.5 248.5T236 885q99 134 221 198t276 64q191 0 308.5 -119T1159 717q0 -133 -39 -265T1018 233Q920 99 798 35T520 -29ZM285 430q0 -152 63.5 -227.5T541 127q185 0 306.5 161.5T969 698q0 145 -65 219T713 991Q609 991 528 942.5T383 795Q336 721 310.5 626T285 430Z"
></glyph
><glyph unicode="p" horiz-adv-x="1300" d="M1016 690q0 147 -64 225T768 993q-82 0 -156.5 -42T479 829Q422 750 388 638T354 416q0 -140 64 -215.5T600 125q87 0 161.5 41T889 285q57 82 92 193t35 212ZM446 950q74 97 174.5 147T844 1147q172 0 267 -112.5T1206 719q0 -166 -59 -316.5T977 133Q903 54 810 12.5T614 -29Q495 -29 414 20.5T293 168L178 -426H-6L295 1120H479L446 950Z"
></glyph
><glyph unicode="q" horiz-adv-x="1300" d="M854 168Q780 71 679.5 21T457 -29Q287 -29 190.5 85.5T94 401q0 162 59.5 313T324 985q72 78 165.5 120T686 1147q124 0 204 -49T1006 950l32 168h185L924 -422H739L854 168ZM285 428q0 -148 62 -225.5T526 125q174 0 297 166.5T946 696q0 144 -63.5 220.5T700 993q-87 0 -161 -40.5T410 834Q352 752 318.5 642T285 428Z"
></glyph
><glyph unicode="r" horiz-adv-x="842" d="M913 950q-28 15 -64 23t-77 8Q625 981 515 869.5T369 571L256 0H72L291 1120H475L440 946q73 97 174.5 149T831 1147q30 0 59 -3.5T948 1132L913 950Z"
></glyph
><glyph unicode="s" horiz-adv-x="1067" d="M1024 1087L989 913q-73 40 -154 60T668 993Q523 993 439.5 943.5T356 809q0 -99 194 -152q15 -4 22 -6l59 -18Q815 582 876.5 526T938 373Q938 195 796.5 83T426 -29q-89 0 -187 17T23 41L59 231Q160 179 258 152T446 125q135 0 219.5 58T750 330q0 96 -222 155l-19 5l-63 16Q306 543 241 603.5T176 758q0 179 134.5 284T676 1147q91 0 177.5 -15T1024 1087Z"
></glyph
><glyph unicode="t" horiz-adv-x="803" d="M866 1120L838 977H471L352 369q-6 -34 -9 -57t-3 -36q0 -64 38.5 -93T502 154H688L657 0H481Q317 0 236.5 64T156 258q0 23 3 50.5t9 60.5L287 977H131l29 143H313l62 318H559L498 1120H866Z"
></glyph
><glyph unicode="u" horiz-adv-x="1298" d="M137 444l131 676H453L322 451Q312 402 307.5 367T303 309q0 -85 52 -131.5T502 131q148 0 256 100T899 500l123 620h184L989 0H805l37 176Q764 78 656.5 24.5T428 -29Q281 -29 199 51.5T117 276q0 30 5 75t15 93Z"
></glyph
><glyph unicode="v" horiz-adv-x="1212" d="M147 1120H342L506 168l536 952h195L600 0H352L147 1120Z"
></glyph
><glyph unicode="w" horiz-adv-x="1675" d="M174 1120H356L403 219l418 901h213l62 -901l397 901h184L1165 0H950L895 928L467 0H250L174 1120Z"
></glyph
><glyph unicode="x" horiz-adv-x="1212" d="M1229 1120L715 571L1030 0H819L582 444L170 0H-53L498 590L205 1120H416L631 715l375 405h223Z"
></glyph
><glyph unicode="y" horiz-adv-x="1212" d="M508 -104Q380 -319 299.5 -372.5T94 -426H-51l31 154H86q77 0 131 42T338 -66L395 41L147 1120H342L528 262l514 858h193L508 -104Z"
></glyph
><glyph unicode="z" horiz-adv-x="1075" d="M238 1120h874L1079 952L236 147H932L903 0H-6L27 168L870 973H209l29 147Z"
></glyph
><glyph unicode="{" d="M1239 1556l-29 -143h-77q-136 0 -183 -39.5T872 1184L821 932Q789 772 728.5 699.5T557 606q73 -18 113.5 -69.5T711 410q0 -24 -4 -57T696 282L649 38Q644 7 641.5 -19.5T639 -70q0 -63 42.5 -91.5T821 -190h78L870 -334H799q-188 0 -269 54.5T449 -102q0 32 3.5 66T463 35l45 235q0 3 2 12q10 50 10 95q0 85 -49 122.5T309 537H248l28 147h62q144 0 207.5 54.5T641 944l47 244q26 123 61.5 194.5T840 1493q46 34 115 48.5t202 14.5h82Z"
></glyph
><glyph unicode="|" horiz-adv-x="690" d="M430 1565V-483H260V1565H430Z"
></glyph
><glyph unicode="}" d="M14 -334l29 144h78q136 0 183 39.5T381 39l51 252q33 160 93 232.5T696 616q-73 19 -113 70T543 813q0 25 3.5 57T557 940l47 243q6 34 8 59t2 50q0 64 -42.5 92.5T432 1413H354l27 143h74q187 0 268.5 -54T805 1325q0 -31 -3.5 -65T790 1187L745 952q0 -3 -2 -12Q733 891 733 846q0 -86 49 -123T944 686h62L977 539H915Q771 539 708 484T616 279L563 35Q537 -91 502 -161.5T414 -270q-47 -34 -116 -49T96 -334H14Z"
></glyph
><glyph unicode="~" horiz-adv-x="1716" d="M1499 817V639Q1394 560 1304.5 526T1118 492q-110 0 -256 59q-11 4 -16 6q-7 3 -22 8Q669 627 575 627q-88 0 -174 -38.5T217 467V645q105 79 194.5 113.5T598 793q110 0 257 -60q10 -4 15 -6q8 -3 22 -8q155 -62 249 -62q86 0 170.5 38T1499 817Z"
></glyph
><glyph unicode="&#xa0;" d=""
></glyph
><glyph unicode="&#xa1;" horiz-adv-x="821" d="M377 0H174L301 655l90 357H553L504 655L377 0ZM616 1239H414l49 254H668L616 1239Z"
></glyph
><glyph unicode="&#xa2;" d="M758 985Q580 962 460 801.5T340 426q0 -134 61 -207.5T590 125L758 985ZM889 1145q73 -7 137.5 -23.5T1153 1077L1118 895q-47 37 -109 59.5T858 989L690 127q66 5 140 27.5T987 219L952 37Q887 9 814 -7.5T664 -29L604 -313H504l59 284Q366 -16 259 95.5T152 401q0 306 177 513.5T788 1145l56 285H944L889 1145Z"
></glyph
><glyph unicode="&#xa3;" d="M1305 1460l-35 -182q-61 40 -126.5 61T1014 1360q-147 0 -221 -79.5T678 993L637 778h391L999 635H608L518 170h537L1022 0H49L82 170H317l91 465H209l29 143H436l45 238q52 262 182.5 383T1026 1520q70 0 140 -15t139 -45Z"
></glyph
><glyph unicode="&#xa4;" d="M891 993l207 209l114 -115L1006 881q37 -59 55 -118.5T1079 641q0 -63 -19 -120.5T1001 406L1210 199L1096 86L889 293Q830 253 772 234T653 215q-58 0 -118 18.5T414 289L207 82L94 197L301 403q-37 62 -55.5 121T227 641q0 64 19 122t57 114L96 1083l115 115L418 991q55 39 113 57.5T653 1067q60 0 118.5 -18T891 993ZM922 643q0 112 -77.5 189T653 909Q541 909 462 832T383 643q0 -114 78.5 -192T653 373q113 0 191 78.5T922 643Z"
></glyph
><glyph unicode="&#xa5;" d="M1122 455H711L623 0H420l88 455H92l23 123H532l11 51L489 784H156l24 123H446L242 1493H432L672 793l512 700h194L948 907h262L1186 784H858L745 629L735 578h410L1122 455Z"
></glyph
><glyph unicode="&#xa6;" horiz-adv-x="690" d="M430 408V-350H260V408H430ZM430 1432V674H260v758H430Z"
></glyph
><glyph unicode="&#xa7;" horiz-adv-x="1024" d="M602 410q82 49 125 104.5T770 627q0 54 -53.5 110.5T520 885l-80 51Q359 885 316.5 829T274 717q0 -50 42.5 -98.5T485 487L602 410ZM993 1462L961 1298q-72 39 -140.5 58.5T694 1376q-103 0 -169 -48.5T459 1206q0 -79 135 -169q30 -20 47 -31l88 -60Q851 861 893.5 802.5T936 674Q936 573 870 483T690 340q41 -35 61.5 -80T772 160Q772 3 650.5 -96T330 -195q-69 0 -146 14.5T25 -137L57 27q76 -38 148 -58T336 -51q112 0 179 47.5T582 123q0 98 -180 219l-15 10l-76 51Q188 487 147 543.5T106 674q0 96 64 182.5T352 1006q-43 38 -62.5 78.5T270 1176q0 147 121.5 245.5T700 1520q71 0 143.5 -14.5T993 1462Z"
></glyph
><glyph unicode="&#xa8;" horiz-adv-x="1024" d="M416 1552H621L580 1350H377l39 202ZM807 1552h203L971 1350H768l39 202Z"
></glyph
><glyph unicode="&#xa9;" horiz-adv-x="2048" d="M1024 1485q152 0 283.5 -55T1548 1266q109 -109 163 -240t54 -285q0 -152 -54 -282.5T1548 219Q1439 110 1307.5 55T1024 0Q872 0 740.5 55T500 219Q391 328 337 458.5T283 741q0 154 54 285t163 240q109 109 240.5 164t283.5 55ZM1024 1382q-131 0 -244 -47T573 1194Q479 1100 431 985.5T383 741q0 -129 48 -242.5T573 291Q667 197 780 149.5T1024 102q132 0 245.5 47.5T1477 291q93 93 139.5 206T1663 741q0 133 -47 246.5T1477 1194q-94 94 -207.5 141T1024 1382ZM1323 1137V1008q-66 33 -131 49t-131 16q-149 0 -232.5 -87.5T745 741q0 -159 85.5 -246T1071 408q64 0 125 15.5T1323 473V346q-67 -29 -135.5 -43T1049 289Q833 289 707.5 411T582 741q0 209 125.5 330T1049 1192q73 0 141 -14t133 -41Z"
></glyph
><glyph unicode="&#xaa;" horiz-adv-x="965" d="M594 1104q-157 0 -228 -37.5T295 946q0 -59 38 -94T436 817q115 0 193.5 67.5T735 1075l6 29H594ZM903 1165L815 717H666l22 112Q630 764 553.5 731T381 698q-107 0 -172.5 61T143 920q0 140 115.5 219.5T582 1219H764v4q2 19 3 29.5t1 17.5q0 70 -46.5 102.5T575 1405q-70 0 -142.5 -17T287 1337l24 127q79 28 155 42t144 14q150 0 226.5 -62T913 1276q0 -27 -2.5 -54.5T903 1165ZM104 592H793L770 469H82l22 123Z"
></glyph
><glyph unicode="&#xab;" horiz-adv-x="1264" d="M692 1059L653 858L299 588L551 322L514 141L127 559l16 82l549 418ZM1137 1059L1098 858L743 588L995 322L958 141L571 559l17 82l549 418Z"
></glyph
><glyph unicode="&#xac;" horiz-adv-x="1716" d="M217 862H1499V287H1331V692H217V862Z"
></glyph
><glyph unicode="&#xad;" horiz-adv-x="739" d="M125 643H664L633 479H92l33 164Z"
></glyph
><glyph unicode="&#xae;" horiz-adv-x="2048" d="M1024 1382q-131 0 -244 -47T573 1194Q479 1100 431 985.5T383 741q0 -129 48 -242.5T573 291Q667 197 780 149.5T1024 102q132 0 245.5 47.5T1477 291q93 93 139.5 206T1663 741q0 133 -47 246.5T1477 1194q-94 94 -207.5 141T1024 1382ZM1024 1485q152 0 283.5 -55T1548 1266q109 -109 163 -240t54 -285q0 -152 -54 -282.5T1548 219Q1439 110 1307.5 55T1024 0Q872 0 740.5 55T500 219Q391 328 337 458.5T283 741q0 154 54 285t163 240q109 109 240.5 164t283.5 55ZM997 1071H874V795H997q110 0 153.5 31T1194 932q0 76 -44 107.5T997 1071ZM1004 1174q176 0 263 -59.5T1354 934q0 -86 -52.5 -142T1153 719q24 -8 57.5 -46.5T1290 561L1427 338H1255L1126 547q-59 96 -95.5 121.5T940 694H874V338H719v836h285Z"
></glyph
><glyph unicode="&#xaf;" horiz-adv-x="1024" d="M410 1526h598L979 1378H381l29 148Z"
></glyph
><glyph unicode="&#xb0;" horiz-adv-x="1024" d="M512 1391q-80 0 -135 -55.5T322 1200q0 -79 55 -133.5T512 1012q80 0 135 54.5T702 1200q0 79 -55.5 135T512 1391ZM512 1520q64 0 123 -24.5T737 1425q46 -45 69 -102t23 -123q0 -132 -92.5 -223.5T510 885q-135 0 -225 90t-90 225q0 134 92 227t225 93Z"
></glyph
><glyph unicode="&#xb1;" horiz-adv-x="1716" d="M942 1284V897h557V727H942V340H774V727H217V897H774v387H942ZM217 170H1499V0H217V170Z"
></glyph
><glyph unicode="&#xb2;" horiz-adv-x="821" d="M659 1090L274 782H715L692 668H74L96 778l422 340q59 46 88 89t29 83q0 54 -42 87.5T481 1411q-55 0 -121 -17T211 1341l25 123q76 28 144 42t132 14q123 0 199.5 -57T788 1317q0 -62 -32 -118.5T659 1090Z"
></glyph
><glyph unicode="&#xb3;" horiz-adv-x="821" d="M215 1485q83 18 146 26.5t118 8.5q125 0 200 -52.5T754 1329q0 -77 -57 -134T543 1120q75 -16 115 -63T698 938Q698 811 586.5 732T291 653q-64 0 -129 10.5T33 694L57 815q53 -27 109 -40T285 762q123 0 192.5 46T547 936q0 62 -48.5 93.5T352 1061H266l23 108h92q102 0 159.5 36T598 1305q0 53 -41 79.5T434 1411q-56 0 -118 -10.5T193 1370l22 115Z"
></glyph
><glyph unicode="&#xb4;" horiz-adv-x="1024" d="M870 1638h199L670 1262H516l354 376Z"
></glyph
><glyph unicode="&#xb5;" d="M-27 -426L274 1120H459L323 423q-4 -21 -7 -47t-3 -52q0 -93 58.5 -143T539 131q148 0 239 84T901 467l127 653h184L1045 259q-4 -19 -5.5 -33T1038 201q0 -31 12.5 -45.5T1090 141q10 0 27.5 5t49.5 18L1139 16q-44 -22 -84 -33.5T977 -29q-66 0 -103.5 42T836 129Q780 49 702.5 10T520 -29q-93 0 -162.5 43T266 127L158 -426H-27Z"
></glyph
><glyph unicode="&#xb6;" d="M768 1493h406L846 -197H707l305 1567H821L516 -197H375L539 649Q361 655 260.5 749T160 1001q0 211 172 351.5T768 1493Z"
></glyph
><glyph unicode="&#xb7;" horiz-adv-x="651" d="M283 838H494L444 584H233l50 254Z"
></glyph
><glyph unicode="&#xb8;" horiz-adv-x="1024" d="M477 0q36 -51 53 -94.5T547 -180q0 -100 -73.5 -157.5T272 -395q-43 0 -86 6t-86 18l23 131q39 -16 78.5 -24t81.5 -8q60 0 95.5 30.5T414 -158q0 29 -12.5 65T358 0H477Z"
></glyph
><glyph unicode="&#xb9;" horiz-adv-x="821" d="M156 778H360l119 611L250 1348l22 116l230 39H647L506 778H711L688 668H135l21 110Z"
></glyph
><glyph unicode="&#xba;" horiz-adv-x="965" d="M788 1180q0 110 -49.5 167.5T592 1405q-116 0 -200.5 -107T307 1040q0 -109 49.5 -168T498 813q122 0 206 105.5T788 1180ZM621 1520q148 0 236.5 -86T946 1204Q946 984 813 841T477 698q-150 0 -237.5 90T152 1032q0 68 19 134.5T227 1296q62 106 166 165t228 59ZM104 592H793L770 469H82l22 123Z"
></glyph
><glyph unicode="&#xbb;" horiz-adv-x="1264" d="M569 141l39 201L963 612L711 879l39 180L1135 641l-15 -82L569 141ZM127 141l39 201L518 612L268 879l37 180L690 641L676 559L127 141Z"
></glyph
><glyph unicode="&#xbc;" horiz-adv-x="1985" d="M156 778H360l119 611L250 1348l22 116l230 39H647L506 778H711L688 668H135l21 110ZM1519 1520h179L465 -29H284L1519 1520ZM1765 710L1372 295h311l82 415ZM1765 835h166L1825 295h137L1941 186H1804L1767 0H1626l37 186H1247l25 131l493 518Z"
></glyph
><glyph unicode="&#xbd;" horiz-adv-x="1985" d="M156 778H360l119 611L250 1348l22 116l230 39H647L506 778H711L688 668H135l21 110ZM1519 1520h179L465 -29H284L1519 1520ZM1822 422L1437 114h441L1855 0H1237l22 110l422 340q59 46 88 89t29 83q0 54 -42 87.5T1644 743q-55 0 -121 -17T1374 673l25 123q76 28 144 42t132 14q123 0 199.5 -57T1951 649q0 -62 -32 -118.5T1822 422Z"
></glyph
><glyph unicode="&#xbe;" horiz-adv-x="1985" d="M215 1485q83 18 146 26.5t118 8.5q125 0 200 -52.5T754 1329q0 -77 -57 -134T543 1120q75 -16 115 -63T698 938Q698 811 586.5 732T291 653q-64 0 -129 10.5T33 694L57 815q53 -27 109 -40T285 762q123 0 192.5 46T547 936q0 62 -48.5 93.5T352 1061H266l23 108h92q102 0 159.5 36T598 1305q0 53 -41 79.5T434 1411q-56 0 -118 -10.5T193 1370l22 115ZM1519 1520h179L465 -29H284L1519 1520ZM1765 710L1372 295h311l82 415ZM1765 835h166L1825 295h137L1941 186H1804L1767 0H1626l37 186H1247l25 131l493 518Z"
></glyph
><glyph unicode="&#xbf;" horiz-adv-x="1087" d="M612 1239l50 254H864L815 1239H612ZM834 86Q731 29 630 1T422 -27Q261 -27 168.5 48T76 252q0 103 53.5 193T303 633l103 84q85 68 113.5 115T565 969l25 123H780L750 938Q731 844 692 778.5T543 621L436 532Q352 462 318.5 409T285 299q0 -76 54.5 -119T489 137q81 0 179 35.5T870 274L834 86Z"
></glyph
><glyph unicode="&#xc0;" horiz-adv-x="1401" d="M754 1493H983L1260 0H1049L987 383H315L104 0H-109L754 1493ZM827 1294L408 551H956L827 1294ZM864 1899l148 -264H872L682 1899H864Z"
></glyph
><glyph unicode="&#xc1;" horiz-adv-x="1401" d="M754 1493H983L1260 0H1049L987 383H315L104 0H-109L754 1493ZM827 1294L408 551H956L827 1294ZM991 1899h207L891 1635H733l258 264Z"
></glyph
><glyph unicode="&#xc2;" horiz-adv-x="1401" d="M754 1493H983L1260 0H1049L987 383H315L104 0H-109L754 1493ZM827 1294L408 551H956L827 1294ZM817 1901h215l158 -266H1055L915 1813L706 1635H555l262 266Z"
></glyph
><glyph unicode="&#xc3;" horiz-adv-x="1401" d="M754 1493H983L1260 0H1049L987 383H315L104 0H-109L754 1493ZM827 1294L408 551H956L827 1294ZM897 1710l-35 25l-1 1q-43 32 -81 32q-34 0 -61 -25.5T674 1667H549q35 109 96.5 164T792 1886q35 0 65.5 -11T924 1839l32 -26q18 -14 37 -20.5t39 -6.5q39 0 67.5 27t39.5 73h125q-33 -109 -95.5 -164T1014 1667q-31 0 -58.5 10.5T897 1710Z"
></glyph
><glyph unicode="&#xc4;" horiz-adv-x="1401" d="M754 1493H983L1260 0H1049L987 383H315L104 0H-109L754 1493ZM827 1294L408 551H956L827 1294ZM623 1870H827L786 1667H584l39 203ZM1014 1870h202l-38 -203H975l39 203Z"
></glyph
><glyph unicode="&#xc5;" horiz-adv-x="1401" d="M1020 1626q0 63 -44.5 107.5T868 1778q-64 0 -107.5 -43.5T717 1626q0 -63 43.5 -107T868 1475q63 0 107.5 44t44.5 107ZM705 1407q-54 37 -82.5 93.5T594 1626q0 114 80 194.5T868 1901q114 0 194.5 -80.5T1143 1626q0 -79 -36.5 -140T1001 1389L1260 0H1049L987 383H315L104 0H-109L705 1407ZM827 1294L408 551H956L827 1294Z"
></glyph
><glyph unicode="&#xc6;" horiz-adv-x="1995" d="M932 1335L449 551H907l154 784H932ZM2036 1493l-33 -170H1262L1174 881h712L1853 711H1141L1036 170h760L1763 0H801l73 383H348L113 0H-92L823 1493H2036Z"
></glyph
><glyph unicode="&#xc7;" horiz-adv-x="1430" d="M1423 1378l-41 -213q-96 97 -203.5 144T946 1356q-171 0 -300.5 -82T422 1024Q362 916 330.5 795.5T299 553Q299 349 404.5 242T711 135q139 0 267 44.5T1227 313L1180 74Q1061 23 939.5 -3T696 -29Q409 -29 247.5 127T86 561q0 178 61.5 350T324 1225q122 151 278.5 223T967 1520q128 0 242.5 -35.5T1423 1378ZM747 0q36 -51 53 -94.5T817 -180q0 -100 -73.5 -157.5T542 -395q-43 0 -86 6t-86 18l23 131q39 -16 78.5 -24t81.5 -8q60 0 95.5 30.5T684 -158q0 29 -12.5 65T628 0H747Z"
></glyph
><glyph unicode="&#xc8;" horiz-adv-x="1294" d="M346 1493h944l-33 -170H514L428 881h713L1108 711H395L291 170h760L1018 0H55L346 1493ZM807 1899L955 1635H815L625 1899H807Z"
></glyph
><glyph unicode="&#xc9;" horiz-adv-x="1294" d="M346 1493h944l-33 -170H514L428 881h713L1108 711H395L291 170h760L1018 0H55L346 1493ZM934 1899h207L834 1635H676l258 264Z"
></glyph
><glyph unicode="&#xca;" horiz-adv-x="1294" d="M346 1493h944l-33 -170H514L428 881h713L1108 711H395L291 170h760L1018 0H55L346 1493ZM760 1901H975l158 -266H998L858 1813L649 1635H498l262 266Z"
></glyph
><glyph unicode="&#xcb;" horiz-adv-x="1294" d="M346 1493h944l-33 -170H514L428 881h713L1108 711H395L291 170h760L1018 0H55L346 1493ZM566 1870H770L729 1667H527l39 203ZM957 1870h202l-38 -203H918l39 203Z"
></glyph
><glyph unicode="&#xcc;" horiz-adv-x="604" d="M346 1493H549L258 0H55L346 1493ZM450 1899L598 1635H458L268 1899H450Z"
></glyph
><glyph unicode="&#xcd;" horiz-adv-x="604" d="M346 1493H549L258 0H55L346 1493ZM577 1899H784L477 1635H319l258 264Z"
></glyph
><glyph unicode="&#xce;" horiz-adv-x="604" d="M346 1493H549L258 0H55L346 1493ZM403 1901H618L776 1635H641L501 1813L292 1635H141l262 266Z"
></glyph
><glyph unicode="&#xcf;" horiz-adv-x="604" d="M346 1493H549L258 0H55L346 1493ZM209 1870H413L372 1667H170l39 203ZM600 1870H802L764 1667H561l39 203Z"
></glyph
><glyph unicode="&#xd0;" horiz-adv-x="1587" d="M356 1493H791q345 0 521.5 -146.5T1489 911q0 -190 -67.5 -366.5T1235 246Q1116 122 934 61T502 0H66L201 700H0L29 844H229l127 649ZM526 1327L432 844H768L739 700H403L301 166H565q340 0 525.5 195T1276 911q0 215 -120 315.5T780 1327H526Z"
></glyph
><glyph unicode="&#xd1;" horiz-adv-x="1532" d="M346 1493H618L1030 213l250 1280h197L1186 0H913L502 1288L252 0H55L346 1493ZM934 1710l-35 25l-1 1q-43 32 -81 32q-34 0 -61 -25.5T711 1667H586q35 109 96.5 164T829 1886q35 0 65.5 -11T961 1839l32 -26q18 -14 37 -20.5t39 -6.5q39 0 67.5 27t39.5 73h125q-33 -109 -95.5 -164T1051 1667q-31 0 -58.5 10.5T934 1710Z"
></glyph
><glyph unicode="&#xd2;" horiz-adv-x="1612" d="M934 1356q-166 0 -293 -80.5T420 1030Q360 925 328.5 807T297 569q0 -208 99.5 -321T678 135q164 0 292.5 81.5T1190 459q61 108 93 226.5T1315 922q0 207 -100 320.5T934 1356ZM672 -29Q397 -29 239.5 134T82 580q0 162 61.5 331T313 1212q127 155 283 231.5T940 1520q274 0 432 -161.5T1530 918q0 -172 -60 -338T1298 279Q1170 123 1015.5 47T672 -29ZM987 1899l148 -264H995L805 1899H987Z"
></glyph
><glyph unicode="&#xd3;" horiz-adv-x="1612" d="M934 1356q-166 0 -293 -80.5T420 1030Q360 925 328.5 807T297 569q0 -208 99.5 -321T678 135q164 0 292.5 81.5T1190 459q61 108 93 226.5T1315 922q0 207 -100 320.5T934 1356ZM672 -29Q397 -29 239.5 134T82 580q0 162 61.5 331T313 1212q127 155 283 231.5T940 1520q274 0 432 -161.5T1530 918q0 -172 -60 -338T1298 279Q1170 123 1015.5 47T672 -29ZM1114 1899h207L1014 1635H856l258 264Z"
></glyph
><glyph unicode="&#xd4;" horiz-adv-x="1612" d="M934 1356q-166 0 -293 -80.5T420 1030Q360 925 328.5 807T297 569q0 -208 99.5 -321T678 135q164 0 292.5 81.5T1190 459q61 108 93 226.5T1315 922q0 207 -100 320.5T934 1356ZM672 -29Q397 -29 239.5 134T82 580q0 162 61.5 331T313 1212q127 155 283 231.5T940 1520q274 0 432 -161.5T1530 918q0 -172 -60 -338T1298 279Q1170 123 1015.5 47T672 -29ZM940 1901h215l158 -266H1178l-140 178L829 1635H678l262 266Z"
></glyph
><glyph unicode="&#xd5;" horiz-adv-x="1612" d="M934 1356q-166 0 -293 -80.5T420 1030Q360 925 328.5 807T297 569q0 -208 99.5 -321T678 135q164 0 292.5 81.5T1190 459q61 108 93 226.5T1315 922q0 207 -100 320.5T934 1356ZM672 -29Q397 -29 239.5 134T82 580q0 162 61.5 331T313 1212q127 155 283 231.5T940 1520q274 0 432 -161.5T1530 918q0 -172 -60 -338T1298 279Q1170 123 1015.5 47T672 -29ZM1020 1710l-35 25l-1 1q-43 32 -81 32q-34 0 -61 -25.5T797 1667H672q35 109 96.5 164T915 1886q35 0 65.5 -11t66.5 -36l32 -26q18 -14 37 -20.5t39 -6.5q39 0 67.5 27t39.5 73h125q-33 -109 -95.5 -164T1137 1667q-31 0 -58.5 10.5T1020 1710Z"
></glyph
><glyph unicode="&#xd6;" horiz-adv-x="1612" d="M934 1356q-166 0 -293 -80.5T420 1030Q360 925 328.5 807T297 569q0 -208 99.5 -321T678 135q164 0 292.5 81.5T1190 459q61 108 93 226.5T1315 922q0 207 -100 320.5T934 1356ZM672 -29Q397 -29 239.5 134T82 580q0 162 61.5 331T313 1212q127 155 283 231.5T940 1520q274 0 432 -161.5T1530 918q0 -172 -60 -338T1298 279Q1170 123 1015.5 47T672 -29ZM746 1870H950L909 1667H707l39 203ZM1137 1870h202l-38 -203H1098l39 203Z"
></glyph
><glyph unicode="&#xd7;" horiz-adv-x="1716" d="M1436 1100L979 641L1436 184L1317 63L858 522L399 63L281 184L737 641L281 1100l118 121L858 762l459 459l119 -121Z"
></glyph
><glyph unicode="&#xd8;" horiz-adv-x="1612" d="M1223 1235q-45 60 -118 90.5T934 1356q-165 0 -292.5 -81T422 1032Q360 923 327.5 804T295 571q0 -45 6 -88.5T319 395l904 840ZM1288 1116L381 270Q432 202 505.5 168.5T678 135q164 0 292.5 81.5T1190 459q62 112 93.5 229.5T1315 928q0 56 -6.5 102.5T1288 1116ZM160 246q-39 80 -58.5 162T82 575q0 166 61 334t170 303q125 154 281.5 231T940 1520q130 0 235 -38.5T1364 1366l203 193l90 -99L1448 1262q40 -73 60 -157.5T1528 922q0 -177 -59 -342.5T1298 279Q1170 123 1015.5 47T672 -29Q533 -29 424.5 13T240 137L20 -66L-70 33L160 246Z"
></glyph
><glyph unicode="&#xd9;" horiz-adv-x="1499" d="M317 1493H520L344 586Q333 525 328.5 485.5T324 416q0 -138 77 -209.5T627 135q193 0 300.5 106T1081 586l176 907h203L1280 561Q1221 259 1056 115T604 -29Q380 -29 249.5 83.5T119 389q0 35 5 78.5T139 561l178 932ZM897 1899l148 -264H905L715 1899H897Z"
></glyph
><glyph unicode="&#xda;" horiz-adv-x="1499" d="M317 1493H520L344 586Q333 525 328.5 485.5T324 416q0 -138 77 -209.5T627 135q193 0 300.5 106T1081 586l176 907h203L1280 561Q1221 259 1056 115T604 -29Q380 -29 249.5 83.5T119 389q0 35 5 78.5T139 561l178 932ZM1024 1899h207L924 1635H766l258 264Z"
></glyph
><glyph unicode="&#xdb;" horiz-adv-x="1499" d="M317 1493H520L344 586Q333 525 328.5 485.5T324 416q0 -138 77 -209.5T627 135q193 0 300.5 106T1081 586l176 907h203L1280 561Q1221 259 1056 115T604 -29Q380 -29 249.5 83.5T119 389q0 35 5 78.5T139 561l178 932ZM850 1901h215l158 -266H1088L948 1813L739 1635H588l262 266Z"
></glyph
><glyph unicode="&#xdc;" horiz-adv-x="1499" d="M317 1493H520L344 586Q333 525 328.5 485.5T324 416q0 -138 77 -209.5T627 135q193 0 300.5 106T1081 586l176 907h203L1280 561Q1221 259 1056 115T604 -29Q380 -29 249.5 83.5T119 389q0 35 5 78.5T139 561l178 932ZM656 1870H860L819 1667H617l39 203ZM1047 1870h202l-38 -203H1008l39 203Z"
></glyph
><glyph unicode="&#xdd;" horiz-adv-x="1251" d="M129 1493H346L625 879l532 614h227L707 711L569 0H367L504 711L129 1493ZM901 1899h207L801 1635H643l258 264Z"
></glyph
><glyph unicode="&#xde;" horiz-adv-x="1245" d="M580 338H324L258 0H55L346 1493H549L498 1229H764q204 0 311 -95T1182 856q0 -246 -158 -382T580 338ZM467 1063L358 504H612q172 0 264.5 87.5T969 844q0 104 -62 161.5T731 1063H467Z"
></glyph
><glyph unicode="&#xdf;" horiz-adv-x="1290" d="M317 1137q38 197 170.5 308T817 1556q174 0 282.5 -93T1208 1223q0 -25 -3 -55.5t-9 -67.5q-162 -8 -262 -75.5T834 860q0 -40 21 -76t69 -73l49 -39q119 -94 160 -159.5T1174 367Q1174 195 1035 83T678 -29q-76 0 -146 12.5T399 20l31 164q65 -29 134.5 -44T705 125q124 0 201 57t77 148q0 45 -23.5 84T858 520l-51 43Q710 645 676.5 700.5T643 823q0 126 106 227t279 138q2 8 3 18t1 29q0 78 -56.5 123T819 1403q-133 0 -213 -68T500 1133L281 0H96L317 1137Z"
></glyph
><glyph unicode="&#xe0;" horiz-adv-x="1255" d="M1100 639L975 0H791l34 170Q744 70 640.5 20.5T410 -29Q267 -29 175.5 58.5T84 283q0 196 156.5 310T672 707H928l10 49q2 8 3 17.5t1 29.5q0 89 -72.5 138.5T666 991q-90 0 -184.5 -23T287 899l32 170q104 39 203.5 58.5T715 1147q198 0 301.5 -86T1120 811q0 -33 -5 -77.5T1100 639ZM901 563H717Q491 563 382.5 502.5T274 315q0 -88 55.5 -138T483 127q150 0 262 107.5T893 522l8 41ZM686 1638L895 1264H741L489 1638H686Z"
></glyph
><glyph unicode="&#xe1;" horiz-adv-x="1255" d="M1100 639L975 0H791l34 170Q744 70 640.5 20.5T410 -29Q267 -29 175.5 58.5T84 283q0 196 156.5 310T672 707H928l10 49q2 8 3 17.5t1 29.5q0 89 -72.5 138.5T666 991q-90 0 -184.5 -23T287 899l32 170q104 39 203.5 58.5T715 1147q198 0 301.5 -86T1120 811q0 -33 -5 -77.5T1100 639ZM901 563H717Q491 563 382.5 502.5T274 315q0 -88 55.5 -138T483 127q150 0 262 107.5T893 522l8 41ZM970 1638h199L770 1262H616l354 376Z"
></glyph
><glyph unicode="&#xe2;" horiz-adv-x="1255" d="M1100 639L975 0H791l34 170Q744 70 640.5 20.5T410 -29Q267 -29 175.5 58.5T84 283q0 196 156.5 310T672 707H928l10 49q2 8 3 17.5t1 29.5q0 89 -72.5 138.5T666 991q-90 0 -184.5 -23T287 899l32 170q104 39 203.5 58.5T715 1147q198 0 301.5 -86T1120 811q0 -33 -5 -77.5T1100 639ZM901 563H717Q491 563 382.5 502.5T274 315q0 -88 55.5 -138T483 127q150 0 262 107.5T893 522l8 41ZM757 1638H905l172 -376H938L811 1499L577 1262H438l319 376Z"
></glyph
><glyph unicode="&#xe3;" horiz-adv-x="1255" d="M1100 639L975 0H791l34 170Q744 70 640.5 20.5T410 -29Q267 -29 175.5 58.5T84 283q0 196 156.5 310T672 707H928l10 49q2 8 3 17.5t1 29.5q0 89 -72.5 138.5T666 991q-90 0 -184.5 -23T287 899l32 170q104 39 203.5 58.5T715 1147q198 0 301.5 -86T1120 811q0 -33 -5 -77.5T1100 639ZM901 563H717Q491 563 382.5 502.5T274 315q0 -88 55.5 -138T483 127q150 0 262 107.5T893 522l8 41ZM774 1370l-45 55q-13 16 -29 26t-32 13q-39 0 -64.5 -36.5T561 1309H436q30 137 94.5 209.5T686 1591q37 0 69 -15.5T813 1530l47 -55q12 -16 26 -25t33 -14q38 0 62.5 35.5T1026 1591h125q-29 -137 -93.5 -209.5T901 1309q-38 0 -71 15.5T774 1370Z"
></glyph
><glyph unicode="&#xe4;" horiz-adv-x="1255" d="M1100 639L975 0H791l34 170Q744 70 640.5 20.5T410 -29Q267 -29 175.5 58.5T84 283q0 196 156.5 310T672 707H928l10 49q2 8 3 17.5t1 29.5q0 89 -72.5 138.5T666 991q-90 0 -184.5 -23T287 899l32 170q104 39 203.5 58.5T715 1147q198 0 301.5 -86T1120 811q0 -33 -5 -77.5T1100 639ZM901 563H717Q491 563 382.5 502.5T274 315q0 -88 55.5 -138T483 127q150 0 262 107.5T893 522l8 41ZM516 1552H721L680 1350H477l39 202ZM907 1552h203l-39 -202H868l39 202Z"
></glyph
><glyph unicode="&#xe5;" horiz-adv-x="1255" d="M1100 639L975 0H791l34 170Q744 70 640.5 20.5T410 -29Q267 -29 175.5 58.5T84 283q0 196 156.5 310T672 707H928l10 49q2 8 3 17.5t1 29.5q0 89 -72.5 138.5T666 991q-90 0 -184.5 -23T287 899l32 170q104 39 203.5 58.5T715 1147q198 0 301.5 -86T1120 811q0 -33 -5 -77.5T1100 639ZM901 563H717Q491 563 382.5 502.5T274 315q0 -88 55.5 -138T483 127q150 0 262 107.5T893 522l8 41ZM1077 1524q0 -115 -79.5 -195T802 1249q-115 0 -194.5 80T528 1524q0 116 79.5 195T802 1798q116 0 195.5 -79T1077 1524ZM954 1524q0 64 -43.5 107.5T802 1675q-66 0 -108.5 -42.5T651 1524q0 -66 42.5 -109T802 1372q67 0 109.5 43T954 1524Z"
></glyph
><glyph unicode="&#xe6;" horiz-adv-x="2038" d="M1763 660q3 16 4.5 33t1.5 34q0 122 -71 193t-195 71q-137 0 -242 -86.5T1102 659l661 1ZM319 1069q104 39 203.5 58.5T715 1147q144 0 237 -45T1090 965q86 90 198 136t244 46q190 0 303 -114T1948 727q0 -46 -6.5 -98.5T1923 516H1067q-6 -38 -8 -60t-2 -38q0 -139 85.5 -215T1384 127q120 0 227.5 27T1810 233L1776 51Q1676 11 1570.5 -9T1356 -29q-168 0 -281.5 57.5T905 199Q803 81 693 26T451 -29Q277 -29 180.5 53T84 283q0 196 156.5 310T672 707H928l10 49q2 8 3 17.5t1 29.5q0 89 -72.5 138.5T666 991q-90 0 -184.5 -23T287 899l32 170ZM901 563H717Q491 563 382.5 502.5T274 315q0 -88 55.5 -138T483 127q150 0 262 107.5T893 522l8 41Z"
></glyph
><glyph unicode="&#xe7;" horiz-adv-x="1126" d="M1098 1077L1061 895q-66 48 -140.5 72T766 991q-88 0 -167.5 -31T465 872Q379 785 332 668T285 426q0 -151 75.5 -225T590 127q76 0 161.5 23T930 219L895 37Q815 4 730.5 -12.5T557 -29Q334 -29 214 82.5T94 401q0 174 62.5 320.5T342 985q84 80 197 121t247 41q78 0 155 -17.5T1098 1077ZM596 0q36 -51 53 -94.5T666 -180q0 -100 -73.5 -157.5T391 -395q-43 0 -86 6t-86 18l23 131q39 -16 78.5 -24t81.5 -8q60 0 95.5 30.5T533 -158q0 29 -12.5 65T477 0H596Z"
></glyph
><glyph unicode="&#xe8;" horiz-adv-x="1260" d="M985 660q3 16 4.5 33t1.5 34q0 122 -71.5 193T725 991Q588 991 483 904.5T324 659l661 1ZM1145 516H289q-6 -38 -8 -60t-2 -38q0 -139 85.5 -215T606 127q120 0 227 27t199 79L997 51Q898 11 792.5 -9T578 -29Q345 -29 219.5 82.5T94 399q0 175 62.5 325.5T340 993q78 74 185.5 114T754 1147q190 0 302.5 -114T1169 727q0 -46 -6 -98.5T1145 516ZM697 1638L906 1264H752L500 1638H697Z"
></glyph
><glyph unicode="&#xe9;" horiz-adv-x="1260" d="M985 660q3 16 4.5 33t1.5 34q0 122 -71.5 193T725 991Q588 991 483 904.5T324 659l661 1ZM1145 516H289q-6 -38 -8 -60t-2 -38q0 -139 85.5 -215T606 127q120 0 227 27t199 79L997 51Q898 11 792.5 -9T578 -29Q345 -29 219.5 82.5T94 399q0 175 62.5 325.5T340 993q78 74 185.5 114T754 1147q190 0 302.5 -114T1169 727q0 -46 -6 -98.5T1145 516ZM981 1638h199L781 1262H627l354 376Z"
></glyph
><glyph unicode="&#xea;" horiz-adv-x="1260" d="M985 660q3 16 4.5 33t1.5 34q0 122 -71.5 193T725 991Q588 991 483 904.5T324 659l661 1ZM1145 516H289q-6 -38 -8 -60t-2 -38q0 -139 85.5 -215T606 127q120 0 227 27t199 79L997 51Q898 11 792.5 -9T578 -29Q345 -29 219.5 82.5T94 399q0 175 62.5 325.5T340 993q78 74 185.5 114T754 1147q190 0 302.5 -114T1169 727q0 -46 -6 -98.5T1145 516ZM768 1638H916l172 -376H949L822 1499L588 1262H449l319 376Z"
></glyph
><glyph unicode="&#xeb;" horiz-adv-x="1260" d="M985 660q3 16 4.5 33t1.5 34q0 122 -71.5 193T725 991Q588 991 483 904.5T324 659l661 1ZM1145 516H289q-6 -38 -8 -60t-2 -38q0 -139 85.5 -215T606 127q120 0 227 27t199 79L997 51Q898 11 792.5 -9T578 -29Q345 -29 219.5 82.5T94 399q0 175 62.5 325.5T340 993q78 74 185.5 114T754 1147q190 0 302.5 -114T1169 727q0 -46 -6 -98.5T1145 516ZM527 1552H732L691 1350H488l39 202ZM918 1552h203l-39 -202H879l39 202Z"
></glyph
><glyph unicode="&#xec;" horiz-adv-x="569" d="M291 1120H475L256 0H72L291 1120ZM328 1638L537 1264H383L131 1638H328Z"
></glyph
><glyph unicode="&#xed;" horiz-adv-x="569" d="M291 1120H475L256 0H72L291 1120ZM612 1638H811L412 1262H258l354 376Z"
></glyph
><glyph unicode="&#xee;" horiz-adv-x="569" d="M291 1120H475L256 0H72L291 1120ZM399 1638H547L719 1262H580L453 1499L219 1262H80l319 376Z"
></glyph
><glyph unicode="&#xef;" horiz-adv-x="569" d="M291 1120H475L256 0H72L291 1120ZM158 1552H363L322 1350H119l39 202ZM549 1552H752L713 1350H510l39 202Z"
></glyph
><glyph unicode="&#xf0;" horiz-adv-x="1253" d="M1016 1141q68 -102 102.5 -212.5T1153 700q0 -136 -39.5 -262.5T999 211Q915 95 792.5 33T526 -29Q328 -29 210 88.5T92 401q0 120 41 238T250 858q88 116 209 178t260 62q20 0 49 -2.5t69 -7.5L713 1268L362 1161l-32 94l327 97L518 1556H735l96 -145l336 109l35 -95L889 1327l127 -186ZM913 915q-43 17 -86.5 25T739 948Q537 948 410 797.5T283 408q0 -138 65.5 -209.5T541 127q182 0 304 161.5T967 694q0 68 -13 122t-41 99Z"
></glyph
><glyph unicode="&#xf1;" horiz-adv-x="1298" d="M1141 676L1010 0H825L956 669q9 47 14 83t5 57q0 84 -53 131T774 987Q626 987 519 888.5T379 621L256 0H72L289 1120H473L436 944q77 97 185 150t227 53q148 0 229.5 -80T1159 842q0 -36 -4.5 -77T1141 676ZM811 1370l-45 55q-13 16 -29 26t-32 13q-39 0 -64.5 -36.5T598 1309H473q30 137 94.5 209.5T723 1591q37 0 69 -15.5T850 1530l47 -55q12 -16 26 -25t33 -14q38 0 62.5 35.5T1063 1591h125q-29 -137 -93.5 -209.5T938 1309q-38 0 -71 15.5T811 1370Z"
></glyph
><glyph unicode="&#xf2;" horiz-adv-x="1253" d="M520 -29Q323 -29 208.5 92.5T94 424q0 122 39.5 248.5T236 885q99 134 221 198t276 64q191 0 308.5 -119T1159 717q0 -133 -39 -265T1018 233Q920 99 798 35T520 -29ZM285 430q0 -152 63.5 -227.5T541 127q185 0 306.5 161.5T969 698q0 145 -65 219T713 991Q609 991 528 942.5T383 795Q336 721 310.5 626T285 430ZM701 1638L910 1264H756L504 1638H701Z"
></glyph
><glyph unicode="&#xf3;" horiz-adv-x="1253" d="M520 -29Q323 -29 208.5 92.5T94 424q0 122 39.5 248.5T236 885q99 134 221 198t276 64q191 0 308.5 -119T1159 717q0 -133 -39 -265T1018 233Q920 99 798 35T520 -29ZM285 430q0 -152 63.5 -227.5T541 127q185 0 306.5 161.5T969 698q0 145 -65 219T713 991Q609 991 528 942.5T383 795Q336 721 310.5 626T285 430ZM985 1638h199L785 1262H631l354 376Z"
></glyph
><glyph unicode="&#xf4;" horiz-adv-x="1253" d="M520 -29Q323 -29 208.5 92.5T94 424q0 122 39.5 248.5T236 885q99 134 221 198t276 64q191 0 308.5 -119T1159 717q0 -133 -39 -265T1018 233Q920 99 798 35T520 -29ZM285 430q0 -152 63.5 -227.5T541 127q185 0 306.5 161.5T969 698q0 145 -65 219T713 991Q609 991 528 942.5T383 795Q336 721 310.5 626T285 430ZM772 1638H920l172 -376H953L826 1499L592 1262H453l319 376Z"
></glyph
><glyph unicode="&#xf5;" horiz-adv-x="1253" d="M520 -29Q323 -29 208.5 92.5T94 424q0 122 39.5 248.5T236 885q99 134 221 198t276 64q191 0 308.5 -119T1159 717q0 -133 -39 -265T1018 233Q920 99 798 35T520 -29ZM285 430q0 -152 63.5 -227.5T541 127q185 0 306.5 161.5T969 698q0 145 -65 219T713 991Q609 991 528 942.5T383 795Q336 721 310.5 626T285 430ZM789 1370l-45 55q-13 16 -29 26t-32 13q-39 0 -64.5 -36.5T576 1309H451q30 137 94.5 209.5T701 1591q37 0 69 -15.5T828 1530l47 -55q12 -16 26 -25t33 -14q38 0 62.5 35.5T1041 1591h125q-29 -137 -93.5 -209.5T916 1309q-38 0 -71 15.5T789 1370Z"
></glyph
><glyph unicode="&#xf6;" horiz-adv-x="1253" d="M520 -29Q323 -29 208.5 92.5T94 424q0 122 39.5 248.5T236 885q99 134 221 198t276 64q191 0 308.5 -119T1159 717q0 -133 -39 -265T1018 233Q920 99 798 35T520 -29ZM285 430q0 -152 63.5 -227.5T541 127q185 0 306.5 161.5T969 698q0 145 -65 219T713 991Q609 991 528 942.5T383 795Q336 721 310.5 626T285 430ZM531 1552H736L695 1350H492l39 202ZM922 1552h203l-39 -202H883l39 202Z"
></glyph
><glyph unicode="&#xf7;" horiz-adv-x="1716" d="M735 1135H981V889H735v246ZM735 395H981V150H735V395ZM217 727H1499V557H217V727Z"
></glyph
><glyph unicode="&#xf8;" horiz-adv-x="1253" d="M901 922q-37 35 -83.5 52T713 991Q527 991 407 830.5T287 420q0 -47 1.5 -67.5T295 315L901 922ZM154 172q-30 49 -45 112T94 422q0 122 39.5 249.5T236 885q98 134 219.5 198T733 1147q87 0 161 -26t132 -77l162 164l86 -86L1102 950q28 -55 42.5 -117.5T1159 702q0 -124 -39.5 -253.5T1018 233Q921 99 799.5 35T520 -29q-87 0 -160.5 26.5T229 76L57 -94l-86 84L154 172ZM961 809L352 199q39 -37 84.5 -54.5T541 127q189 0 308.5 163.5T969 717q0 39 -2 58t-6 34Z"
></glyph
><glyph unicode="&#xf9;" horiz-adv-x="1298" d="M137 444l131 676H453L322 451Q312 402 307.5 367T303 309q0 -85 52 -131.5T502 131q148 0 256 100T899 500l123 620h184L989 0H805l37 176Q764 78 656.5 24.5T428 -29Q281 -29 199 51.5T117 276q0 30 5 75t15 93ZM692 1638L901 1264H747L495 1638H692Z"
></glyph
><glyph unicode="&#xfa;" horiz-adv-x="1298" d="M137 444l131 676H453L322 451Q312 402 307.5 367T303 309q0 -85 52 -131.5T502 131q148 0 256 100T899 500l123 620h184L989 0H805l37 176Q764 78 656.5 24.5T428 -29Q281 -29 199 51.5T117 276q0 30 5 75t15 93ZM976 1638h199L776 1262H622l354 376Z"
></glyph
><glyph unicode="&#xfb;" horiz-adv-x="1298" d="M137 444l131 676H453L322 451Q312 402 307.5 367T303 309q0 -85 52 -131.5T502 131q148 0 256 100T899 500l123 620h184L989 0H805l37 176Q764 78 656.5 24.5T428 -29Q281 -29 199 51.5T117 276q0 30 5 75t15 93ZM763 1638H911l172 -376H944L817 1499L583 1262H444l319 376Z"
></glyph
><glyph unicode="&#xfc;" horiz-adv-x="1298" d="M137 444l131 676H453L322 451Q312 402 307.5 367T303 309q0 -85 52 -131.5T502 131q148 0 256 100T899 500l123 620h184L989 0H805l37 176Q764 78 656.5 24.5T428 -29Q281 -29 199 51.5T117 276q0 30 5 75t15 93ZM522 1552H727L686 1350H483l39 202ZM913 1552h203l-39 -202H874l39 202Z"
></glyph
><glyph unicode="&#xfd;" horiz-adv-x="1212" d="M508 -104Q380 -319 299.5 -372.5T94 -426H-51l31 154H86q77 0 131 42T338 -66L395 41L147 1120H342L528 262l514 858h193L508 -104ZM964 1638h199L764 1262H610l354 376Z"
></glyph
><glyph unicode="&#xfe;" horiz-adv-x="1300" d="M1016 690q0 147 -64 225T768 993q-82 0 -156.5 -42T479 829Q422 750 388 638T354 416q0 -140 64 -215.5T600 125q87 0 161.5 41T889 285q57 82 92 193t35 212ZM446 950q74 97 174.5 147T844 1147q172 0 267 -112.5T1206 719q0 -166 -59 -316.5T977 133Q903 54 810 12.5T614 -29Q495 -29 414 20.5T293 168L178 -426H-6L375 1556H559L446 950Z"
></glyph
><glyph unicode="&#xff;" horiz-adv-x="1212" d="M508 -104Q380 -319 299.5 -372.5T94 -426H-51l31 154H86q77 0 131 42T338 -66L395 41L147 1120H342L528 262l514 858h193L508 -104ZM510 1552H715L674 1350H471l39 202ZM901 1552h203l-39 -202H862l39 202Z"
></glyph
><glyph unicode="&#x106;" horiz-adv-x="1430" d="M1423 1378l-41 -213q-96 97 -203.5 144T946 1356q-171 0 -300.5 -82T422 1024Q362 916 330.5 795.5T299 553Q299 349 404.5 242T711 135q139 0 267 44.5T1227 313L1180 74Q1061 23 939.5 -3T696 -29Q409 -29 247.5 127T86 561q0 178 61.5 350T324 1225q122 151 278.5 223T967 1520q128 0 242.5 -35.5T1423 1378ZM1075 1899h207L975 1635H817l258 264Z"
></glyph
><glyph unicode="&#x107;" horiz-adv-x="1126" d="M1098 1077L1061 895q-66 48 -140.5 72T766 991q-88 0 -167.5 -31T465 872Q379 785 332 668T285 426q0 -151 75.5 -225T590 127q76 0 161.5 23T930 219L895 37Q815 4 730.5 -12.5T557 -29Q334 -29 214 82.5T94 401q0 174 62.5 320.5T342 985q84 80 197 121t247 41q78 0 155 -17.5T1098 1077ZM989 1638h199L789 1262H635l354 376Z"
></glyph
><glyph unicode="&#x10c;" horiz-adv-x="1430" d="M1423 1378l-41 -213q-96 97 -203.5 144T946 1356q-171 0 -300.5 -82T422 1024Q362 916 330.5 795.5T299 553Q299 349 404.5 242T711 135q139 0 267 44.5T1227 313L1180 74Q1061 23 939.5 -3T696 -29Q409 -29 247.5 127T86 561q0 178 61.5 350T324 1225q122 151 278.5 223T967 1520q128 0 242.5 -35.5T1423 1378ZM1073 1635H860L702 1901H836L975 1723l209 178h151L1073 1635Z"
></glyph
><glyph unicode="&#x10d;" horiz-adv-x="1126" d="M1098 1077L1061 895q-66 48 -140.5 72T766 991q-88 0 -167.5 -31T465 872Q379 785 332 668T285 426q0 -151 75.5 -225T590 127q76 0 161.5 23T930 219L895 37Q815 4 730.5 -12.5T557 -29Q334 -29 214 82.5T94 401q0 174 62.5 320.5T342 985q84 80 197 121t247 41q78 0 155 -17.5T1098 1077ZM848 1262H701L529 1638H670L797 1401l231 237h140L848 1262Z"
></glyph
><glyph unicode="&#x111;" horiz-adv-x="1300" d="M856 168Q782 71 681 21T457 -29Q289 -29 191.5 85.5T94 399q0 166 59 316.5T324 985q74 79 167 120.5T686 1147q108 0 190.5 -52T1004 946l67 338H745l27 123h326l26 149h185l-27 -149h154l-27 -123H1255L1006 0H821l35 168ZM285 432q0 -145 65.5 -226T532 125q86 0 159.5 41.5T821 289q59 84 93 194t34 217q0 139 -65.5 217T702 995q-87 0 -162 -41T412 836Q354 753 319.5 643T285 432Z"
></glyph
><glyph unicode="&#x11e;" horiz-adv-x="1587" d="M1118 223l78 391H864l31 166h530L1296 123Q1163 50 1006 10.5T690 -29Q409 -29 250.5 127T92 561q0 231 96.5 439.5T455 1348q107 87 234 129.5T971 1520q140 0 268.5 -35.5T1485 1378l-41 -215q-90 94 -211 143.5T975 1356q-159 0 -280 -60.5T479 1108Q398 1000 351.5 853.5T305 555Q305 346 412 240.5T731 135q106 0 205 22.5T1118 223ZM684 1901H803q12 -61 51 -88t115 -27q86 0 140 27.5t83 87.5h119q-34 -113 -126 -177.5T965 1659q-121 0 -191 60.5T684 1901Z"
></glyph
><glyph unicode="&#x11f;" horiz-adv-x="1300" d="M1221 1120L1030 139Q975 -146 819.5 -286T401 -426q-97 0 -180 14.5T66 -367l34 179q68 -44 144 -65t162 -21q175 0 287.5 95.5T842 96l16 84Q781 92 679 46T459 0Q289 0 191.5 112.5T94 422q0 155 59 303.5T319 989q71 76 165.5 117T682 1147q113 0 197 -52.5T1004 946l32 174h185ZM944 709q0 136 -64 210T698 993q-73 0 -139 -29T446 883Q370 797 327.5 680.5T285 440q0 -138 64.5 -212T535 154q175 0 292 158.5T944 709ZM551 1608H665v-15q0 -68 42 -101.5T835 1458q85 0 140 36.5t86 113.5h116q-32 -139 -127 -213T809 1321q-128 0 -194 64.5T549 1575q0 6 1 17t1 16Z"
></glyph
><glyph unicode="&#x130;" horiz-adv-x="604" d="M346 1493H549L258 0H55L346 1493ZM405 1872H608L569 1667H364l41 205Z"
></glyph
><glyph unicode="&#x131;" horiz-adv-x="569" d="M291 1120H475L256 0H72L291 1120Z"
></glyph
><glyph unicode="&#x141;" horiz-adv-x="1151" d="M354 1493H557L432 860l352 156L840 891L401 698L301 168h727L995 0H66L180 600L16 524L-41 647L211 760l143 733Z"
></glyph
><glyph unicode="&#x142;" horiz-adv-x="588" d="M389 1556H573L457 950l141 64L651 895L428 793L270 0H86L223 700L88 639L35 758l219 98l135 700Z"
></glyph
><glyph unicode="&#x152;" horiz-adv-x="2191" d="M1210 1323H1090q-166 0 -295.5 -38T578 1174Q445 1064 376 913.5T307 582Q307 379 433.5 274.5T807 170h49H985l225 1153ZM2185 1493l-33 -170H1413L1325 881h711L2003 711H1292L1188 170h760L1915 0H825Q663 0 574.5 15.5T408 66Q251 136 172.5 265T94 582q0 209 92.5 395T451 1298q123 98 298 146.5t400 48.5H2185Z"
></glyph
><glyph unicode="&#x153;" horiz-adv-x="2105" d="M1991 516H1135q-4 -27 -6.5 -52T1126 418q0 -139 85 -215t241 -76q120 0 228.5 27T1880 233L1843 51Q1744 12 1639 -8.5T1425 -29q-161 0 -276 55T987 180Q886 75 770.5 23T520 -29Q329 -29 211.5 90T94 401q0 137 38 266.5T236 885q99 134 221 198t276 64q130 0 229.5 -58.5T1116 922q99 112 220 168.5t263 56.5q191 0 303.5 -114T2015 727q0 -46 -6 -98.5T1991 516ZM1831 660q3 16 4.5 33t1.5 34q0 122 -71.5 193T1571 991q-138 0 -242.5 -86.5T1169 659l662 1ZM285 430q0 -152 63.5 -227.5T541 127q185 0 306.5 160T969 696q0 147 -64.5 221T713 991Q609 991 528 942.5T383 795Q336 721 310.5 626T285 430Z"
></glyph
><glyph unicode="&#x15e;" horiz-adv-x="1300" d="M1235 1444l-39 -197q-101 54 -200.5 81.5T803 1356q-181 0 -288 -79T408 1067q0 -72 39.5 -110.5T651 874L772 844Q977 791 1057 709.5T1137 481Q1137 255 959.5 113T492 -29Q373 -29 253 -5.5T12 66L53 274Q164 205 275.5 170T498 135q189 0 303 84T915 438q0 90 -45.5 136.5T674 659L553 690Q346 744 270.5 814.5T195 1012q0 223 171.5 365.5T813 1520q107 0 212 -19t210 -57ZM577 0q36 -51 53 -94.5T647 -180q0 -100 -73.5 -157.5T372 -395q-43 0 -86 6t-86 18l23 131q39 -16 78.5 -24t81.5 -8q60 0 95.5 30.5T514 -158q0 29 -12.5 65T458 0H577Z"
></glyph
><glyph unicode="&#x15f;" horiz-adv-x="1067" d="M1024 1087L989 913q-73 40 -154 60T668 993Q523 993 439.5 943.5T356 809q0 -99 194 -152q15 -4 22 -6l59 -18Q815 582 876.5 526T938 373Q938 195 796.5 83T426 -29q-89 0 -187 17T23 41L59 231Q160 179 258 152T446 125q135 0 219.5 58T750 330q0 96 -222 155l-19 5l-63 16Q306 543 241 603.5T176 758q0 179 134.5 284T676 1147q91 0 177.5 -15T1024 1087ZM500 0q36 -51 53 -94.5T570 -180q0 -100 -73.5 -157.5T295 -395q-43 0 -86 6t-86 18l23 131q39 -16 78.5 -24t81.5 -8q60 0 95.5 30.5T437 -158q0 29 -12.5 65T381 0H500Z"
></glyph
><glyph unicode="&#x160;" horiz-adv-x="1300" d="M1235 1444l-39 -197q-101 54 -200.5 81.5T803 1356q-181 0 -288 -79T408 1067q0 -72 39.5 -110.5T651 874L772 844Q977 791 1057 709.5T1137 481Q1137 255 959.5 113T492 -29Q373 -29 253 -5.5T12 66L53 274Q164 205 275.5 170T498 135q189 0 303 84T915 438q0 90 -45.5 136.5T674 659L553 690Q346 744 270.5 814.5T195 1012q0 223 171.5 365.5T813 1520q107 0 212 -19t210 -57ZM924 1635H711L553 1901H687L826 1723l209 178h151L924 1635Z"
></glyph
><glyph unicode="&#x161;" horiz-adv-x="1067" d="M1024 1087L989 913q-73 40 -154 60T668 993Q523 993 439.5 943.5T356 809q0 -99 194 -152q15 -4 22 -6l59 -18Q815 582 876.5 526T938 373Q938 195 796.5 83T426 -29q-89 0 -187 17T23 41L59 231Q160 179 258 152T446 125q135 0 219.5 58T750 330q0 96 -222 155l-19 5l-63 16Q306 543 241 603.5T176 758q0 179 134.5 284T676 1147q91 0 177.5 -15T1024 1087ZM752 1262H605L433 1638H574L701 1401l231 237h140L752 1262Z"
></glyph
><glyph unicode="&#x178;" horiz-adv-x="1251" d="M129 1493H346L625 879l532 614h227L707 711L569 0H367L504 711L129 1493ZM533 1870H737L696 1667H494l39 203ZM924 1870h202l-38 -203H885l39 203Z"
></glyph
><glyph unicode="&#x17d;" horiz-adv-x="1403" d="M268 1493H1440l-29 -154L254 170h952L1174 0H-45l29 154L1141 1323H236l32 170ZM975 1635H762L604 1901H738L877 1723l209 178h151L975 1635Z"
></glyph
><glyph unicode="&#x17e;" horiz-adv-x="1075" d="M238 1120h874L1079 952L236 147H932L903 0H-6L27 168L870 973H209l29 147ZM756 1262H609L437 1638H578L705 1401l231 237h140L756 1262Z"
></glyph
><glyph unicode="&#x192;" d="M1266 1509l-31 -153q-38 29 -78 43t-84 14q-96 0 -153 -61T838 1159L778 848h318L1065 705H748L621 70Q564 -209 471 -317.5T205 -426q-74 0 -135.5 12.5T-47 -375l31 158q52 -33 100.5 -49.5T180 -283q97 0 151.5 68.5T420 20L557 705H279l30 143H588l63 330q37 191 138 284.5t270 93.5q46 0 95.5 -11T1266 1509Z"
></glyph
><glyph unicode="&#x2c6;" horiz-adv-x="1024" d="M657 1638H805L977 1262H838L711 1499L477 1262H338l319 376Z"
></glyph
><glyph unicode="&#x2c7;" horiz-adv-x="1024" d="M729 1262H582L410 1638H551L678 1401l231 237h140L729 1262Z"
></glyph
><glyph unicode="&#x2d8;" horiz-adv-x="1024" d="M412 1608H526v-15q0 -68 42 -101.5T696 1458q85 0 140 36.5T922 1608h116Q1006 1469 911 1395T670 1321q-128 0 -194 64.5T410 1575q0 6 1 17t1 16Z"
></glyph
><glyph unicode="&#x2d9;" horiz-adv-x="1024" d="M612 1552H815L776 1348H571l41 204Z"
></glyph
><glyph unicode="&#x2da;" horiz-adv-x="1024" d="M977 1524q0 -115 -79.5 -195T702 1249q-115 0 -194.5 80T428 1524q0 116 79.5 195T702 1798q116 0 195.5 -79T977 1524ZM854 1524q0 64 -43.5 107.5T702 1675q-66 0 -108.5 -42.5T551 1524q0 -66 42.5 -109T702 1372q67 0 109.5 43T854 1524Z"
></glyph
><glyph unicode="&#x2db;" horiz-adv-x="1024" d="M354 0H473Q409 -67 377.5 -117.5T346 -203q0 -35 22.5 -52T436 -272q29 0 63.5 7.5T571 -242L547 -374q-37 -12 -72.5 -17.5T408 -397q-103 0 -155 38t-52 113q0 52 38.5 113.5T354 0Z"
></glyph
><glyph unicode="&#x2dc;" horiz-adv-x="1024" d="M674 1370l-45 55q-13 16 -29 26t-32 13q-39 0 -64.5 -36.5T461 1309H336q30 137 94.5 209.5T586 1591q37 0 69 -15.5T713 1530l47 -55q12 -16 26 -25t33 -14q38 0 62.5 35.5T926 1591h125q-29 -137 -93.5 -209.5T801 1309q-38 0 -71 15.5T674 1370Z"
></glyph
><glyph unicode="&#x2dd;" horiz-adv-x="1024" d="M649 1638H819L522 1262H385l264 376ZM983 1638h178L840 1262H705l278 376Z"
></glyph
><glyph unicode="&#x3a9;" horiz-adv-x="1565" d="M1487 178V0H887V178q177 97 276 263t99 368q0 240 -132 385T782 1339q-216 0 -348.5 -145.5T301 809q0 -202 99.5 -368T678 178V0H78V178H397Q239 317 166.5 466T94 799q0 318 191.5 515T782 1511q303 0 495.5 -196.5T1470 809q0 -194 -71 -342T1167 178h320Z"
></glyph
><glyph unicode="&#x3c0;" horiz-adv-x="1206" d="M1159 913H977L872 426Q857 352 849.5 306T842 238q0 -58 23.5 -82.5T944 131q17 0 40 2.5t60 7.5L1014 0Q984 -8 956.5 -12T903 -16Q785 -16 724.5 35T664 186q0 46 10.5 118T719 537l80 376H473L279 0H98L293 913H252q-54 0 -84 -32T129 780H-31q28 166 99.5 228.5T305 1071h889L1159 913Z"
></glyph
><glyph unicode="&#x2013;" horiz-adv-x="1024" d="M14 633H1038L1010 489H-14L14 633Z"
></glyph
><glyph unicode="&#x2014;" horiz-adv-x="2048" d="M14 633H2062L2034 489H-14L14 633Z"
></glyph
><glyph unicode="&#x2018;" horiz-adv-x="651" d="M479 1001H268l35 173l225 319H657L514 1174L479 1001Z"
></glyph
><glyph unicode="&#x2019;" horiz-adv-x="651" d="M455 1493H666L633 1321L406 1001H276l144 320l35 172Z"
></glyph
><glyph unicode="&#x201a;" horiz-adv-x="651" d="M184 254H395L360 82L135 -238H6L150 82l34 172Z"
></glyph
><glyph unicode="&#x201c;" horiz-adv-x="1061" d="M479 1001H268l35 173l225 319H657L514 1174L479 1001ZM889 1001H678l35 173l225 319h129L924 1174L889 1001Z"
></glyph
><glyph unicode="&#x201d;" horiz-adv-x="1061" d="M455 1493H666L631 1321L406 1001H276l144 320l35 172ZM864 1493h211l-35 -172L815 1001H686l143 320l35 172Z"
></glyph
><glyph unicode="&#x201e;" horiz-adv-x="1061" d="M184 254H395L360 82L135 -238H6L150 82l34 172ZM594 254H805L770 82L545 -238H416L559 82l35 172Z"
></glyph
><glyph unicode="&#x2020;" horiz-adv-x="1024" d="M565 1493H739L659 1073h367L995 920H629L412 -197H236L453 920H86l29 153H483l82 420Z"
></glyph
><glyph unicode="&#x2021;" horiz-adv-x="1024" d="M874 223H508L426 -197H250l82 420H-35L-6 377H360L467 920H100l29 153H496l82 420H754L672 1073h368L1010 920H643L537 377H903L874 223Z"
></glyph
><glyph unicode="&#x2022;" horiz-adv-x="1208" d="M307 762q0 123 87 209t210 86q122 0 208.5 -86.5T899 762Q899 640 811.5 552.5T602 465q-123 0 -209 87T307 762Z"
></glyph
><glyph unicode="&#x2026;" horiz-adv-x="2048" d="M182 254H393L344 0H133l49 254ZM1548 254h211L1710 0H1499l49 254ZM864 254h211L1026 0H815l49 254Z"
></glyph
><glyph unicode="&#x2030;" horiz-adv-x="2765" d="M2163 -29q-137 0 -216 89t-79 241q0 216 115.5 349.5T2286 784q135 0 213.5 -88T2578 455q0 -215 -115.5 -349.5T2163 -29ZM2419 446q0 107 -38.5 160T2265 659q-111 0 -174 -97.5T2028 291q0 -93 40 -143T2183 98q107 0 171.5 95T2419 446ZM481 707q-136 0 -215.5 88.5T186 1036q0 216 116 350t302 134q136 0 215.5 -89.5T899 1188Q899 974 783 840.5T481 707ZM739 1182q0 105 -39 158t-116 53q-112 0 -175 -97T346 1026q0 -92 40.5 -142T502 834q107 0 172 95t65 253ZM1599 446q0 107 -38 160t-115 53q-111 0 -174.5 -97.5T1208 291q0 -93 40.5 -143T1364 98q107 0 171 95t64 253ZM1343 -29q-136 0 -215 89t-79 241q0 216 115.5 349.5T1466 784q136 0 214.5 -88T1759 455q0 -215 -115.5 -349.5T1343 -29ZM1683 1520L449 -29H289L1524 1520h159Z"
></glyph
><glyph unicode="&#x2039;" horiz-adv-x="819" d="M692 1059L655 858L299 588L551 322L514 141L127 559l16 82l549 418Z"
></glyph
><glyph unicode="&#x203a;" horiz-adv-x="819" d="M127 141l39 201L522 612L270 879l35 180L692 641L678 559L127 141Z"
></glyph
><glyph unicode="&#x20ac;" d="M1243 1378l-33 -213q-83 101 -166.5 148T864 1360q-143 0 -251 -97.5T434 973H954L901 850H397Q385 800 377 749T365 643H809L754 520H361q9 -195 88.5 -292T680 131q109 0 205 43t198 139L1044 74Q950 23 851 -3T655 -29Q432 -29 300.5 117T159 520H-39L16 643H161q5 55 13 106.5T193 850H20L76 973H227q97 276 257 411.5T872 1520q103 0 195.5 -35.5T1243 1378Z"
></glyph
><glyph unicode="&#x2122;" horiz-adv-x="2048" d="M1098 1493l174 -256l164 256h170V915H1493v484L1298 1096h-55l-203 303V915H926v578h172ZM813 1493v-94H610V915H496v484H295v94H813Z"
></glyph
><glyph unicode="&#x2202;" horiz-adv-x="1059" d="M756 621q15 87 22.5 168.5T786 946q0 129 -36.5 194.5T641 1206q-55 0 -127 -58T406 1090q-36 0 -60 22t-24 53q0 62 72 111t173 49q180 0 287 -155T961 752Q961 417 816.5 196T459 -25Q307 -25 205.5 83T104 354q0 198 110.5 326.5T487 809q101 0 166 -45.5T756 621ZM707 494q0 116 -43.5 178.5T541 735Q432 735 361.5 606T291 270Q291 154 334 92.5T457 31q109 0 179.5 130T707 494Z"
></glyph
><glyph unicode="&#x2206;" horiz-adv-x="1370" d="M684 1262L266 178h836L684 1262ZM573 1473H797L1376 0H-6L573 1473Z"
></glyph
><glyph unicode="&#x220f;" horiz-adv-x="1550" d="M156 1473H1393V-393H1153V1268H395V-393H156V1473Z"
></glyph
><glyph unicode="&#x2211;" horiz-adv-x="1380" d="M55 1473H1313V1280H354L1026 563L332 -201H1339V-393H25v149L750 557L55 1296v177Z"
></glyph
><glyph unicode="&#x2212;" horiz-adv-x="1716" d="M217 727H1499V557H217V727Z"
></glyph
><glyph unicode="&#x2215;" horiz-adv-x="342" d="M698 1520H877L-356 -29H-537L698 1520Z"
></glyph
><glyph unicode="&#x2219;" horiz-adv-x="651" d="M283 838H494L444 584H233l50 254Z"
></glyph
><glyph unicode="&#x221a;" horiz-adv-x="1305" d="M1116 1661h189v-96H1190L596 -41H530L211 842L86 797L61 877l283 98L600 266l516 1395Z"
></glyph
><glyph unicode="&#x221e;" horiz-adv-x="1706" d="M915 559q49 -88 116 -133t151 -45q101 0 165 67.5T1411 621q0 101 -59 168t-148 67q-82 0 -148.5 -67.5T915 559ZM793 666Q744 754 677.5 798T526 842Q424 842 360.5 776T297 604q0 -101 59 -168T504 369q82 0 149 68T793 666ZM864 483Q794 348 715.5 284.5T543 221Q407 221 314 332.5T221 610q0 175 83.5 283T522 1001q95 0 171.5 -63T842 737q68 138 147 203.5t176 65.5q134 0 228 -112.5T1487 614q0 -175 -83.5 -282T1186 225q-94 0 -168.5 59.5T864 483Z"
></glyph
><glyph unicode="&#x222b;" horiz-adv-x="1067" d="M311 -262q106 0 120 688q2 108 3 165q12 515 107 737t297 222q80 0 130 -42t50 -107q0 -54 -32 -85.5T899 1284q-42 0 -70 19t-40 54q-6 15 -10.5 51T758 1444Q651 1444 637 825Q633 632 629 522Q612 43 517.5 -164T227 -371q-79 0 -129.5 41.5T47 -223q0 56 34 87.5t95 31.5q33 0 57 -14.5T272 -161q10 -18 15 -59.5T311 -262Z"
></glyph
><glyph unicode="&#x2248;" horiz-adv-x="1716" d="M1499 623V444Q1394 366 1304.5 331.5T1118 297q-110 0 -256 59q-10 4 -17 7q-6 2 -21 8Q669 432 575 432q-88 0 -174 -38T217 272V451q105 78 194.5 112.5T598 598q110 0 257 -59q11 -5 16 -7q6 -2 21 -8q155 -61 249 -61q86 0 170.5 37.5T1499 623ZM1499 1012V834Q1394 755 1304.5 720.5T1118 686q-110 0 -256 59q-10 4 -17 7q-6 2 -21 8Q669 821 575 821q-88 0 -174 -38T217 662V840q105 78 194.5 112.5T598 987q110 0 257 -59q10 -4 15 -6q7 -3 22 -9q155 -61 249 -61q86 0 170.5 37.5T1499 1012Z"
></glyph
><glyph unicode="&#x2260;" horiz-adv-x="1716" d="M217 930H989l256 315l125 -102L1196 930h303V762H1059L864 522h635V352H725L467 39L342 141L516 352H217V522H655L850 762H217V930Z"
></glyph
><glyph unicode="&#x2264;" horiz-adv-x="1716" d="M1499 1016L539 739L1499 465V287L217 655V825l1282 367V1016ZM217 170H1499V0H217V170Z"
></glyph
><glyph unicode="&#x2265;" horiz-adv-x="1716" d="M217 1016v176L1499 825V655L217 287V465l961 274L217 1016ZM1499 170V0H217V170H1499Z"
></glyph
><glyph unicode="&#x25ca;" horiz-adv-x="1012" d="M506 1409L121 592L506 -233L891 592L506 1409ZM506 1653L1006 592L506 -477L6 592L506 1653Z"
></glyph
><glyph unicode="&#xfb01;" horiz-adv-x="1323" d="M1042 1120h187L1010 0H825l217 1120ZM1128 1556h185l-45 -233H1083l45 233ZM979 1556L950 1403H774q-100 0 -145.5 -39.5T561 1219l-20 -99H844L817 977H514L324 0H139L330 977H154l26 143H356l15 78q38 198 133.5 278T805 1556H979Z"
></glyph
><glyph unicode="&#xfb02;" horiz-adv-x="1323" d="M805 1556h508L1010 0H825l279 1403H774q-100 0 -145.5 -39.5T561 1219l-20 -99H844L817 977H514L324 0H139L330 977H154l26 143H356l15 78q38 199 133 278.5T805 1556Z"
></glyph
></font
></defs
><g style="font-family: &quot;Bitstream Vera Sans&quot;; font-size:50;fill:black"
><text x="20" y="50"
>!&quot;#$%&amp;&#39;()*+,-./0123456789:;&#229;&lt;&gt;?</text
><text x="20" y="100"
>@ABCDEFGHIJKLMNOPQRSTUVWXYZ[\]^_</text
><text x="20" y="150"
>` abcdefghijklmnopqrstuvwxyz|{}~</text
></g
></svg
>