<?xml version="1.0" encoding="UTF-8" standalone="no"?>
<!DOCTYPE svg PUBLIC "-//W3C//DTD SVG 1.1//EN" "http://www.w3.org/Graphics/SVG/1.1/DTD/svg11.dtd" >
<svg xmlns="http://www.w3.org/2000/svg"
><metadata
></metadata
><defs
><font horiz-adv-x="1303"
><font-face font-family="Bitstream Vera Sans" units-per-em="2048" ascent="1901" descent="-483"
></font-face
><missing-glyph horiz-adv-x="1229" d="M102 -362V1444H1126V-362H102ZM217 -248h795V1329H217V-248Z"
></missing-glyph
><glyph unicode=" " horiz-adv-x="651" d=""
></glyph
><glyph unicode="!" horiz-adv-x="821" d="M309 254H512V0H309V254ZM309 1493H512V838L492 481H330L309 838v655Z"
></glyph
><glyph unicode="&quot;" horiz-adv-x="942" d="M367 1493V938H197v555H367ZM745 1493V938H575v555H745Z"
></glyph
><glyph unicode="#" horiz-adv-x="1716" d="M1047 901H756L672 567H965l82 334ZM897 1470L793 1055h292l105 415h160L1247 1055h312V901H1208L1126 567h318V414H1087L983 0H823L926 414H633L530 0H369L473 414H158V567H510l84 334H272v154H633l102 415H897Z"
></glyph
><glyph unicode="$" d="M692 -301H592L591 0Q486 2 381 24.5T170 92V272Q272 208 376.5 175.5T592 142V598Q371 634 270.5 720T170 956q0 163 109 257t313 108v235H692V1324q93 -4 180 -19.5T1042 1262V1087q-83 42 -170.5 65T692 1179V752Q919 717 1026 627T1133 381q0 -169 -113.5 -266.5T692 2V-301ZM592 770v410Q476 1167 415 1114T354 973q0 -86 56.5 -134T592 770ZM692 578V145q127 17 191.5 72T948 362q0 88 -61.5 140T692 578Z"
></glyph
><glyph unicode="%" horiz-adv-x="1946" d="M1489 657q-87 0 -136.5 -74T1303 377q0 -130 49.5 -204.5T1489 98q85 0 134.5 74.5T1673 377q0 131 -49.5 205.5T1489 657ZM1489 784q158 0 251 -110t93 -297q0 -187 -93.5 -296.5T1489 -29q-160 0 -253 109.5T1143 377q0 188 93.5 297.5T1489 784ZM457 1393q-86 0 -135.5 -74.5T272 1114q0 -132 49 -206T457 834q87 0 136.5 74T643 1114q0 129 -50 204t-136 75ZM1360 1520h160L586 -29H426l934 1549ZM457 1520q158 0 252 -109.5T803 1114Q803 925 709.5 816T457 707Q298 707 205.5 816.5T113 1114q0 186 93 296t251 110Z"
></glyph
><glyph unicode="&amp;" horiz-adv-x="1597" d="M498 803Q407 722 364.5 641.5T322 473Q322 327 428 230T694 133q95 0 178 31.5T1028 260L498 803ZM639 915L1147 395q59 89 92 190.5T1278 801h186Q1452 669 1400 540T1255 285L1534 0H1282L1139 147Q1035 58 921 14.5T676 -29Q435 -29 282 108.5T129 461q0 128 67 240.5T397 913q-48 63 -73 125.5T299 1161q0 162 111 260.5T705 1520q83 0 165.5 -18T1038 1448V1266q-87 47 -166 71.5T725 1362q-105 0 -170.5 -55.5T489 1163q0 -51 29.5 -102.5T639 915Z"
></glyph
><glyph unicode="&#39;" horiz-adv-x="563" d="M367 1493V938H197v555H367Z"
></glyph
><glyph unicode="(" horiz-adv-x="799" d="M635 1554Q501 1324 436 1099T371 643q0 -231 65.5 -457.5T635 -270H475Q325 -35 250.5 192T176 643q0 223 74 449t225 462H635Z"
></glyph
><glyph unicode=")" horiz-adv-x="799" d="M164 1554H324Q474 1318 548.5 1092T623 643Q623 419 548.5 192T324 -270H164Q297 -41 362.5 185.5T428 643q0 231 -65.5 456T164 1554Z"
></glyph
><glyph unicode="*" horiz-adv-x="1024" d="M963 1247L604 1053L963 858L905 760L569 963V586H455V963L119 760L61 858l359 195L61 1247l58 99L455 1143v377H569V1143l336 203l58 -99Z"
></glyph
><glyph unicode="+" horiz-adv-x="1716" d="M942 1284V727h557V557H942V0H774V557H217V727H774v557H942Z"
></glyph
><glyph unicode="," horiz-adv-x="651" d="M240 254H451V82L287 -238H158L240 82V254Z"
></glyph
><glyph unicode="-" horiz-adv-x="739" d="M100 643H639V479H100V643Z"
></glyph
><glyph unicode="." horiz-adv-x="651" d="M219 254H430V0H219V254Z"
></glyph
><glyph unicode="/" horiz-adv-x="690" d="M520 1493H690L170 -190H0L520 1493Z"
></glyph
><glyph unicode="0" d="M651 1360q-156 0 -234.5 -153.5T338 745q0 -307 78.5 -460.5T651 131q157 0 235.5 153.5T965 745q0 308 -78.5 461.5T651 1360ZM651 1520q251 0 383.5 -198.5T1167 745q0 -377 -132.5 -575.5T651 -29Q400 -29 267.5 169.5T135 745q0 378 132.5 576.5T651 1520Z"
></glyph
><glyph unicode="1" d="M254 170H584V1309L225 1237v184l357 72H784V170h330V0H254V170Z"
></glyph
><glyph unicode="2" d="M393 170h705V0H150V170Q265 289 463.5 489.5T713 748q97 109 135.5 184.5T887 1081q0 119 -83.5 194T586 1350q-95 0 -200.5 -33T160 1217v204q122 49 228 74t194 25q232 0 370 -116t138 -310q0 -92 -34.5 -174.5T930 725Q905 696 771 557.5T393 170Z"
></glyph
><glyph unicode="3" d="M831 805Q976 774 1057.5 676T1139 434Q1139 213 987 92T555 -29q-94 0 -193.5 18.5T156 45V240q84 -49 184 -74T549 141q190 0 289.5 75T938 434q0 132 -92.5 206.5T588 715H414V881H596q149 0 228 59.5T903 1112q0 115 -81.5 176.5T588 1350q-83 0 -178 -18T201 1276v180q115 32 215.5 48T606 1520q230 0 364 -104.5T1104 1133q0 -124 -71 -209.5T831 805Z"
></glyph
><glyph unicode="4" d="M774 1317L264 520H774v797ZM721 1493H975V520h213V352H975V0H774V352H100V547l621 946Z"
></glyph
><glyph unicode="5" d="M221 1493h793V1323H406V957q44 15 88 22.5t88 7.5q250 0 396 -137T1124 479Q1124 238 974 104.5T551 -29q-94 0 -191.5 16T158 35V238q90 -49 186 -73T547 141q173 0 274 91T922 479q0 156 -101 247T547 817q-81 0 -161.5 -18T221 743v750Z"
></glyph
><glyph unicode="6" d="M676 827Q540 827 460.5 734T381 479q0 -161 79.5 -254.5T676 131q136 0 215.5 93.5T971 479q0 162 -79.5 255T676 827ZM1077 1460V1276q-76 36 -153.5 55T770 1350q-200 0 -305.5 -135T344 807q59 87 148 133.5T688 987q225 0 355.5 -136.5T1174 479q0 -230 -136 -369T676 -29Q417 -29 280 169.5T143 745q0 354 168 564.5T762 1520q76 0 153.5 -15T1077 1460Z"
></glyph
><glyph unicode="7" d="M168 1493h960v-86L586 0H375L885 1323H168v170Z"
></glyph
><glyph unicode="8" d="M651 709Q507 709 424.5 632T342 420q0 -135 82.5 -212T651 131q144 0 227 77.5T961 420q0 135 -82.5 212T651 709ZM449 795Q319 827 246.5 916T174 1133q0 179 127.5 283T651 1520q223 0 350 -104t127 -283q0 -128 -72.5 -217T854 795q146 -34 227.5 -133T1163 420Q1163 203 1030.5 87T651 -29Q404 -29 271.5 87T139 420q0 143 82 242T449 795ZM375 1114q0 -116 72.5 -181T651 868q130 0 203.5 65T928 1114q0 116 -73.5 181T651 1360q-131 0 -203.5 -65T375 1114Z"
></glyph
><glyph unicode="9" d="M225 31V215q76 -36 154 -55T532 141q200 0 305.5 134.5T958 684Q900 598 811 552T614 506Q390 506 259.5 641.5T129 1012q0 230 136 369t362 139q259 0 395.5 -198.5T1159 745Q1159 392 991.5 181.5T541 -29q-76 0 -154 15T225 31ZM627 664q136 0 215.5 93T922 1012q0 161 -79.5 254.5T627 1360q-136 0 -215.5 -93.5T332 1012q0 -162 79.5 -255T627 664Z"
></glyph
><glyph unicode=":" horiz-adv-x="690" d="M240 254H451V0H240V254ZM240 1059H451V805H240v254Z"
></glyph
><glyph unicode=";" horiz-adv-x="690" d="M240 1059H451V805H240v254ZM240 254H451V82L287 -238H158L240 82V254Z"
></glyph
><glyph unicode="&lt;" horiz-adv-x="1716" d="M1499 1008L467 641L1499 276V94L217 559V725l1282 465V1008Z"
></glyph
><glyph unicode="=" horiz-adv-x="1716" d="M217 930H1499V762H217V930ZM217 522H1499V352H217V522Z"
></glyph
><glyph unicode="&gt;" horiz-adv-x="1716" d="M217 1008v182L1499 725V559L217 94V276L1247 641L217 1008Z"
></glyph
><glyph unicode="?" horiz-adv-x="1087" d="M391 254H594V0H391V254ZM588 401H397V555q0 101 28 166T543 872l90 89q57 53 82.5 100t25.5 96q0 89 -65.5 144T502 1356q-79 0 -168.5 -35T147 1219v188q94 57 190.5 85T537 1520q184 0 295.5 -97T944 1167q0 -76 -36 -144.5T782 868L694 782Q647 735 627.5 708.5T600 657q-6 -21 -9 -51t-3 -82V401Z"
></glyph
><glyph unicode="@" horiz-adv-x="2048" d="M762 537q0 -143 71 -224.5T1028 231q123 0 193.5 82T1292 537q0 140 -72 222.5T1026 842Q905 842 833.5 760T762 537ZM1307 238Q1247 161 1169.5 124.5T989 88Q817 88 709.5 212.5T602 537q0 200 108 325T989 987q103 0 181 -37.5T1307 836V967h143V231q146 22 228.5 133.5T1761 653q0 107 -31.5 201T1634 1028q-104 131 -253.5 200.5T1055 1298q-123 0 -236 -32.5T610 1169Q453 1067 364.5 901.5T276 543q0 -159 57.5 -298T500 0Q605 -104 743 -158.5T1038 -213q129 0 253.5 43.5T1520 -45l90 -111q-125 -97 -272.5 -148.5T1038 -356q-185 0 -349 65.5T397 -100Q269 25 202 189.5T135 543q0 182 68 347t194 290q129 127 298 194.5t358 67.5q212 0 393.5 -87T1751 1108q75 -98 114.5 -213T1905 657q0 -263 -159 -415T1307 84V238Z"
></glyph
><glyph unicode="A" horiz-adv-x="1401" d="M700 1294L426 551H975L700 1294ZM586 1493H815L1384 0H1174L1038 383H365L229 0H16L586 1493Z"
></glyph
><glyph unicode="B" horiz-adv-x="1405" d="M403 713V166H727q163 0 241.5 67.5T1047 440q0 140 -78.5 206.5T727 713H403ZM403 1327V877H702q148 0 220.5 55.5T995 1102q0 113 -72.5 169T702 1327H403ZM201 1493H717q231 0 356 -96t125 -273q0 -137 -64 -218T946 805q149 -32 231.5 -133.5T1260 418q0 -200 -136 -309T737 0H201V1493Z"
></glyph
><glyph unicode="C" horiz-adv-x="1430" d="M1319 1378V1165q-102 95 -217.5 142T856 1354q-256 0 -392 -156.5T328 745Q328 450 464 293.5T856 137q130 0 245.5 47T1319 326V115Q1213 43 1094.5 7T844 -29Q505 -29 310 178.5T115 745q0 360 195 567.5T844 1520q134 0 252.5 -35.5T1319 1378Z"
></glyph
><glyph unicode="D" horiz-adv-x="1577" d="M403 1327V166H647q309 0 452.5 140T1243 748q0 300 -143.5 439.5T647 1327H403ZM201 1493H616q434 0 637 -180.5T1456 748q0 -386 -204 -567T616 0H201V1493Z"
></glyph
><glyph unicode="E" horiz-adv-x="1294" d="M201 1493h944V1323H403V881h711V711H403V170h760V0H201V1493Z"
></glyph
><glyph unicode="F" horiz-adv-x="1178" d="M201 1493h858V1323H403V883H995V713H403V0H201V1493Z"
></glyph
><glyph unicode="G" horiz-adv-x="1587" d="M1219 213V614H889V780h530V139Q1302 56 1161 13.5T860 -29Q510 -29 312.5 175.5T115 745q0 366 197.5 570.5T860 1520q146 0 277.5 -36T1380 1378V1163q-112 95 -238 143t-265 48q-274 0 -411.5 -153T328 745Q328 443 465.5 290T877 137q107 0 191 18.5T1219 213Z"
></glyph
><glyph unicode="H" horiz-adv-x="1540" d="M201 1493H403V881h734v612h202V0H1137V711H403V0H201V1493Z"
></glyph
><glyph unicode="I" horiz-adv-x="604" d="M201 1493H403V0H201V1493Z"
></glyph
><glyph unicode="J" horiz-adv-x="604" d="M201 1493H403V104q0 -270 -102.5 -392T-29 -410h-77v170h63q134 0 189 75t55 269V1493Z"
></glyph
><glyph unicode="K" horiz-adv-x="1343" d="M201 1493H403V862l670 631h260L592 797L1386 0H1120L403 719V0H201V1493Z"
></glyph
><glyph unicode="L" horiz-adv-x="1141" d="M201 1493H403V170h727V0H201V1493Z"
></glyph
><glyph unicode="M" horiz-adv-x="1767" d="M201 1493H502L883 477l383 1016h301V0H1370V1311L985 287H782L397 1311V0H201V1493Z"
></glyph
><glyph unicode="N" horiz-adv-x="1532" d="M201 1493H473L1135 244V1493h196V0H1059L397 1249V0H201V1493Z"
></glyph
><glyph unicode="O" horiz-adv-x="1612" d="M807 1356q-220 0 -349.5 -164T328 745Q328 463 457.5 299T807 135q220 0 348.5 164T1284 745q0 283 -128.5 447T807 1356ZM807 1520q314 0 502 -210.5T1497 745q0 -353 -188 -563.5T807 -29Q492 -29 303.5 181T115 745q0 354 188.5 564.5T807 1520Z"
></glyph
><glyph unicode="P" horiz-adv-x="1235" d="M403 1327V766H657q141 0 218 73t77 208q0 134 -77 207t-218 73H403ZM201 1493H657q251 0 379.5 -113.5T1165 1047q0 -221 -128.5 -334T657 600H403V0H201V1493Z"
></glyph
><glyph unicode="Q" horiz-adv-x="1612" d="M807 1356q-220 0 -349.5 -164T328 745Q328 463 457.5 299T807 135q220 0 348.5 164T1284 745q0 283 -128.5 447T807 1356ZM1090 27l266 -291H1112L891 -25q-33 -2 -50.5 -3T807 -29Q492 -29 303.5 181.5T115 745q0 354 188.5 564.5T807 1520q314 0 502 -210.5T1497 745q0 -260 -104.5 -445T1090 27Z"
></glyph
><glyph unicode="R" horiz-adv-x="1423" d="M909 700q65 -22 126.5 -94T1159 408L1364 0H1147L956 383Q882 533 812.5 582T623 631H403V0H201V1493H657q256 0 382 -107t126 -323q0 -141 -65.5 -234T909 700ZM403 1327V797H657q146 0 220.5 67.5T952 1063q0 131 -74.5 197.5T657 1327H403Z"
></glyph
><glyph unicode="S" horiz-adv-x="1300" d="M1096 1444V1247q-115 55 -217 82t-197 27q-165 0 -254.5 -64T338 1110q0 -99 59.5 -149.5T623 879L745 854Q971 811 1078.5 702.5T1186 412Q1186 195 1040.5 83T614 -29Q508 -29 388.5 -5T141 66V274Q264 205 382 170T614 135q173 0 267 68t94 194q0 110 -67.5 172T686 662L563 686Q337 731 236 827T135 1094q0 198 139.5 312T659 1520q105 0 214 -19t223 -57Z"
></glyph
><glyph unicode="T" horiz-adv-x="1251" d="M-6 1493H1257V1323H727V0H524V1323H-6v170Z"
></glyph
><glyph unicode="U" horiz-adv-x="1499" d="M178 1493H381V586q0 -240 87 -345.5T750 135q194 0 281 105.5T1118 586v907h203V561q0 -292 -144.5 -441T750 -29Q467 -29 322.5 120T178 561v932Z"
></glyph
><glyph unicode="V" horiz-adv-x="1401" d="M586 0L16 1493H227L700 236l474 1257h210L815 0H586Z"
></glyph
><glyph unicode="W" horiz-adv-x="2025" d="M68 1493H272L586 231L899 1493h227L1440 231l313 1262h205L1583 0H1329L1014 1296L696 0H442L68 1493Z"
></glyph
><glyph unicode="X" horiz-adv-x="1403" d="M129 1493H346L717 938l373 555h217L827 776L1339 0H1122L702 635L279 0H61L594 797L129 1493Z"
></glyph
><glyph unicode="Y" horiz-adv-x="1251" d="M-4 1493H213L627 879l411 614h217L727 711V0H524V711L-4 1493Z"
></glyph
><glyph unicode="Z" horiz-adv-x="1403" d="M115 1493H1288V1339L344 170h967V0H92V154l944 1169H115v170Z"
></glyph
><glyph unicode="[" horiz-adv-x="799" d="M176 1556H600V1413H360V-127H600V-270H176V1556Z"
></glyph
><glyph unicode="\" horiz-adv-x="690" d="M170 1493L690 -190H520L0 1493H170Z"
></glyph
><glyph unicode="]" horiz-adv-x="799" d="M623 1556V-270H199v143H438V1413H199v143H623Z"
></glyph
><glyph unicode="^" horiz-adv-x="1716" d="M956 1493L1499 936H1298L858 1331L418 936H217l543 557H956Z"
></glyph
><glyph unicode="_" horiz-adv-x="1024" d="M1044 -340V-483H-20v143H1044Z"
></glyph
><glyph unicode="`" horiz-adv-x="1024" d="M367 1638L649 1264H496L170 1638H367Z"
></glyph
><glyph unicode="a" horiz-adv-x="1255" d="M702 563Q479 563 393 512T307 338q0 -98 64.5 -155.5T547 125q153 0 245.5 108.5T885 522v41H702ZM1069 639V0H885V170Q822 68 728 19.5T498 -29Q326 -29 224.5 67.5T123 326q0 189 126.5 285T627 707H885v18q0 127 -83.5 196.5T567 991q-96 0 -187 -23T205 899v170q101 39 196 58.5T586 1147q243 0 363 -126T1069 639Z"
></glyph
><glyph unicode="b" horiz-adv-x="1300" d="M997 559q0 203 -83.5 318.5T684 993Q538 993 454.5 877.5T371 559q0 -203 83.5 -318.5T684 125q146 0 229.5 115.5T997 559ZM371 950q58 100 146.5 148.5T729 1147q204 0 331.5 -162T1188 559q0 -264 -127.5 -426T729 -29Q606 -29 517.5 19.5T371 168V0H186V1556H371V950Z"
></glyph
><glyph unicode="c" horiz-adv-x="1126" d="M999 1077V905q-78 43 -156.5 64.5T684 991Q505 991 406 877.5T307 559q0 -205 99 -318.5T684 127q80 0 158.5 21.5T999 213V43Q922 7 839.5 -11T664 -29Q411 -29 262 130T113 559q0 274 150.5 431T676 1147q85 0 166 -17.5T999 1077Z"
></glyph
><glyph unicode="d" horiz-adv-x="1300" d="M930 950v606h184V0H930V168Q872 68 783.5 19.5T571 -29Q368 -29 240.5 133T113 559q0 264 127.5 426T571 1147q124 0 212.5 -48.5T930 950ZM303 559q0 -203 83.5 -318.5T616 125q146 0 230 115.5T930 559q0 203 -84 318.5T616 993Q470 993 386.5 877.5T303 559Z"
></glyph
><glyph unicode="e" horiz-adv-x="1260" d="M1151 606V516H305Q317 326 419.5 226.5T705 127q106 0 205.5 26T1108 231V57Q1009 15 905 -7T694 -29Q426 -29 269.5 127T113 549q0 275 148.5 436.5T662 1147q226 0 357.5 -145.5T1151 606ZM967 660q-2 151 -84.5 241T664 991Q510 991 417.5 904T311 659l656 1Z"
></glyph
><glyph unicode="f" horiz-adv-x="721" d="M760 1556V1403H584q-99 0 -137.5 -40T408 1219v-99H711V977H408V0H223V977H47v143H223v78q0 187 87 272.5T586 1556H760Z"
></glyph
><glyph unicode="g" horiz-adv-x="1300" d="M930 573q0 200 -82.5 310T616 993Q468 993 385.5 883T303 573q0 -199 82.5 -309T616 154q149 0 231.5 110T930 573ZM1114 139q0 -286 -127 -425.5T598 -426q-97 0 -183 14.5T248 -367v179q81 -44 160 -65t161 -21q181 0 271 94.5T930 106v91Q873 98 784 49T571 0Q365 0 239 157T113 573q0 260 126 417t332 157q124 0 213 -49T930 950v170h184V139Z"
></glyph
><glyph unicode="h" horiz-adv-x="1298" d="M1124 676V0H940V670q0 159 -62 238T692 987Q543 987 457 892T371 633V0H186V1556H371V946q66 101 155.5 151T733 1147q193 0 292 -119.5T1124 676Z"
></glyph
><glyph unicode="i" horiz-adv-x="569" d="M193 1120H377V0H193V1120ZM193 1556H377V1323H193v233Z"
></glyph
><glyph unicode="j" horiz-adv-x="569" d="M193 1120H377V-20q0 -214 -81.5 -310T33 -426H-37v156H12q105 0 143 48.5T193 -20V1120ZM193 1556H377V1323H193v233Z"
></glyph
><glyph unicode="k" horiz-adv-x="1186" d="M186 1556H371V637l549 483h235L561 596L1180 0H940L371 547V0H186V1556Z"
></glyph
><glyph unicode="l" horiz-adv-x="569" d="M193 1556H377V0H193V1556Z"
></glyph
><glyph unicode="m" horiz-adv-x="1995" d="M1065 905q69 124 165 183t226 59q175 0 270 -122.5T1821 676V0H1636V670q0 161 -57 239t-174 78q-143 0 -226 -95T1096 633V0H911V670q0 162 -57 239.5T678 987Q537 987 454 891.5T371 633V0H186V1120H371V946q63 103 151 152t209 49q122 0 207.5 -62T1065 905Z"
></glyph
><glyph unicode="n" horiz-adv-x="1298" d="M1124 676V0H940V670q0 159 -62 238T692 987Q543 987 457 892T371 633V0H186V1120H371V946q66 101 155.5 151T733 1147q193 0 292 -119.5T1124 676Z"
></glyph
><glyph unicode="o" horiz-adv-x="1253" d="M627 991Q479 991 393 875.5T307 559q0 -201 85.5 -316.5T627 127q147 0 233 116t86 316q0 199 -86 315.5T627 991ZM627 1147q240 0 377 -156T1141 559q0 -275 -137 -431.5T627 -29Q386 -29 249.5 127.5T113 559q0 276 136.5 432T627 1147Z"
></glyph
><glyph unicode="p" horiz-adv-x="1300" d="M371 168V-426H186V1120H371V950q58 100 146.5 148.5T729 1147q204 0 331.5 -162T1188 559q0 -264 -127.5 -426T729 -29Q606 -29 517.5 19.5T371 168ZM997 559q0 203 -83.5 318.5T684 993Q538 993 454.5 877.5T371 559q0 -203 83.5 -318.5T684 125q146 0 229.5 115.5T997 559Z"
></glyph
><glyph unicode="q" horiz-adv-x="1300" d="M303 559q0 -203 83.5 -318.5T616 125q146 0 230 115.5T930 559q0 203 -84 318.5T616 993Q470 993 386.5 877.5T303 559ZM930 168Q872 68 783.5 19.5T571 -29Q368 -29 240.5 133T113 559q0 264 127.5 426T571 1147q124 0 212.5 -48.5T930 950v170h184V-426H930V168Z"
></glyph
><glyph unicode="r" horiz-adv-x="842" d="M842 948q-31 18 -67.5 26.5T694 983Q538 983 454.5 881.5T371 590V0H186V1120H371V946q58 102 151 151.5T748 1147q19 0 42 -2.5t51 -7.5l1 -189Z"
></glyph
><glyph unicode="s" horiz-adv-x="1067" d="M907 1087V913q-78 40 -162 60T571 993Q434 993 365.5 951T297 825q0 -64 49 -100.5T543 655l63 -14Q802 599 884.5 522.5T967 309Q967 153 843.5 62T504 -29q-90 0 -187.5 17.5T111 41V231Q213 178 312 151.5T508 125q130 0 200 44.5T778 295q0 75 -50.5 115T506 487l-64 15Q271 538 195 612.5T119 817q0 158 112 244t318 86q102 0 192 -15t166 -45Z"
></glyph
><glyph unicode="t" horiz-adv-x="803" d="M375 1438V1120H754V977H375V369q0 -137 37.5 -176T565 154H754V0H565Q352 0 271 79.5T190 369V977H55v143H190v318H375Z"
></glyph
><glyph unicode="u" horiz-adv-x="1298" d="M174 442v678H358V449q0 -159 62 -238.5T606 131q149 0 235.5 95T928 485v635h184V0H928V172Q861 70 772.5 20.5T567 -29Q374 -29 274 91T174 442Z"
></glyph
><glyph unicode="v" horiz-adv-x="1212" d="M61 1120H256L606 180l350 940h195L731 0H481L61 1120Z"
></glyph
><glyph unicode="w" horiz-adv-x="1675" d="M86 1120H270L500 246l229 874H946L1176 246l229 874h184L1296 0H1079L838 918L596 0H379L86 1120Z"
></glyph
><glyph unicode="x" horiz-adv-x="1212" d="M1124 1120L719 575L1145 0H928L602 440L276 0H59L494 586L96 1120H313L610 721l297 399h217Z"
></glyph
><glyph unicode="y" horiz-adv-x="1212" d="M659 -104Q581 -304 507 -365T309 -426H162v154H270q76 0 118 36t93 170l33 84L61 1120H256L606 244l350 876h195L659 -104Z"
></glyph
><glyph unicode="z" horiz-adv-x="1075" d="M113 1120H987V952L295 147H987V0H88V168L780 973H113v147Z"
></glyph
><glyph unicode="{" d="M1047 -190V-334H985q-249 0 -333.5 74T567 35V274q0 151 -54 209T317 541H256V684h61q143 0 196.5 57.5T567 948v240q0 221 84.5 294.5T985 1556h62V1413H979q-141 0 -184 -44T752 1184V936Q752 779 706.5 708T551 612Q662 585 707 514T752 287V39q0 -141 43 -185t184 -44h68Z"
></glyph
><glyph unicode="|" horiz-adv-x="690" d="M430 1565V-483H260V1565H430Z"
></glyph
><glyph unicode="}" d="M256 -190h70q140 0 182.5 43T551 39V287q0 156 45 227t156 98Q641 637 596 708T551 936v248q0 142 -42.5 185.5T326 1413H256v143h63q249 0 332.5 -73.5T735 1188V948q0 -149 54 -206.5T985 684h62V541H985Q843 541 789 483T735 274V35q0 -221 -83.5 -295T319 -334H256v144Z"
></glyph
><glyph unicode="~" horiz-adv-x="1716" d="M1499 817V639Q1394 560 1304.5 526T1118 492q-110 0 -256 59q-11 4 -16 6q-7 3 -22 8Q669 627 575 627q-88 0 -174 -38.5T217 467V645q105 79 194.5 113.5T598 793q110 0 257 -60q10 -4 15 -6q8 -3 22 -8q155 -62 249 -62q86 0 170.5 38T1499 817Z"
></glyph
><glyph unicode="&#xa0;" d=""
></glyph
><glyph unicode="&#xa1;" horiz-adv-x="821" d="M512 1239H309v254H512V1239ZM512 0H309V655l21 357H492L512 655V0Z"
></glyph
><glyph unicode="&#xa2;" d="M678 131V987Q531 969 449 856T367 559q0 -185 82 -298T678 131ZM1059 1077V905q-74 41 -142 62T781 991L780 127q70 5 138.5 26T1059 213V43Q994 13 925.5 -4.5T780 -29V-313H678V-25Q437 -5 304.5 148.5T172 559q0 258 132.5 411T678 1145v287H780l1 -287q73 -4 141.5 -20.5T1059 1077Z"
></glyph
><glyph unicode="&#xa3;" d="M1102 1460V1278q-76 41 -144 61.5T829 1360q-148 0 -206 -77.5T565 993V778H956V635H565V170h557V0H129V170H365V635H166V778H365v238q0 261 107 382.5T811 1520q61 0 136.5 -15.5T1102 1460Z"
></glyph
><glyph unicode="&#xa4;" d="M891 993l207 209l114 -115L1006 881q37 -59 55 -118.5T1079 641q0 -63 -19 -120.5T1001 406L1210 199L1096 86L889 293Q830 253 772 234T653 215q-58 0 -118 18.5T414 289L207 82L94 197L301 403q-37 62 -55.5 121T227 641q0 64 19 122t57 114L96 1083l115 115L418 991q55 39 113 57.5T653 1067q60 0 118.5 -18T891 993ZM922 643q0 112 -77.5 189T653 909Q541 909 462 832T383 643q0 -114 78.5 -192T653 373q113 0 191 78.5T922 643Z"
></glyph
><glyph unicode="&#xa5;" d="M1165 455H752V0H551V455H135V578H551v51L467 784H135V907H399L82 1493H272L651 793l377 700h191L901 907h264V784H834L750 629V578h415V455Z"
></glyph
><glyph unicode="&#xa6;" horiz-adv-x="690" d="M430 408V-350H260V408H430ZM430 1432V674H260v758H430Z"
></glyph
><glyph unicode="&#xa7;" horiz-adv-x="1024" d="M379 936Q316 890 285 845T254 754q0 -76 69.5 -142.5T643 410q63 45 94 90.5T768 592q0 75 -71.5 143T379 936ZM829 1462V1298q-83 39 -154.5 58.5T547 1376q-97 0 -151 -40T342 1225q0 -90 206 -205q26 -15 40 -23Q799 878 864.5 801T930 623q0 -90 -46 -160T745 340q62 -52 90.5 -106.5T864 115Q864 -27 762 -111T487 -195q-73 0 -150 14.5T172 -137V27q87 -39 161 -58.5T465 -51q102 0 158.5 42T680 109q0 102 -221 225l-25 14Q220 468 156 544.5T92 723q0 91 46.5 162.5T276 1006q-59 44 -88.5 100T158 1231q0 130 100 209.5T524 1520q73 0 149.5 -14.5T829 1462Z"
></glyph
><glyph unicode="&#xa8;" horiz-adv-x="1024" d="M606 1552H809V1350H606v202ZM215 1552H418V1350H215v202Z"
></glyph
><glyph unicode="&#xa9;" horiz-adv-x="2048" d="M1024 1485q152 0 283.5 -55T1548 1266q109 -109 163 -240t54 -285q0 -152 -54 -282.5T1548 219Q1439 110 1307.5 55T1024 0Q872 0 740.5 55T500 219Q391 328 337 458.5T283 741q0 154 54 285t163 240q109 109 240.5 164t283.5 55ZM1024 1382q-131 0 -244 -47T573 1194Q479 1100 431 985.5T383 741q0 -129 48 -242.5T573 291Q667 197 780 149.5T1024 102q132 0 245.5 47.5T1477 291q93 93 139.5 206T1663 741q0 133 -47 246.5T1477 1194q-94 94 -207.5 141T1024 1382ZM1323 1137V1008q-66 33 -131 49t-131 16q-149 0 -232.5 -87.5T745 741q0 -159 85.5 -246T1071 408q64 0 125 15.5T1323 473V346q-67 -29 -135.5 -43T1049 289Q833 289 707.5 411T582 741q0 209 125.5 330T1049 1192q73 0 141 -14t133 -41Z"
></glyph
><glyph unicode="&#xaa;" horiz-adv-x="965" d="M139 592H827V469H139V592ZM825 1165V717H676V829Q632 766 560 732T395 698q-128 0 -204 67.5T115 946q0 135 95.5 204T494 1219H676v4q0 91 -58.5 136.5T442 1405q-62 0 -130 -17T176 1337v127q73 28 145.5 42T463 1520q183 0 272.5 -88T825 1165ZM549 1104q-161 0 -224 -33.5T262 958q0 -64 49 -102.5T442 817q104 0 169 72t65 186v29H549Z"
></glyph
><glyph unicode="&#xab;" horiz-adv-x="1253" d="M1061 1059V868L760 600L1061 332V141L592 559v82l469 418ZM627 1059V868L326 600L627 332V141L158 559v82l469 418Z"
></glyph
><glyph unicode="&#xac;" horiz-adv-x="1716" d="M217 862H1499V287H1331V692H217V862Z"
></glyph
><glyph unicode="&#xad;" horiz-adv-x="739" d="M100 643H639V479H100V643Z"
></glyph
><glyph unicode="&#xae;" horiz-adv-x="2048" d="M1024 1382q-131 0 -244 -47T573 1194Q479 1100 431 985.5T383 741q0 -129 48 -242.5T573 291Q667 197 780 149.5T1024 102q132 0 245.5 47.5T1477 291q93 93 139.5 206T1663 741q0 133 -47 246.5T1477 1194q-94 94 -207.5 141T1024 1382ZM1024 1485q152 0 283.5 -55T1548 1266q109 -109 163 -240t54 -285q0 -152 -54 -282.5T1548 219Q1439 110 1307.5 55T1024 0Q872 0 740.5 55T500 219Q391 328 337 458.5T283 741q0 154 54 285t163 240q109 109 240.5 164t283.5 55ZM997 1071H874V795H997q110 0 153.5 31T1194 932q0 76 -44 107.5T997 1071ZM1004 1174q176 0 263 -59.5T1354 934q0 -86 -52.5 -142T1153 719q24 -8 57.5 -46.5T1290 561L1427 338H1255L1126 547q-59 96 -95.5 121.5T940 694H874V338H719v836h285Z"
></glyph
><glyph unicode="&#xaf;" horiz-adv-x="1024" d="M213 1526H811V1378H213v148Z"
></glyph
><glyph unicode="&#xb0;" horiz-adv-x="1024" d="M512 1391q-80 0 -135 -55.5T322 1200q0 -79 55 -133.5T512 1012q80 0 135 54.5T702 1200q0 79 -55.5 135T512 1391ZM512 1520q64 0 123 -24.5T737 1425q46 -45 69 -102t23 -123q0 -132 -92.5 -223.5T510 885q-135 0 -225 90t-90 225q0 134 92 227t225 93Z"
></glyph
><glyph unicode="&#xb1;" horiz-adv-x="1716" d="M942 1284V897h557V727H942V340H774V727H217V897H774v387H942ZM217 170H1499V0H217V170Z"
></glyph
><glyph unicode="&#xb2;" horiz-adv-x="821" d="M268 782H692V668H94V778q34 31 97 87q344 305 344 399q0 66 -52 106.5T346 1411q-52 0 -113 -17.5T100 1341v123q77 28 143.5 42T367 1520q145 0 232 -66t87 -174Q686 1141 355 857Q299 809 268 782Z"
></glyph
><glyph unicode="&#xb3;" horiz-adv-x="821" d="M524 1120q92 -18 142.5 -72.5T717 911Q717 787 622 720T350 653q-57 0 -119.5 10.5T98 694V815q52 -27 111.5 -40T336 762q109 0 169 39.5T565 911q0 74 -55.5 112T346 1061H260v108h94q94 0 142.5 31.5T545 1292q0 58 -50 88.5T350 1411q-40 0 -91 -9T127 1370v115q73 17 137 26t119 9q144 0 228.5 -59T696 1303q0 -69 -45 -117T524 1120Z"
></glyph
><glyph unicode="&#xb4;" horiz-adv-x="1024" d="M651 1638H850L524 1262H371l280 376Z"
></glyph
><glyph unicode="&#xb5;" d="M174 -426V1120H358V424q0 -145 69 -219T631 131q148 0 222.5 84T928 467v653h184V258q0 -60 17.5 -88.5T1184 141q9 0 25 5.5t44 17.5V16q-41 -23 -77.5 -34T1104 -29q-69 0 -110 39T938 129Q888 50 815.5 10.5T645 -29Q543 -29 471.5 10T358 127V-426H174Z"
></glyph
><glyph unicode="&#xb6;" d="M633 1493h448V-197H940V1370H750V-197H608V649Q393 666 275.5 776.5T158 1071q0 190 130 306t345 116Z"
></glyph
><glyph unicode="&#xb7;" horiz-adv-x="651" d="M219 838H430V584H219V838Z"
></glyph
><glyph unicode="&#xb8;" horiz-adv-x="1024" d="M596 0q55 -62 82 -114.5T705 -215q0 -89 -60 -134.5T467 -395q-46 0 -89.5 6T291 -371v131q34 -17 71 -24.5t84 -7.5q59 0 89 24t30 70q0 30 -21.5 73.5T477 0H596Z"
></glyph
><glyph unicode="&#xb9;" horiz-adv-x="821" d="M156 778H360v611L137 1348v116l230 39H504V778H709V668H156V778Z"
></glyph
><glyph unicode="&#xba;" horiz-adv-x="965" d="M139 592H827V469H139V592ZM483 1520q179 0 282 -110.5T868 1108Q868 917 765 807.5T483 698Q304 698 200 808T96 1108q0 191 104 301.5T483 1520ZM483 1405q-105 0 -168 -80.5T252 1108q0 -133 63.5 -213T483 815q105 0 167.5 80T713 1108q0 137 -62 217t-168 80Z"
></glyph
><glyph unicode="&#xbb;" horiz-adv-x="1253" d="M193 1059L662 641V559L193 141V332L494 600L193 868v191ZM627 1059L1096 641V559L627 141V332L928 600L627 868v191Z"
></glyph
><glyph unicode="&#xbc;" horiz-adv-x="1985" d="M156 778H360v611L137 1348v116l230 39H504V778H709V668H156V778ZM1378 1520h160L606 -29H446l932 1549ZM1640 714L1331 295h309V714ZM1618 835h166V295h135V186H1784V0H1640V186H1226V307l392 528Z"
></glyph
><glyph unicode="&#xbd;" horiz-adv-x="1985" d="M156 778H360v611L137 1348v116l230 39H504V778H709V668H156V778ZM1378 1520h160L606 -29H446l932 1549ZM1431 114h424V0H1257V110q34 31 97 87q344 305 344 399q0 66 -52 106.5T1509 743q-52 0 -113 -17.5T1263 673V796q77 28 143.5 42T1530 852q145 0 232 -66t87 -174q0 -139 -331 -423q-56 -48 -87 -75Z"
></glyph
><glyph unicode="&#xbe;" horiz-adv-x="1985" d="M524 1120q92 -18 142.5 -72.5T717 911Q717 787 622 720T350 653q-57 0 -119.5 10.5T98 694V815q52 -27 111.5 -40T336 762q109 0 169 39.5T565 911q0 74 -55.5 112T346 1061H260v108h94q94 0 142.5 31.5T545 1292q0 58 -50 88.5T350 1411q-40 0 -91 -9T127 1370v115q73 17 137 26t119 9q144 0 228.5 -59T696 1303q0 -69 -45 -117T524 1120ZM1378 1520h160L606 -29H446l932 1549ZM1640 714L1331 295h309V714ZM1618 835h166V295h135V186H1784V0H1640V186H1226V307l392 528Z"
></glyph
><glyph unicode="&#xbf;" horiz-adv-x="1087" d="M500 1092H690V936Q690 835 662.5 770T545 618L455 530Q397 477 371.5 430T346 334q0 -89 65.5 -144T586 135q78 0 168 35T940 272V84Q846 27 750 -1T551 -29Q367 -29 255 68T143 324q0 76 36.5 144.5T305 623l88 86q48 47 67 73.5T487 834q7 21 10 51t3 84v123ZM696 1239H494v254H696V1239Z"
></glyph
><glyph unicode="&#xc0;" horiz-adv-x="1401" d="M700 1294L426 551H975L700 1294ZM586 1493H815L1384 0H1174L1038 383H365L229 0H16L586 1493ZM643 1899L839 1635H686L456 1899H643Z"
></glyph
><glyph unicode="&#xc1;" horiz-adv-x="1401" d="M700 1294L426 551H975L700 1294ZM586 1493H815L1384 0H1174L1038 383H365L229 0H16L586 1493ZM755 1899H940L712 1635H559l196 264Z"
></glyph
><glyph unicode="&#xc2;" horiz-adv-x="1401" d="M700 1294L426 551H975L700 1294ZM586 1493H815L1384 0H1174L1038 383H365L229 0H16L586 1493ZM606 1901H794l211 -266H866L700 1813L534 1635H395l211 266Z"
></glyph
><glyph unicode="&#xc3;" horiz-adv-x="1401" d="M700 1294L426 551H975L700 1294ZM586 1493H815L1384 0H1174L1038 383H365L229 0H16L586 1493ZM696 1710l-57 33q-25 14 -40.5 19.5T571 1768q-36 0 -56 -25t-20 -70v-6H370q0 101 51.5 160T559 1886q36 0 66.5 -8T704 1843l57 -30q23 -13 40 -19t32 -6q32 0 52 25.5t20 66.5v6h125q-2 -100 -53.5 -159.5T841 1667q-34 0 -63.5 8T696 1710Z"
></glyph
><glyph unicode="&#xc4;" horiz-adv-x="1401" d="M700 1294L426 551H975L700 1294ZM586 1493H815L1384 0H1174L1038 383H365L229 0H16L586 1493ZM794 1870H997V1667H794v203ZM403 1870H606V1667H403v203Z"
></glyph
><glyph unicode="&#xc5;" horiz-adv-x="1401" d="M852 1626q0 63 -44.5 107.5T700 1778q-64 0 -107.5 -43.5T549 1626q0 -63 44 -107t107 -44q63 0 107.5 44T852 1626ZM700 1294L428 551H973L700 1294ZM549 1397q-61 41 -92 98.5T426 1626q0 115 79.5 195T700 1901q114 0 194.5 -80.5T975 1626q0 -70 -31.5 -129T852 1397L1384 0H1174L1038 383H365L229 0H16L549 1397Z"
></glyph
><glyph unicode="&#xc6;" horiz-adv-x="1995" d="M1845 1493V1323H1104V881h711V711H1104V170h760V0H901V383H373L213 0H8L633 1493H1845ZM772 1335L442 551H901v784H772Z"
></glyph
><glyph unicode="&#xc7;" horiz-adv-x="1430" d="M1319 1378V1165q-102 95 -217.5 142T856 1354q-256 0 -392 -156.5T328 745Q328 450 464 293.5T856 137q130 0 245.5 47T1319 326V115Q1213 43 1094.5 7T844 -29Q505 -29 310 178.5T115 745q0 360 195 567.5T844 1520q134 0 252.5 -35.5T1319 1378ZM897 0q55 -62 82 -114.5T1006 -215q0 -89 -60 -134.5T768 -395q-46 0 -89.5 6T592 -371v131q34 -17 71 -24.5t84 -7.5q59 0 89 24t30 70q0 30 -21.5 73.5T778 0H897Z"
></glyph
><glyph unicode="&#xc8;" horiz-adv-x="1294" d="M201 1493h944V1323H403V881h711V711H403V170h760V0H201V1493ZM613 1899L809 1635H656L426 1899H613Z"
></glyph
><glyph unicode="&#xc9;" horiz-adv-x="1294" d="M201 1493h944V1323H403V881h711V711H403V170h760V0H201V1493ZM725 1899H910L682 1635H529l196 264Z"
></glyph
><glyph unicode="&#xca;" horiz-adv-x="1294" d="M201 1493h944V1323H403V881h711V711H403V170h760V0H201V1493ZM576 1901H764L975 1635H836L670 1813L504 1635H365l211 266Z"
></glyph
><glyph unicode="&#xcb;" horiz-adv-x="1294" d="M201 1493h944V1323H403V881h711V711H403V170h760V0H201V1493ZM764 1870H967V1667H764v203ZM373 1870H576V1667H373v203Z"
></glyph
><glyph unicode="&#xcc;" horiz-adv-x="604" d="M201 1493H403V0H201V1493ZM246 1899L442 1635H289L59 1899H246Z"
></glyph
><glyph unicode="&#xcd;" horiz-adv-x="604" d="M201 1493H403V0H201V1493ZM358 1899H543L315 1635H162l196 264Z"
></glyph
><glyph unicode="&#xce;" horiz-adv-x="604" d="M201 1493H403V0H201V1493ZM209 1901H397L608 1635H469L303 1813L137 1635H-2l211 266Z"
></glyph
><glyph unicode="&#xcf;" horiz-adv-x="604" d="M201 1493H403V0H201V1493ZM397 1870H600V1667H397v203ZM6 1870H209V1667H6v203Z"
></glyph
><glyph unicode="&#xd0;" horiz-adv-x="1587" d="M211 1493H627q433 0 636 -180.5T1466 748q0 -386 -203.5 -567T627 0H211V700H10V844H211v649ZM414 1327V844H750V700H414V166H657q309 0 452.5 140T1253 748q0 300 -143.5 439.5T657 1327H414Z"
></glyph
><glyph unicode="&#xd1;" horiz-adv-x="1532" d="M201 1493H473L1135 244V1493h196V0H1059L397 1249V0H201V1493ZM762 1710l-57 33q-25 14 -40.5 19.5T637 1768q-36 0 -56 -25t-20 -70v-6H436q0 101 51.5 160T625 1886q36 0 66.5 -8T770 1843l57 -30q23 -13 40 -19t32 -6q32 0 52 25.5t20 66.5v6h125q-2 -100 -53.5 -159.5T907 1667q-34 0 -63.5 8T762 1710Z"
></glyph
><glyph unicode="&#xd2;" horiz-adv-x="1612" d="M807 1356q-220 0 -349.5 -164T328 745Q328 463 457.5 299T807 135q220 0 348.5 164T1284 745q0 283 -128.5 447T807 1356ZM807 1520q314 0 502 -210.5T1497 745q0 -353 -188 -563.5T807 -29Q492 -29 303.5 181T115 745q0 354 188.5 564.5T807 1520ZM750 1899L946 1635H793L563 1899H750Z"
></glyph
><glyph unicode="&#xd3;" horiz-adv-x="1612" d="M807 1356q-220 0 -349.5 -164T328 745Q328 463 457.5 299T807 135q220 0 348.5 164T1284 745q0 283 -128.5 447T807 1356ZM807 1520q314 0 502 -210.5T1497 745q0 -353 -188 -563.5T807 -29Q492 -29 303.5 181T115 745q0 354 188.5 564.5T807 1520ZM862 1899h185L819 1635H666l196 264Z"
></glyph
><glyph unicode="&#xd4;" horiz-adv-x="1612" d="M807 1356q-220 0 -349.5 -164T328 745Q328 463 457.5 299T807 135q220 0 348.5 164T1284 745q0 283 -128.5 447T807 1356ZM807 1520q314 0 502 -210.5T1497 745q0 -353 -188 -563.5T807 -29Q492 -29 303.5 181T115 745q0 354 188.5 564.5T807 1520ZM713 1901H901l211 -266H973L807 1813L641 1635H502l211 266Z"
></glyph
><glyph unicode="&#xd5;" horiz-adv-x="1612" d="M807 1356q-220 0 -349.5 -164T328 745Q328 463 457.5 299T807 135q220 0 348.5 164T1284 745q0 283 -128.5 447T807 1356ZM807 1520q314 0 502 -210.5T1497 745q0 -353 -188 -563.5T807 -29Q492 -29 303.5 181T115 745q0 354 188.5 564.5T807 1520ZM803 1710l-57 33q-25 14 -40.5 19.5T678 1768q-36 0 -56 -25t-20 -70v-6H477q0 101 51.5 160T666 1886q36 0 66.5 -8T811 1843l57 -30q23 -13 40 -19t32 -6q32 0 52 25.5t20 66.5v6h125q-2 -100 -53.5 -159.5T948 1667q-34 0 -63.5 8T803 1710Z"
></glyph
><glyph unicode="&#xd6;" horiz-adv-x="1612" d="M807 1356q-220 0 -349.5 -164T328 745Q328 463 457.5 299T807 135q220 0 348.5 164T1284 745q0 283 -128.5 447T807 1356ZM807 1520q314 0 502 -210.5T1497 745q0 -353 -188 -563.5T807 -29Q492 -29 303.5 181T115 745q0 354 188.5 564.5T807 1520ZM901 1870h203V1667H901v203ZM510 1870H713V1667H510v203Z"
></glyph
><glyph unicode="&#xd7;" horiz-adv-x="1716" d="M1436 1100L979 641L1436 184L1317 63L858 522L399 63L281 184L737 641L281 1100l118 121L858 762l459 459l119 -121Z"
></glyph
><glyph unicode="&#xd8;" horiz-adv-x="1612" d="M1206 1112L489 266q62 -64 142.5 -97.5T807 135q220 0 348.5 164T1284 745q0 112 -19.5 204T1206 1112ZM1124 1225q-61 64 -141.5 97.5T807 1356q-220 0 -349.5 -164T328 745q0 -112 19.5 -206T406 377l718 848ZM272 219Q194 321 154.5 453T115 745q0 354 188.5 564.5T807 1520q130 0 240.5 -38.5T1245 1368l162 191l102 -89L1339 1272q78 -103 118 -236t40 -291q0 -353 -188 -563.5T807 -29Q679 -29 568.5 8.5T367 121L205 -70L102 18L272 219Z"
></glyph
><glyph unicode="&#xd9;" horiz-adv-x="1499" d="M178 1493H381V586q0 -240 87 -345.5T750 135q194 0 281 105.5T1118 586v907h203V561q0 -292 -144.5 -441T750 -29Q467 -29 322.5 120T178 561v932ZM693 1899L889 1635H736L506 1899H693Z"
></glyph
><glyph unicode="&#xda;" horiz-adv-x="1499" d="M178 1493H381V586q0 -240 87 -345.5T750 135q194 0 281 105.5T1118 586v907h203V561q0 -292 -144.5 -441T750 -29Q467 -29 322.5 120T178 561v932ZM805 1899H990L762 1635H609l196 264Z"
></glyph
><glyph unicode="&#xdb;" horiz-adv-x="1499" d="M178 1493H381V586q0 -240 87 -345.5T750 135q194 0 281 105.5T1118 586v907h203V561q0 -292 -144.5 -441T750 -29Q467 -29 322.5 120T178 561v932ZM656 1901H844l211 -266H916L750 1813L584 1635H445l211 266Z"
></glyph
><glyph unicode="&#xdc;" horiz-adv-x="1499" d="M178 1493H381V586q0 -240 87 -345.5T750 135q194 0 281 105.5T1118 586v907h203V561q0 -292 -144.5 -441T750 -29Q467 -29 322.5 120T178 561v932ZM844 1870h203V1667H844v203ZM453 1870H656V1667H453v203Z"
></glyph
><glyph unicode="&#xdd;" horiz-adv-x="1251" d="M-4 1493H213L627 879l411 614h217L727 711V0H524V711L-4 1493ZM682 1899H867L639 1635H486l196 264Z"
></glyph
><glyph unicode="&#xde;" horiz-adv-x="1239" d="M201 1493H403V1229H657q251 0 379.5 -112.5T1165 784q0 -220 -128.5 -333T657 338H403V0H201V1493ZM403 1063V504H657q141 0 218 73t77 207q0 134 -76.5 206.5T657 1063H403Z"
></glyph
><glyph unicode="&#xdf;" horiz-adv-x="1290" d="M186 1137q0 200 119.5 309.5T643 1556q208 0 317.5 -116T1073 1100q-151 -8 -235 -65.5T754 881q0 -47 29 -87.5T877 711l57 -37Q1100 568 1148 497t48 -171Q1196 154 1083.5 62.5T760 -29q-64 0 -132 12.5T487 20V184q80 -30 150 -44.5T772 125q116 0 176 47.5T1008 311q0 63 -29.5 105T848 520l-92 55Q660 634 616.5 701.5T573 860q0 127 83.5 213T891 1188q-8 103 -73.5 159T639 1403q-130 0 -198 -69.5T373 1133V0H186V1137Z"
></glyph
><glyph unicode="&#xe0;" horiz-adv-x="1255" d="M702 563Q479 563 393 512T307 338q0 -98 64.5 -155.5T547 125q153 0 245.5 108.5T885 522v41H702ZM1069 639V0H885V170Q822 68 728 19.5T498 -29Q326 -29 224.5 67.5T123 326q0 189 126.5 285T627 707H885v18q0 127 -83.5 196.5T567 991q-96 0 -187 -23T205 899v170q101 39 196 58.5T586 1147q243 0 363 -126T1069 639ZM449 1638L731 1264H578L252 1638H449Z"
></glyph
><glyph unicode="&#xe1;" horiz-adv-x="1255" d="M702 563Q479 563 393 512T307 338q0 -98 64.5 -155.5T547 125q153 0 245.5 108.5T885 522v41H702ZM1069 639V0H885V170Q822 68 728 19.5T498 -29Q326 -29 224.5 67.5T123 326q0 189 126.5 285T627 707H885v18q0 127 -83.5 196.5T567 991q-96 0 -187 -23T205 899v170q101 39 196 58.5T586 1147q243 0 363 -126T1069 639ZM733 1638H932L606 1262H453l280 376Z"
></glyph
><glyph unicode="&#xe2;" horiz-adv-x="1255" d="M702 563Q479 563 393 512T307 338q0 -98 64.5 -155.5T547 125q153 0 245.5 108.5T885 522v41H702ZM1069 639V0H885V170Q822 68 728 19.5T498 -29Q326 -29 224.5 67.5T123 326q0 189 126.5 285T627 707H885v18q0 127 -83.5 196.5T567 991q-96 0 -187 -23T205 899v170q101 39 196 58.5T586 1147q243 0 363 -126T1069 639ZM520 1638H668L913 1262H774L594 1507L414 1262H275l245 376Z"
></glyph
><glyph unicode="&#xe3;" horiz-adv-x="1255" d="M702 563Q479 563 393 512T307 338q0 -98 64.5 -155.5T547 125q153 0 245.5 108.5T885 522v41H702ZM1069 639V0H885V170Q822 68 728 19.5T498 -29Q326 -29 224.5 67.5T123 326q0 189 126.5 285T627 707H885v18q0 127 -83.5 196.5T567 991q-96 0 -187 -23T205 899v170q101 39 196 58.5T586 1147q243 0 363 -126T1069 639ZM590 1370l-57 55q-22 20 -38.5 29.5T465 1464q-38 0 -56 -36.5T389 1309H264q2 135 53 208.5T459 1591q38 0 70 -14t69 -47l57 -55q22 -20 38.5 -29.5T723 1436q38 0 56 36.5T799 1591H924q-2 -135 -53 -208.5T729 1309q-38 0 -70 14t-69 47Z"
></glyph
><glyph unicode="&#xe4;" horiz-adv-x="1255" d="M702 563Q479 563 393 512T307 338q0 -98 64.5 -155.5T547 125q153 0 245.5 108.5T885 522v41H702ZM1069 639V0H885V170Q822 68 728 19.5T498 -29Q326 -29 224.5 67.5T123 326q0 189 126.5 285T627 707H885v18q0 127 -83.5 196.5T567 991q-96 0 -187 -23T205 899v170q101 39 196 58.5T586 1147q243 0 363 -126T1069 639ZM688 1552H891V1350H688v202ZM297 1552H500V1350H297v202Z"
></glyph
><glyph unicode="&#xe5;" horiz-adv-x="1255" d="M702 563Q479 563 393 512T307 338q0 -98 64.5 -155.5T547 125q153 0 245.5 108.5T885 522v41H702ZM1069 639V0H885V170Q822 68 728 19.5T498 -29Q326 -29 224.5 67.5T123 326q0 189 126.5 285T627 707H885v18q0 127 -83.5 196.5T567 991q-96 0 -187 -23T205 899v170q101 39 196 58.5T586 1147q243 0 363 -126T1069 639ZM746 1524q0 63 -44 107t-108 44q-65 0 -108.5 -43.5T442 1524q0 -65 43.5 -108.5T594 1372q64 0 108 44t44 108ZM868 1524q0 -115 -79.5 -195T594 1249q-115 0 -194.5 80T320 1524q0 115 79.5 194.5T594 1798q115 0 194.5 -79.5T868 1524Z"
></glyph
><glyph unicode="&#xe6;" horiz-adv-x="2011" d="M1718 660q-1 151 -83.5 241T1415 991q-153 0 -245.5 -87T1063 659l655 1ZM995 963q74 90 180 137t238 47q226 0 358 -145.5T1903 606V516H1057q12 -191 114 -291T1456 125q104 0 204 26.5T1860 231V57Q1760 15 1656 -7T1446 -29q-167 0 -291 60.5T954 211Q881 91 773 31T522 -29Q333 -29 228 64.5T123 326q0 189 126.5 285T627 707H885v18q0 127 -83.5 196.5T567 991q-96 0 -187 -23T205 899v170q101 39 196 58.5T586 1147q142 0 248.5 -48T995 963ZM702 563Q479 563 393 512T307 338q0 -98 64.5 -155.5T547 125q153 0 245.5 108.5T885 522v41H702Z"
></glyph
><glyph unicode="&#xe7;" horiz-adv-x="1126" d="M999 1077V905q-78 43 -156.5 64.5T684 991Q505 991 406 877.5T307 559q0 -205 99 -318.5T684 127q80 0 158.5 21.5T999 213V43Q922 7 839.5 -11T664 -29Q411 -29 262 130T113 559q0 274 150.5 431T676 1147q85 0 166 -17.5T999 1077ZM739 0q55 -62 82 -114.5T848 -215q0 -89 -60 -134.5T610 -395q-46 0 -89.5 6T434 -371v131q34 -17 71 -24.5t84 -7.5q59 0 89 24t30 70q0 30 -21.5 73.5T620 0H739Z"
></glyph
><glyph unicode="&#xe8;" horiz-adv-x="1260" d="M1151 606V516H305Q317 326 419.5 226.5T705 127q106 0 205.5 26T1108 231V57Q1009 15 905 -7T694 -29Q426 -29 269.5 127T113 549q0 275 148.5 436.5T662 1147q226 0 357.5 -145.5T1151 606ZM967 660q-2 151 -84.5 241T664 991Q510 991 417.5 904T311 659l656 1ZM506 1638L788 1264H635L309 1638H506Z"
></glyph
><glyph unicode="&#xe9;" horiz-adv-x="1260" d="M1151 606V516H305Q317 326 419.5 226.5T705 127q106 0 205.5 26T1108 231V57Q1009 15 905 -7T694 -29Q426 -29 269.5 127T113 549q0 275 148.5 436.5T662 1147q226 0 357.5 -145.5T1151 606ZM967 660q-2 151 -84.5 241T664 991Q510 991 417.5 904T311 659l656 1ZM790 1638H989L663 1262H510l280 376Z"
></glyph
><glyph unicode="&#xea;" horiz-adv-x="1260" d="M1151 606V516H305Q317 326 419.5 226.5T705 127q106 0 205.5 26T1108 231V57Q1009 15 905 -7T694 -29Q426 -29 269.5 127T113 549q0 275 148.5 436.5T662 1147q226 0 357.5 -145.5T1151 606ZM967 660q-2 151 -84.5 241T664 991Q510 991 417.5 904T311 659l656 1ZM577 1638H725L970 1262H831L651 1507L471 1262H332l245 376Z"
></glyph
><glyph unicode="&#xeb;" horiz-adv-x="1260" d="M1151 606V516H305Q317 326 419.5 226.5T705 127q106 0 205.5 26T1108 231V57Q1009 15 905 -7T694 -29Q426 -29 269.5 127T113 549q0 275 148.5 436.5T662 1147q226 0 357.5 -145.5T1151 606ZM967 660q-2 151 -84.5 241T664 991Q510 991 417.5 904T311 659l656 1ZM745 1552H948V1350H745v202ZM354 1552H557V1350H354v202Z"
></glyph
><glyph unicode="&#xec;" horiz-adv-x="569" d="M193 1120H377V0H193V1120ZM140 1638L422 1264H269L-57 1638H140Z"
></glyph
><glyph unicode="&#xed;" horiz-adv-x="569" d="M193 1120H377V0H193V1120ZM424 1638H623L297 1262H144l280 376Z"
></glyph
><glyph unicode="&#xee;" horiz-adv-x="569" d="M193 1120H377V0H193V1120ZM211 1638H359L604 1262H465L285 1507L105 1262H-34l245 376Z"
></glyph
><glyph unicode="&#xef;" horiz-adv-x="569" d="M193 1120H377V0H193V1120ZM379 1552H582V1350H379v202ZM-12 1552H191V1350H-12v202Z"
></glyph
><glyph unicode="&#xf0;" horiz-adv-x="1253" d="M838 915q-50 17 -94 25t-85 8Q492 948 399.5 840T307 537q0 -188 87 -299T627 127q145 0 232 111t87 299q0 122 -27 216T838 915ZM901 1141Q1027 998 1084 854t57 -317Q1141 282 999 126.5T627 -29Q396 -29 254.5 126.5T113 537q0 250 138 405.5T610 1098q18 0 44 -2.5t68 -7.5L563 1268L244 1161l-33 99l281 92L311 1556H539L666 1411l333 111l33 -97L737 1327L901 1141Z"
></glyph
><glyph unicode="&#xf1;" horiz-adv-x="1298" d="M1124 676V0H940V670q0 159 -62 238T692 987Q543 987 457 892T371 633V0H186V1120H371V946q66 101 155.5 151T733 1147q193 0 292 -119.5T1124 676ZM660 1370l-57 55q-22 20 -38.5 29.5T535 1464q-38 0 -56 -36.5T459 1309H334q2 135 53 208.5T529 1591q38 0 70 -14t69 -47l57 -55q22 -20 38.5 -29.5T793 1436q38 0 56 36.5T869 1591H994q-2 -135 -53 -208.5T799 1309q-38 0 -70 14t-69 47Z"
></glyph
><glyph unicode="&#xf2;" horiz-adv-x="1253" d="M627 991Q479 991 393 875.5T307 559q0 -201 85.5 -316.5T627 127q147 0 233 116t86 316q0 199 -86 315.5T627 991ZM627 1147q240 0 377 -156T1141 559q0 -275 -137 -431.5T627 -29Q386 -29 249.5 127.5T113 559q0 276 136.5 432T627 1147ZM482 1638L764 1264H611L285 1638H482Z"
></glyph
><glyph unicode="&#xf3;" horiz-adv-x="1253" d="M627 991Q479 991 393 875.5T307 559q0 -201 85.5 -316.5T627 127q147 0 233 116t86 316q0 199 -86 315.5T627 991ZM627 1147q240 0 377 -156T1141 559q0 -275 -137 -431.5T627 -29Q386 -29 249.5 127.5T113 559q0 276 136.5 432T627 1147ZM766 1638H965L639 1262H486l280 376Z"
></glyph
><glyph unicode="&#xf4;" horiz-adv-x="1253" d="M627 991Q479 991 393 875.5T307 559q0 -201 85.5 -316.5T627 127q147 0 233 116t86 316q0 199 -86 315.5T627 991ZM627 1147q240 0 377 -156T1141 559q0 -275 -137 -431.5T627 -29Q386 -29 249.5 127.5T113 559q0 276 136.5 432T627 1147ZM553 1638H701L946 1262H807L627 1507L447 1262H308l245 376Z"
></glyph
><glyph unicode="&#xf5;" horiz-adv-x="1253" d="M627 991Q479 991 393 875.5T307 559q0 -201 85.5 -316.5T627 127q147 0 233 116t86 316q0 199 -86 315.5T627 991ZM627 1147q240 0 377 -156T1141 559q0 -275 -137 -431.5T627 -29Q386 -29 249.5 127.5T113 559q0 276 136.5 432T627 1147ZM623 1370l-57 55q-22 20 -38.5 29.5T498 1464q-38 0 -56 -36.5T422 1309H297q2 135 53 208.5T492 1591q38 0 70 -14t69 -47l57 -55q22 -20 38.5 -29.5T756 1436q38 0 56 36.5T832 1591H957q-2 -135 -53 -208.5T762 1309q-38 0 -70 14t-69 47Z"
></glyph
><glyph unicode="&#xf6;" horiz-adv-x="1253" d="M627 991Q479 991 393 875.5T307 559q0 -201 85.5 -316.5T627 127q147 0 233 116t86 316q0 199 -86 315.5T627 991ZM627 1147q240 0 377 -156T1141 559q0 -275 -137 -431.5T627 -29Q386 -29 249.5 127.5T113 559q0 276 136.5 432T627 1147ZM721 1552H924V1350H721v202ZM330 1552H533V1350H330v202Z"
></glyph
><glyph unicode="&#xf7;" horiz-adv-x="1716" d="M735 1135H981V889H735v246ZM735 395H981V150H735V395ZM217 727H1499V557H217V727Z"
></glyph
><glyph unicode="&#xf8;" horiz-adv-x="1253" d="M905 801L418 209q41 -42 92.5 -62T627 127q147 0 233 116t86 316q0 79 -10 137.5T905 801ZM834 909q-42 41 -93.5 61.5T627 991Q476 991 391.5 873.5T307 545q0 -72 9.5 -127T346 317L834 909ZM221 166q-54 77 -81 175.5T113 559q0 276 136.5 432T627 1147q93 0 172.5 -25.5T946 1044l139 168l95 -79L1034 954q53 -77 80 -176t27 -219q0 -275 -137 -431.5T627 -29q-96 0 -176.5 26T307 74L168 -94L72 -16L221 166Z"
></glyph
><glyph unicode="&#xf9;" horiz-adv-x="1298" d="M174 442v678H358V449q0 -159 62 -238.5T606 131q149 0 235.5 95T928 485v635h184V0H928V172Q861 70 772.5 20.5T567 -29Q374 -29 274 91T174 442ZM490 1638L772 1264H619L293 1638H490Z"
></glyph
><glyph unicode="&#xfa;" horiz-adv-x="1298" d="M174 442v678H358V449q0 -159 62 -238.5T606 131q149 0 235.5 95T928 485v635h184V0H928V172Q861 70 772.5 20.5T567 -29Q374 -29 274 91T174 442ZM774 1638H973L647 1262H494l280 376Z"
></glyph
><glyph unicode="&#xfb;" horiz-adv-x="1298" d="M174 442v678H358V449q0 -159 62 -238.5T606 131q149 0 235.5 95T928 485v635h184V0H928V172Q861 70 772.5 20.5T567 -29Q374 -29 274 91T174 442ZM561 1638H709L954 1262H815L635 1507L455 1262H316l245 376Z"
></glyph
><glyph unicode="&#xfc;" horiz-adv-x="1298" d="M174 442v678H358V449q0 -159 62 -238.5T606 131q149 0 235.5 95T928 485v635h184V0H928V172Q861 70 772.5 20.5T567 -29Q374 -29 274 91T174 442ZM729 1552H932V1350H729v202ZM338 1552H541V1350H338v202Z"
></glyph
><glyph unicode="&#xfd;" horiz-adv-x="1212" d="M659 -104Q581 -304 507 -365T309 -426H162v154H270q76 0 118 36t93 170l33 84L61 1120H256L606 244l350 876h195L659 -104ZM745 1638H944L618 1262H465l280 376Z"
></glyph
><glyph unicode="&#xfe;" horiz-adv-x="1300" d="M371 168V-426H186V1556H371V950q58 100 146.5 148.5T729 1147q204 0 331.5 -162T1188 559q0 -264 -127.5 -426T729 -29Q606 -29 517.5 19.5T371 168ZM997 559q0 203 -83.5 318.5T684 993Q538 993 454.5 877.5T371 559q0 -203 83.5 -318.5T684 125q146 0 229.5 115.5T997 559Z"
></glyph
><glyph unicode="&#xff;" horiz-adv-x="1212" d="M659 -104Q581 -304 507 -365T309 -426H162v154H270q76 0 118 36t93 170l33 84L61 1120H256L606 244l350 876h195L659 -104ZM700 1552H903V1350H700v202ZM309 1552H512V1350H309v202Z"
></glyph
><glyph unicode="&#x106;" horiz-adv-x="1430" d="M1319 1378V1165q-102 95 -217.5 142T856 1354q-256 0 -392 -156.5T328 745Q328 450 464 293.5T856 137q130 0 245.5 47T1319 326V115Q1213 43 1094.5 7T844 -29Q505 -29 310 178.5T115 745q0 360 195 567.5T844 1520q134 0 252.5 -35.5T1319 1378ZM868 1899h185L825 1635H672l196 264Z"
></glyph
><glyph unicode="&#x107;" horiz-adv-x="1126" d="M999 1077V905q-78 43 -156.5 64.5T684 991Q505 991 406 877.5T307 559q0 -205 99 -318.5T684 127q80 0 158.5 21.5T999 213V43Q922 7 839.5 -11T664 -29Q411 -29 262 130T113 559q0 274 150.5 431T676 1147q85 0 166 -17.5T999 1077ZM788 1638H987L661 1262H508l280 376Z"
></glyph
><glyph unicode="&#x10c;" horiz-adv-x="1430" d="M1319 1378V1165q-102 95 -217.5 142T856 1354q-256 0 -392 -156.5T328 745Q328 450 464 293.5T856 137q130 0 245.5 47T1319 326V115Q1213 43 1094.5 7T844 -29Q505 -29 310 178.5T115 745q0 360 195 567.5T844 1520q134 0 252.5 -35.5T1319 1378ZM719 1635L508 1901H647L813 1723l166 178h139L907 1635H719Z"
></glyph
><glyph unicode="&#x10d;" horiz-adv-x="1126" d="M999 1077V905q-78 43 -156.5 64.5T684 991Q505 991 406 877.5T307 559q0 -205 99 -318.5T684 127q80 0 158.5 21.5T999 213V43Q922 7 839.5 -11T664 -29Q411 -29 262 130T113 559q0 274 150.5 431T676 1147q85 0 166 -17.5T999 1077ZM575 1262L330 1638H469L649 1393l180 245H968L723 1262H575Z"
></glyph
><glyph unicode="&#x111;" horiz-adv-x="1300" d="M930 950v334H604v125H930v147h184V1409h154V1284H1114V0H930V168Q872 68 783.5 19.5T571 -29Q368 -29 240.5 133T113 559q0 264 127.5 426T571 1147q124 0 212.5 -48.5T930 950ZM303 559q0 -203 83.5 -318.5T616 125q146 0 230 115.5T930 559q0 203 -84 318.5T616 993Q470 993 386.5 877.5T303 559Z"
></glyph
><glyph unicode="&#x11e;" horiz-adv-x="1587" d="M1219 213V614H889V780h530V139Q1302 56 1161 13.5T860 -29Q510 -29 312.5 175.5T115 745q0 366 197.5 570.5T860 1520q146 0 277.5 -36T1380 1378V1163q-112 95 -238 143t-265 48q-274 0 -411.5 -153T328 745Q328 443 465.5 290T877 137q107 0 191 18.5T1219 213ZM482 1901H600q13 -54 62.5 -82.5T795 1790q82 0 130.5 27.5T990 1901h118q-10 -119 -90 -180.5T795 1659q-144 0 -223.5 61T482 1901Z"
></glyph
><glyph unicode="&#x11f;" horiz-adv-x="1300" d="M930 573q0 200 -82.5 310T616 993Q468 993 385.5 883T303 573q0 -199 82.5 -309T616 154q149 0 231.5 110T930 573ZM1114 139q0 -286 -127 -425.5T598 -426q-97 0 -183 14.5T248 -367v179q81 -44 160 -65t161 -21q181 0 271 94.5T930 106v91Q873 98 784 49T571 0Q365 0 239 157T113 573q0 260 126 417t332 157q124 0 213 -49T930 950v170h184V139ZM338 1608H456q11 -75 59.5 -112.5T651 1458q86 0 134 37t61 113H964Q954 1465 875 1393T651 1321q-145 0 -224 72t-89 215Z"
></glyph
><glyph unicode="&#x130;" horiz-adv-x="604" d="M201 1493H403V0H201V1493ZM201 1872H405V1667H201v205Z"
></glyph
><glyph unicode="&#x131;" horiz-adv-x="569" d="M193 1120H377V0H193V1120Z"
></glyph
><glyph unicode="&#x141;" horiz-adv-x="1151" d="M211 1493H414V877l313 219L807 985L414 711V170h727V0H211V571L63 465L-14 575L211 733v760Z"
></glyph
><glyph unicode="&#x142;" horiz-adv-x="582" d="M199 1556H383V954l125 90L584 938L383 797V0H199V666L76 578L2 684L199 825v731Z"
></glyph
><glyph unicode="&#x152;" horiz-adv-x="2191" d="M2042 1493V1323H1300V881h711V711H1300V170h760V0H995Q562 0 338.5 190T115 748q0 365 223.5 555T995 1493H2042ZM1098 1323H969q-321 0 -481 -143.5T328 748Q328 459 488 314.5T969 170h129V1323Z"
></glyph
><glyph unicode="&#x153;" horiz-adv-x="2095" d="M1802 660q-2 152 -84 241.5T1499 991q-153 0 -245.5 -87T1147 659l655 1ZM1987 606V516H1141q12 -190 114 -289.5T1540 127q106 0 206 26t198 78V57Q1844 15 1740 -7T1530 -29q-160 0 -281 55T1047 190Q976 80 871.5 25.5T627 -29Q386 -29 249.5 127.5T113 559q0 276 136.5 432T627 1147q140 0 245.5 -55.5T1044 928q78 107 194 163t259 56q226 0 358 -145.5T1987 606ZM627 991Q479 991 393 875.5T307 559q0 -201 85.5 -316.5T627 127q147 0 233 116t86 316q0 199 -86 315.5T627 991Z"
></glyph
><glyph unicode="&#x15e;" horiz-adv-x="1300" d="M1096 1444V1247q-115 55 -217 82t-197 27q-165 0 -254.5 -64T338 1110q0 -99 59.5 -149.5T623 879L745 854Q971 811 1078.5 702.5T1186 412Q1186 195 1040.5 83T614 -29Q508 -29 388.5 -5T141 66V274Q264 205 382 170T614 135q173 0 267 68t94 194q0 110 -67.5 172T686 662L563 686Q337 731 236 827T135 1094q0 198 139.5 312T659 1520q105 0 214 -19t223 -57ZM735 0q55 -62 82 -114.5T844 -215q0 -89 -60 -134.5T606 -395q-46 0 -89.5 6T430 -371v131q34 -17 71 -24.5t84 -7.5q59 0 89 24t30 70q0 30 -21.5 73.5T616 0H735Z"
></glyph
><glyph unicode="&#x15f;" horiz-adv-x="1067" d="M907 1087V913q-78 40 -162 60T571 993Q434 993 365.5 951T297 825q0 -64 49 -100.5T543 655l63 -14Q802 599 884.5 522.5T967 309Q967 153 843.5 62T504 -29q-90 0 -187.5 17.5T111 41V231Q213 178 312 151.5T508 125q130 0 200 44.5T778 295q0 75 -50.5 115T506 487l-64 15Q271 538 195 612.5T119 817q0 158 112 244t318 86q102 0 192 -15t166 -45ZM619 0q55 -62 82 -114.5T728 -215q0 -89 -60 -134.5T490 -395q-46 0 -89.5 6T314 -371v131q34 -17 71 -24.5t84 -7.5q59 0 89 24t30 70q0 30 -21.5 73.5T500 0H619Z"
></glyph
><glyph unicode="&#x160;" horiz-adv-x="1300" d="M1096 1444V1247q-115 55 -217 82t-197 27q-165 0 -254.5 -64T338 1110q0 -99 59.5 -149.5T623 879L745 854Q971 811 1078.5 702.5T1186 412Q1186 195 1040.5 83T614 -29Q508 -29 388.5 -5T141 66V274Q264 205 382 170T614 135q173 0 267 68t94 194q0 110 -67.5 172T686 662L563 686Q337 731 236 827T135 1094q0 198 139.5 312T659 1520q105 0 214 -19t223 -57ZM557 1635L346 1901H485L651 1723l166 178H956L745 1635H557Z"
></glyph
><glyph unicode="&#x161;" horiz-adv-x="1067" d="M907 1087V913q-78 40 -162 60T571 993Q434 993 365.5 951T297 825q0 -64 49 -100.5T543 655l63 -14Q802 599 884.5 522.5T967 309Q967 153 843.5 62T504 -29q-90 0 -187.5 17.5T111 41V231Q213 178 312 151.5T508 125q130 0 200 44.5T778 295q0 75 -50.5 115T506 487l-64 15Q271 538 195 612.5T119 817q0 158 112 244t318 86q102 0 192 -15t166 -45ZM461 1262L216 1638H355L535 1393l180 245H854L609 1262H461Z"
></glyph
><glyph unicode="&#x178;" horiz-adv-x="1251" d="M-4 1493H213L627 879l411 614h217L727 711V0H524V711L-4 1493ZM721 1870H924V1667H721v203ZM330 1870H533V1667H330v203Z"
></glyph
><glyph unicode="&#x17d;" horiz-adv-x="1403" d="M115 1493H1288V1339L344 170h967V0H92V154l944 1169H115v170ZM608 1635L397 1901H536L702 1723l166 178h139L796 1635H608Z"
></glyph
><glyph unicode="&#x17e;" horiz-adv-x="1075" d="M113 1120H987V952L295 147H987V0H88V168L780 973H113v147ZM465 1262L220 1638H359L539 1393l180 245H858L613 1262H465Z"
></glyph
><glyph unicode="&#x192;" d="M1282 1520V1356q-38 29 -78 43t-84 14q-96 0 -153 -61T885 1159L825 848h287V705H795L668 70Q610 -215 516 -320.5T236 -426q-58 0 -108 10.5T31 -383v166q52 -33 100.5 -49.5T227 -283q97 0 151.5 68.5T467 20L604 705H356V848H635l63 330q36 183 135 280.5t250 97.5q53 0 103 -9t96 -27Z"
></glyph
><glyph unicode="&#x2c6;" horiz-adv-x="1024" d="M438 1638H586L831 1262H692L512 1507L332 1262H193l245 376Z"
></glyph
><glyph unicode="&#x2c7;" horiz-adv-x="1024" d="M438 1262L193 1638H332L512 1393l180 245H831L586 1262H438Z"
></glyph
><glyph unicode="&#x2d8;" horiz-adv-x="1024" d="M199 1608H317q11 -75 59.5 -112.5T512 1458q86 0 134 37t61 113H825Q815 1465 736 1393T512 1321q-145 0 -224 72t-89 215Z"
></glyph
><glyph unicode="&#x2d9;" horiz-adv-x="1024" d="M410 1552H614V1348H410v204Z"
></glyph
><glyph unicode="&#x2da;" horiz-adv-x="1024" d="M664 1524q0 63 -44 107t-108 44q-65 0 -108.5 -43.5T360 1524q0 -65 43.5 -108.5T512 1372q64 0 108 44t44 108ZM786 1524q0 -115 -79.5 -195T512 1249q-115 0 -194.5 80T238 1524q0 115 79.5 194.5T512 1798q115 0 194.5 -79.5T786 1524Z"
></glyph
><glyph unicode="&#x2db;" horiz-adv-x="1024" d="M440 0H559Q514 -61 492.5 -105T471 -180q0 -46 27.5 -69T580 -272q32 0 63 7.5t62 22.5V-375q-38 -10 -72 -15t-64 -5q-122 0 -179.5 43.5T332 -215q0 48 26.5 100.5T440 0Z"
></glyph
><glyph unicode="&#x2dc;" horiz-adv-x="1024" d="M508 1370l-57 55q-22 20 -38.5 29.5T383 1464q-38 0 -56 -36.5T307 1309H182q2 135 53 208.5T377 1591q38 0 70 -14t69 -47l57 -55q22 -20 38.5 -29.5T641 1436q38 0 56 36.5T717 1591H842q-2 -135 -53 -208.5T647 1309q-38 0 -70 14t-69 47Z"
></glyph
><glyph unicode="&#x2dd;" horiz-adv-x="1024" d="M764 1638H942L694 1262H559l205 376ZM430 1638H600L377 1262H240l190 376Z"
></glyph
><glyph unicode="&#x3a9;" horiz-adv-x="1565" d="M1487 178V0H887V178q177 97 276 263t99 368q0 240 -132 385T782 1339q-216 0 -348.5 -145.5T301 809q0 -202 99.5 -368T678 178V0H78V178H397Q239 317 166.5 466T94 799q0 318 191.5 515T782 1511q303 0 495.5 -196.5T1470 809q0 -194 -71 -342T1167 178h320Z"
></glyph
><glyph unicode="&#x3c0;" horiz-adv-x="1206" d="M1159 913H977L872 426Q857 352 849.5 306T842 238q0 -58 23.5 -82.5T944 131q17 0 40 2.5t60 7.5L1014 0Q984 -8 956.5 -12T903 -16Q785 -16 724.5 35T664 186q0 46 10.5 118T719 537l80 376H473L279 0H98L293 913H252q-54 0 -84 -32T129 780H-31q28 166 99.5 228.5T305 1071h889L1159 913Z"
></glyph
><glyph unicode="&#x2013;" horiz-adv-x="1024" d="M0 633H1024V489H0V633Z"
></glyph
><glyph unicode="&#x2014;" horiz-adv-x="2048" d="M0 633H2048V489H0V633Z"
></glyph
><glyph unicode="&#x2018;" horiz-adv-x="651" d="M385 1001H174v173l164 319H467L385 1174V1001Z"
></glyph
><glyph unicode="&#x2019;" horiz-adv-x="651" d="M260 1493H471V1341L307 1022H178l82 319v152Z"
></glyph
><glyph unicode="&#x201a;" horiz-adv-x="651" d="M256 254H467V82L303 -238H174L256 82V254Z"
></glyph
><glyph unicode="&#x201c;" horiz-adv-x="1061" d="M385 1001H174v173l164 319H467L385 1174V1001ZM795 1001H584v173l164 319H877L795 1174V1001Z"
></glyph
><glyph unicode="&#x201d;" horiz-adv-x="1061" d="M256 1493H467V1321L303 1001H174l82 320v172ZM666 1493H877V1321L713 1001H584l82 320v172Z"
></glyph
><glyph unicode="&#x201e;" horiz-adv-x="1061" d="M666 254H877V82L713 -238H584L666 82V254ZM256 254H467V82L303 -238H174L256 82V254Z"
></glyph
><glyph unicode="&#x2020;" horiz-adv-x="1024" d="M424 1493H600V1073H967V920H600V-197H424V920H57v153H424v420Z"
></glyph
><glyph unicode="&#x2021;" horiz-adv-x="1024" d="M967 223H600V-197H424V223H57V377H424V920H57v153H424v420H600V1073H967V920H600V377H967V223Z"
></glyph
><glyph unicode="&#x2022;" horiz-adv-x="1208" d="M307 762q0 124 86.5 209.5T606 1057q124 0 209.5 -85.5T901 762Q901 637 815 551T604 465q-125 0 -211 86T307 762Z"
></glyph
><glyph unicode="&#x2026;" horiz-adv-x="2048" d="M918 254h212V0H918V254ZM1599 254h213V0H1599V254ZM236 254H449V0H236V254Z"
></glyph
><glyph unicode="&#x2030;" horiz-adv-x="2748" d="M2292 657q-87 0 -137 -74T2105 377q0 -130 50 -204.5T2292 98q85 0 134.5 74.5T2476 377q0 131 -49.5 205.5T2292 657ZM2292 784q158 0 251 -110t93 -297q0 -187 -93.5 -296.5T2292 -29q-160 0 -253 109.5T1946 377q0 188 93.5 297.5T2292 784ZM457 1520q158 0 252 -109.5T803 1114Q803 925 709.5 816T457 707Q298 707 205.5 816.5T113 1114q0 186 93 296t251 110ZM1360 1520h160L586 -29H426l934 1549ZM457 1393q-86 0 -135.5 -74.5T272 1114q0 -132 49 -206T457 834q87 0 136.5 74T643 1114q0 129 -50 204t-136 75ZM1489 784q158 0 251 -110t93 -297q0 -187 -93.5 -296.5T1489 -29q-160 0 -253 109.5T1143 377q0 188 93.5 297.5T1489 784ZM1489 657q-87 0 -136.5 -74T1303 377q0 -130 49.5 -204.5T1489 98q85 0 134.5 74.5T1673 377q0 131 -49.5 205.5T1489 657Z"
></glyph
><glyph unicode="&#x2039;" horiz-adv-x="819" d="M627 1059V868L326 600L627 332V141L158 559v82l469 418Z"
></glyph
><glyph unicode="&#x203a;" horiz-adv-x="819" d="M193 1059L662 641V559L193 141V332L494 600L193 868v191Z"
></glyph
><glyph unicode="&#x20ac;" d="M1167 1378V1165q-91 105 -175.5 150T805 1360q-157 0 -258 -100T414 973H991L936 850H398q-2 -24 -2.5 -47T395 745q0 -32 0.5 -55T398 643H844L788 520H414Q446 333 547 232T805 131q102 0 186.5 45T1167 326V115Q1078 43 985.5 7T797 -29Q560 -29 405.5 116T211 520H0L55 643H194q0 23 -0.5 46.5T193 745q0 35 0.5 58.5T194 850H0L55 973H211q40 257 195 402t391 145q98 0 190.5 -35.5T1167 1378Z"
></glyph
><glyph unicode="&#x2122;" horiz-adv-x="2048" d="M1098 1493l174 -256l164 256h170V915H1493v484L1298 1096h-55l-203 303V915H926v578h172ZM813 1493v-94H610V915H496v484H295v94H813Z"
></glyph
><glyph unicode="&#x2202;" horiz-adv-x="1059" d="M756 621q15 87 22.5 168.5T786 946q0 129 -36.5 194.5T641 1206q-55 0 -127 -58T406 1090q-36 0 -60 22t-24 53q0 62 72 111t173 49q180 0 287 -155T961 752Q961 417 816.5 196T459 -25Q307 -25 205.5 83T104 354q0 198 110.5 326.5T487 809q101 0 166 -45.5T756 621ZM707 494q0 116 -43.5 178.5T541 735Q432 735 361.5 606T291 270Q291 154 334 92.5T457 31q109 0 179.5 130T707 494Z"
></glyph
><glyph unicode="&#x2206;" horiz-adv-x="1370" d="M684 1262L266 178h836L684 1262ZM573 1473H797L1376 0H-6L573 1473Z"
></glyph
><glyph unicode="&#x220f;" horiz-adv-x="1550" d="M156 1473H1393V-393H1153V1268H395V-393H156V1473Z"
></glyph
><glyph unicode="&#x2211;" horiz-adv-x="1380" d="M55 1473H1313V1280H354L1026 563L332 -201H1339V-393H25v149L750 557L55 1296v177Z"
></glyph
><glyph unicode="&#x2212;" horiz-adv-x="1716" d="M217 727H1499V557H217V727Z"
></glyph
><glyph unicode="&#x2215;" horiz-adv-x="342" d="M557 1520H717L-215 -29H-375L557 1520Z"
></glyph
><glyph unicode="&#x2219;" horiz-adv-x="651" d="M219 838H430V584H219V838Z"
></glyph
><glyph unicode="&#x221a;" horiz-adv-x="1305" d="M1116 1661h189v-96H1190L596 -41H530L211 842L86 797L61 877l283 98L600 266l516 1395Z"
></glyph
><glyph unicode="&#x221e;" horiz-adv-x="1706" d="M915 559q49 -88 116 -133t151 -45q101 0 165 67.5T1411 621q0 101 -59 168t-148 67q-82 0 -148.5 -67.5T915 559ZM793 666Q744 754 677.5 798T526 842Q424 842 360.5 776T297 604q0 -101 59 -168T504 369q82 0 149 68T793 666ZM864 483Q794 348 715.5 284.5T543 221Q407 221 314 332.5T221 610q0 175 83.5 283T522 1001q95 0 171.5 -63T842 737q68 138 147 203.5t176 65.5q134 0 228 -112.5T1487 614q0 -175 -83.5 -282T1186 225q-94 0 -168.5 59.5T864 483Z"
></glyph
><glyph unicode="&#x222b;" horiz-adv-x="1067" d="M311 -262q106 0 120 688q2 108 3 165q12 515 107 737t297 222q80 0 130 -42t50 -107q0 -54 -32 -85.5T899 1284q-42 0 -70 19t-40 54q-6 15 -10.5 51T758 1444Q651 1444 637 825Q633 632 629 522Q612 43 517.5 -164T227 -371q-79 0 -129.5 41.5T47 -223q0 56 34 87.5t95 31.5q33 0 57 -14.5T272 -161q10 -18 15 -59.5T311 -262Z"
></glyph
><glyph unicode="&#x2248;" horiz-adv-x="1716" d="M1499 623V444Q1394 366 1304.5 331.5T1118 297q-110 0 -256 59q-10 4 -17 7q-6 2 -21 8Q669 432 575 432q-88 0 -174 -38T217 272V451q105 78 194.5 112.5T598 598q110 0 257 -59q11 -5 16 -7q6 -2 21 -8q155 -61 249 -61q86 0 170.5 37.5T1499 623ZM1499 1012V834Q1394 755 1304.5 720.5T1118 686q-110 0 -256 59q-10 4 -17 7q-6 2 -21 8Q669 821 575 821q-88 0 -174 -38T217 662V840q105 78 194.5 112.5T598 987q110 0 257 -59q10 -4 15 -6q7 -3 22 -9q155 -61 249 -61q86 0 170.5 37.5T1499 1012Z"
></glyph
><glyph unicode="&#x2260;" horiz-adv-x="1716" d="M217 930H989l256 315l125 -102L1196 930h303V762H1059L864 522h635V352H725L467 39L342 141L516 352H217V522H655L850 762H217V930Z"
></glyph
><glyph unicode="&#x2264;" horiz-adv-x="1716" d="M1499 1016L539 739L1499 465V287L217 655V825l1282 367V1016ZM217 170H1499V0H217V170Z"
></glyph
><glyph unicode="&#x2265;" horiz-adv-x="1716" d="M217 1016v176L1499 825V655L217 287V465l961 274L217 1016ZM1499 170V0H217V170H1499Z"
></glyph
><glyph unicode="&#x25ca;" horiz-adv-x="1012" d="M506 1409L121 592L506 -233L891 592L506 1409ZM506 1653L1006 592L506 -477L6 592L506 1653Z"
></glyph
><glyph unicode="&#xfb01;" horiz-adv-x="1290" d="M1098 1120V0H913V977H408V0H223V977H47v143H223v78q0 183 86.5 270.5T575 1556H760V1403H584q-99 0 -137.5 -40T408 1219v-99h690ZM913 1554h185V1321H913v233Z"
></glyph
><glyph unicode="&#xfb02;" horiz-adv-x="1290" d="M586 1556h512V0H913V1403H584q-99 0 -137.5 -40T408 1219v-99H711V977H408V0H223V977H47v143H223v78q0 187 87 272.5T586 1556Z"
></glyph
></font
></defs
><g style="font-family: &quot;Bitstream Vera Sans&quot;; font-size:50;fill:black"
><text x="20" y="50"
>!&quot;#$%&amp;&#39;()*+,-./0123456789:;&#229;&lt;&gt;?</text
><text x="20" y="100"
>@ABCDEFGHIJKLMNOPQRSTUVWXYZ[\]^_</text
><text x="20" y="150"
>` abcdefghijklmnopqrstuvwxyz|{}~</text
></g
></svg
>