<?xml version="1.0" encoding="UTF-8" standalone="no"?>
<!DOCTYPE svg PUBLIC "-//W3C//DTD SVG 1.1//EN" "http://www.w3.org/Graphics/SVG/1.1/DTD/svg11.dtd" >
<svg xmlns="http://www.w3.org/2000/svg"
><metadata
></metadata
><defs
><font horiz-adv-x="625"
><font-face font-family="Mini" units-per-em="1000" ascent="750" descent="-250"
></font-face
><missing-glyph horiz-adv-x="500" d="M63 0V750H438V0H63ZM125 63H375V688H125V63Z"
></missing-glyph
><glyph unicode=" " horiz-adv-x="250" d=""
></glyph
><glyph unicode="!" horiz-adv-x="250" d="M125 625H0V250H125V625ZM125 125H0V0H125V125Z"
></glyph
><glyph unicode="&quot;" horiz-adv-x="500" d="M0 375H125V625H0V375ZM250 375H375V625H250V375Z"
></glyph
><glyph unicode="#" horiz-adv-x="750" d="M625 375V500H500V625H375V500H250V625H125V500H0V375H125V250H0V125H125V0H250V125H375V0H500V125H625V250H500V375H625ZM375 250H250V375H375V250Z"
></glyph
><glyph unicode="$" d="M375 625H250V500H125V375H0V250H250V375H500V500H375V625ZM0 125V0H250V-125H375V125H500V250H250V125H0Z"
></glyph
><glyph unicode="%" horiz-adv-x="750" d="M125 625H0V500H125V625ZM500 625H375V375H500V625ZM125 0H250V250H125V0ZM250 250H375V375H250V250ZM500 125V0H625V125H500Z"
></glyph
><glyph unicode="&amp;" horiz-adv-x="750" d="M375 249H125V126H375V249ZM625 0H500V125H375V0H125V125H0V250H125V375H0V500H125V625H375V500H125V375H375V250H500V375H625V250H500V125H625V0Z"
></glyph
><glyph unicode="&#39;" horiz-adv-x="250" d="M125 625H0V375H125V625Z"
></glyph
><glyph unicode="(" horiz-adv-x="375" d="M250 625H125V500H250V625ZM125 500H0V125H125V500ZM250 0V125H125V0H250Z"
></glyph
><glyph unicode=")" horiz-adv-x="375" d="M0 625V500H125V625H0ZM250 500H125V125H250V500ZM125 125H0V0H125V125Z"
></glyph
><glyph unicode="*" horiz-adv-x="500" d="M125 500V625H0V500H125ZM250 375V500H125V375H250ZM375 500V625H250V500H375ZM125 250V375H0V250H125ZM375 250V375H250V250H375Z"
></glyph
><glyph unicode="+" horiz-adv-x="500" d="M125 125H250V250H375V375H250V500H125V375H0V250H125V125Z"
></glyph
><glyph unicode="," horiz-adv-x="375" d="M125 0H250V125H125V0ZM0 -125H125V0H0V-125Z"
></glyph
><glyph unicode="-" horiz-adv-x="500" d="M0 375V250H375V375H0Z"
></glyph
><glyph unicode="." horiz-adv-x="250" d="M0 0H125V125H0V0Z"
></glyph
><glyph unicode="/" horiz-adv-x="750" d="M375 375H500V500H375V375ZM500 625V500H625V625H500ZM125 125H250V250H125V125ZM250 250H375V375H250V250ZM0 0H125V125H0V0Z"
></glyph
><glyph unicode="0" d="M375 126V499H125V126H375ZM125 125H0V500H125V625H375V500H500V125H375V0H125V125Z"
></glyph
><glyph unicode="1" horiz-adv-x="375" d="M125 0H250V625H0V500H125V0Z"
></glyph
><glyph unicode="2" d="M0 625V500H375V625H0ZM375 375H500V500H375V375ZM125 375V250H375V375H125ZM0 0H500V125H125V250H0V0Z"
></glyph
><glyph unicode="3" d="M0 625V500H375V625H0ZM375 375H500V500H375V375ZM125 375V250H375V375H125ZM500 125V250H375V125H500ZM0 125V0H375V125H0Z"
></glyph
><glyph unicode="4" d="M125 374V250H250V374H125ZM375 625V250H500V125H375V0H250V125H0V375H125V500H250V625H375Z"
></glyph
><glyph unicode="5" d="M125 375V500H500V625H0V250H375V375H125ZM500 250H375V125H500V250ZM375 0V125H0V0H375Z"
></glyph
><glyph unicode="6" d="M375 126V249H125V126H375ZM125 125H0V500H125V625H375V500H125V375H375V250H500V125H375V0H125V125Z"
></glyph
><glyph unicode="7" d="M0 625V500H375V375H500V625H0ZM125 0H250V250H125V0ZM250 250H375V375H250V250Z"
></glyph
><glyph unicode="8" d="M375 376V499H125V376H375ZM375 126V249H125V126H375ZM125 125H0V250H125V375H0V500H125V625H375V500H500V375H375V250H500V125H375V0H125V125Z"
></glyph
><glyph unicode="9" d="M125 499V376H375V499H125ZM125 125H375V250H125V375H0V500H125V625H375V500H500V125H375V0H125V125Z"
></glyph
><glyph unicode=":" horiz-adv-x="250" d="M0 375H125V500H0V375ZM0 125H125V250H0V125Z"
></glyph
><glyph unicode=";" horiz-adv-x="250" d="M125 500H0V375H125V500ZM125 250H0V0H125V250Z"
></glyph
><glyph unicode="&lt;" horiz-adv-x="500" d="M125 375H250V500H125V375ZM250 500H375V625H250V500ZM0 250H125V375H0V250ZM250 125V250H125V125H250ZM375 0V125H250V0H375Z"
></glyph
><glyph unicode="=" horiz-adv-x="500" d="M0 500V375H375V500H0ZM0 250V125H375V250H0Z"
></glyph
><glyph unicode="&gt;" horiz-adv-x="500" d="M0 625V500H125V625H0ZM125 500V375H250V500H125ZM125 125H250V250H125V125ZM250 250H375V375H250V250ZM0 0H125V125H0V0Z"
></glyph
><glyph unicode="?" d="M0 625V500H375V625H0ZM375 375H500V500H375V375ZM125 375V250H375V375H125ZM125 0H250V125H125V0Z"
></glyph
><glyph unicode="@" horiz-adv-x="750" d="M500 126V250H375V126H500ZM500 499H125V126H250V375H500V499ZM625 500V125H500V0H125V125H0V500H125V625H500V500H625Z"
></glyph
><glyph unicode="A" d="M125 500V625H375V500H500V0H375V125H125V0H0V500H125ZM375 250V499H125V250H375Z"
></glyph
><glyph unicode="B" d="M125 376H375V499H125V376ZM375 249H125V126H375V249ZM500 125H375V0H0V625H375V500H500V375H375V250H500V125Z"
></glyph
><glyph unicode="C" horiz-adv-x="500" d="M375 500V625H125V500H375ZM125 500H0V125H125V500ZM375 0V125H125V0H375Z"
></glyph
><glyph unicode="D" d="M375 126V499H125V126H375ZM375 0H0V625H375V500H500V125H375V0Z"
></glyph
><glyph unicode="E" horiz-adv-x="500" d="M375 0V125H125V250H375V375H125V500H375V625H0V0H375Z"
></glyph
><glyph unicode="F" horiz-adv-x="500" d="M125 250H375V375H125V500H375V625H0V0H125V250Z"
></glyph
><glyph unicode="G" d="M500 500V625H125V500H500ZM125 500H0V125H125V500ZM500 0H125V125H375V250H250V375H500V0Z"
></glyph
><glyph unicode="H" d="M375 375H125V625H0V0H125V250H375V0H500V625H375V375Z"
></glyph
><glyph unicode="I" horiz-adv-x="500" d="M250 500H375V625H0V500H125V125H0V0H375V125H250V500Z"
></glyph
><glyph unicode="J" d="M250 625V500H375V125H500V625H250ZM0 250V125H125V250H0ZM125 125V0H375V125H125Z"
></glyph
><glyph unicode="K" d="M125 625H0V0H125V250H250V375H125V625ZM375 500H500V625H375V500ZM250 375H375V500H250V375ZM375 125V250H250V125H375ZM500 0V125H375V0H500Z"
></glyph
><glyph unicode="L" horiz-adv-x="500" d="M375 0V125H125V625H0V0H375Z"
></glyph
><glyph unicode="M" horiz-adv-x="750" d="M125 500V625H0V0H125V375H250V500H125ZM250 250H375V375H250V250ZM500 500H375V375H500V0H625V625H500V500Z"
></glyph
><glyph unicode="N" d="M375 250V0H500V625H375V375H250V250H375ZM125 375H250V500H125V625H0V0H125V375Z"
></glyph
><glyph unicode="O" d="M375 126V499H125V126H375ZM125 125H0V500H125V625H375V500H500V125H375V0H125V125Z"
></glyph
><glyph unicode="P" d="M375 500H500V250H375V125H125V0H0V625H375V500ZM125 251H375V499H125V251Z"
></glyph
><glyph unicode="Q" d="M375 126V499H125V126H375ZM125 125H0V500H125V625H375V500H500V125H375V0H500V-125H375V0H125V125Z"
></glyph
><glyph unicode="R" d="M500 0H375V125H125V0H0V625H375V501H125V251H375V500H500V250H375V125H500V0Z"
></glyph
><glyph unicode="S" d="M0 375H125V500H0V375ZM125 625V500H500V625H125ZM375 250V375H125V250H375ZM500 125V250H375V125H500ZM0 125V0H375V125H0Z"
></glyph
><glyph unicode="T" horiz-adv-x="500" d="M125 0H250V500H375V625H0V500H125V0Z"
></glyph
><glyph unicode="U" d="M375 125H500V625H375V125ZM125 625H0V125H125V625ZM125 125V0H375V125H125Z"
></glyph
><glyph unicode="V" d="M0 125H125V625H0V125ZM125 0H250V125H125V0ZM250 250H375V125H250V250ZM375 625H500V250H375V625Z"
></glyph
><glyph unicode="W" horiz-adv-x="750" d="M125 625H0V125H125V625ZM375 500H250V125H375V500ZM125 0H250V125H125V0ZM375 0H500V125H375V0ZM500 625V125H625V625H500Z"
></glyph
><glyph unicode="X" d="M125 625H0V375H125V625ZM500 625H375V375H500V625ZM375 250V375H125V250H375ZM125 250H0V0H125V250ZM375 0H500V250H375V0Z"
></glyph
><glyph unicode="Y" d="M125 625H0V375H125V625ZM375 375H125V250H375V125H500V625H375V375ZM125 125V0H375V125H125Z"
></glyph
><glyph unicode="Z" horiz-adv-x="500" d="M375 625H0V500H250V375H375V625ZM250 375H125V250H250V375ZM375 0V125H125V250H0V0H375Z"
></glyph
><glyph unicode="[" horiz-adv-x="375" d="M0 625V0H250V125H125V500H250V625H0Z"
></glyph
><glyph unicode="\" horiz-adv-x="750" d="M250 375H125V500H250V375ZM125 625V500H0V625H125ZM500 125H375V250H500V125ZM375 250H250V375H375V250ZM625 0H500V125H625V0Z"
></glyph
><glyph unicode="]" horiz-adv-x="375" d="M250 0V625H0V500H125V125H0V0H250Z"
></glyph
><glyph unicode="^" horiz-adv-x="500" d="M125 625V500H250V625H125ZM0 375H125V500H0V375ZM250 375H375V500H250V375Z"
></glyph
><glyph unicode="_" d="M0 125V0H500V125H0Z"
></glyph
><glyph unicode="`" horiz-adv-x="375" d="M0 625V500H125V625H0ZM125 375H250V500H125V375Z"
></glyph
><glyph unicode="a" d="M125 126H375V374H125V126ZM125 375V500H500V0H125V125H0V375H125Z"
></glyph
><glyph unicode="b" d="M375 375H500V125H375V0H0V625H125V500H375V375ZM125 126H375V374H125V126Z"
></glyph
><glyph unicode="c" horiz-adv-x="500" d="M375 375V500H125V375H375ZM125 375H0V125H125V375ZM375 0V125H125V0H375Z"
></glyph
><glyph unicode="d" d="M125 126H375V374H125V126ZM125 375V500H375V625H500V0H125V125H0V375H125Z"
></glyph
><glyph unicode="e" d="M250 251V374H125V251H250ZM125 0V125H0V375H125V500H375V375H500V250H250V125H375V0H125Z"
></glyph
><glyph unicode="f" horiz-adv-x="500" d="M375 625H250V500H375V625ZM125 500V375H0V250H125V0H250V250H375V375H250V500H125Z"
></glyph
><glyph unicode="g" d="M125 126H375V374H125V126ZM125 -125H375V0H125V125H0V375H125V500H500V-125H375V-250H125v125Z"
></glyph
><glyph unicode="h" d="M125 500V625H0V0H125V375H375V500H125ZM375 0H500V375H375V0Z"
></glyph
><glyph unicode="i" horiz-adv-x="250" d="M125 625H0V500H125V625ZM125 375H0V0H125V375Z"
></glyph
><glyph unicode="j" horiz-adv-x="375" d="M250 625H125V500H250V625ZM250 375H125V-125H250V375ZM125 -125H0V-250H125v125Z"
></glyph
><glyph unicode="k" d="M375 375H250V250H125V625H0V0H125V125H375V375ZM500 500H375V375H500V500ZM500 0V125H375V0H500Z"
></glyph
><glyph unicode="l" horiz-adv-x="250" d="M125 625H0V0H125V625Z"
></glyph
><glyph unicode="m" horiz-adv-x="750" d="M0 500V0H125V375H250V0H375V375H500V500H0ZM500 0H625V375H500V0Z"
></glyph
><glyph unicode="n" d="M375 0H500V375H375V0ZM125 375H375V500H0V0H125V375Z"
></glyph
><glyph unicode="o" d="M375 126V374H125V126H375ZM125 125H0V375H125V500H375V375H500V125H375V0H125V125Z"
></glyph
><glyph unicode="p" d="M375 375H500V125H375V0H125V-250H0V500H375V375ZM125 126H375V374H125V126Z"
></glyph
><glyph unicode="q" d="M125 126H375V374H125V126ZM125 375V500H500V-250H375V0H125V125H0V375H125Z"
></glyph
><glyph unicode="r" horiz-adv-x="500" d="M375 500H250V375H375V500ZM125 250H250V375H125V500H0V0H125V250Z"
></glyph
><glyph unicode="s" d="M125 500V375H0V250H250V375H500V500H125ZM0 125V0H375V125H500V250H250V125H0Z"
></glyph
><glyph unicode="t" horiz-adv-x="500" d="M250 625H125V500H0V375H125V125H250V375H375V500H250V625ZM375 0V125H250V0H375Z"
></glyph
><glyph unicode="u" d="M375 125H125V0H500V500H375V125ZM125 500H0V125H125V500Z"
></glyph
><glyph unicode="v" d="M375 250H500V500H375V250ZM125 250V500H0V125H125V250v0ZM250 125H375V250H250V125ZM125 0H250V125H125V0Z"
></glyph
><glyph unicode="w" horiz-adv-x="750" d="M125 500H0V250H125V500ZM500 250H625V500H500V250ZM375 500H250V250H375V500ZM125 0H250V250H125V0ZM375 0H500V250H375V0Z"
></glyph
><glyph unicode="x" horiz-adv-x="500" d="M0 500V375H125V500H0ZM375 500H250V375H375V500ZM250 375H125V125H250V375ZM125 125H0V0H125V125ZM375 0V125H250V0H375Z"
></glyph
><glyph unicode="y" d="M125 500H0V125H125V500ZM375 0V-125H500V500H375V125H125V0H375ZM125 -125V-250H375v125H125Z"
></glyph
><glyph unicode="z" d="M0 500V375H250V250H375V375H500V500H0ZM125 125H0V0H500V125H250V250H125V125Z"
></glyph
><glyph unicode="{" horiz-adv-x="500" d="M125 625V375H250V500H375V625H125ZM0 250H125V375H0V250ZM125 0H375V125H250V250H125V0Z"
></glyph
><glyph unicode="|" horiz-adv-x="250" d="M0 0H125V625H0V0Z"
></glyph
><glyph unicode="}" horiz-adv-x="500" d="M250 625H0V500H125V375H250V625ZM125 125H0V0H250V250H125V125ZM250 250H375V375H250V250Z"
></glyph
><glyph unicode="~" d="M125 625V500H250V625H125ZM0 375H125V500H0V375ZM375 500H500V625H375V500ZM250 375H375V500H250V375Z"
></glyph
><glyph unicode="&#xa0;" horiz-adv-x="500" d=""
></glyph
><glyph unicode="&#x2010;" horiz-adv-x="500" d="M0 375V250H375V375H0Z"
></glyph
></font
></defs
><g style="font-family: &quot;Mini&quot;; font-size:50;fill:black"
><text x="20" y="50"
>!&quot;#$%&amp;&#39;()*+,-./0123456789:;&#229;&lt;&gt;?</text
><text x="20" y="100"
>@ABCDEFGHIJKLMNOPQRSTUVWXYZ[\]^_</text
><text x="20" y="150"
>` abcdefghijklmnopqrstuvwxyz|{}~</text
></g
></svg
>